"Source:","/home/dorfell/Documents/Asignaturas/Doctorado/05_Matières/09_Sistemas_embebidos/02_PCB_v0.1/pcb_edu/pcb_edu.sch"
"Date:","Tue 28 May 2019 10:23:35 AM -05"
"Tool:","Eeschema 5.0.2+dfsg1-1~bpo9+1"
"Component Count:","220"
"Ref","Value","Footprint","Datasheet","Manufacturer","Vendor"
"C1","1uF","Capacitor_SMD:C_0603_1608Metric_Pad1.05x0.95mm_HandSolder","~","",""
"C2","1uF","Capacitor_SMD:C_0603_1608Metric_Pad1.05x0.95mm_HandSolder","~","",""
"C3","1uF","Capacitor_SMD:C_0603_1608Metric_Pad1.05x0.95mm_HandSolder","~","",""
"C4","1uF","Capacitor_SMD:C_0603_1608Metric_Pad1.05x0.95mm_HandSolder","~","",""
"C5","100nF","Capacitor_SMD:C_0603_1608Metric_Pad1.05x0.95mm_HandSolder","~","",""
"C6","100nF","Capacitor_SMD:C_0603_1608Metric_Pad1.05x0.95mm_HandSolder","~","",""
"C7","100nF","Capacitor_SMD:C_0603_1608Metric_Pad1.05x0.95mm_HandSolder","~","",""
"C8","100nF","Capacitor_SMD:C_0603_1608Metric_Pad1.05x0.95mm_HandSolder","~","",""
"C9","100nF","Capacitor_SMD:C_0603_1608Metric_Pad1.05x0.95mm_HandSolder","~","",""
"C10","100nF","Capacitor_SMD:C_0603_1608Metric_Pad1.05x0.95mm_HandSolder","~","",""
"C11","100nF","Capacitor_SMD:C_0603_1608Metric_Pad1.05x0.95mm_HandSolder","~","",""
"C12","100nF","Capacitor_SMD:C_0603_1608Metric_Pad1.05x0.95mm_HandSolder","~","",""
"C13","18pF","Capacitor_SMD:C_0603_1608Metric_Pad1.05x0.95mm_HandSolder","~","",""
"C14","4.7uF","Capacitor_SMD:C_0603_1608Metric_Pad1.05x0.95mm_HandSolder","~","",""
"C15","18pF","Capacitor_SMD:C_0603_1608Metric_Pad1.05x0.95mm_HandSolder","~","",""
"C16","4.7uF","Capacitor_SMD:C_0603_1608Metric_Pad1.05x0.95mm_HandSolder","~","",""
"C17","3.3uF","Capacitor_SMD:C_0603_1608Metric_Pad1.05x0.95mm_HandSolder","~","",""
"C18","100nF","Capacitor_SMD:C_0603_1608Metric_Pad1.05x0.95mm_HandSolder","~","",""
"C19","100nF","Capacitor_SMD:C_0603_1608Metric_Pad1.05x0.95mm_HandSolder","~","",""
"C20","100nF","Capacitor_SMD:C_0603_1608Metric_Pad1.05x0.95mm_HandSolder","~","",""
"C21","100nF","Capacitor_SMD:C_0603_1608Metric_Pad1.05x0.95mm_HandSolder","~","",""
"C22","100nF","Capacitor_SMD:C_0603_1608Metric_Pad1.05x0.95mm_HandSolder","~","",""
"C23","100nF","Capacitor_SMD:C_0603_1608Metric_Pad1.05x0.95mm_HandSolder","~","",""
"C24","100nF","Capacitor_SMD:C_0603_1608Metric_Pad1.05x0.95mm_HandSolder","~","",""
"C25","100nF","Capacitor_SMD:C_0603_1608Metric_Pad1.05x0.95mm_HandSolder","~","",""
"C26","100nF","Capacitor_SMD:C_0603_1608Metric_Pad1.05x0.95mm_HandSolder","~","",""
"C27","100nF","Capacitor_SMD:C_0603_1608Metric_Pad1.05x0.95mm_HandSolder","~","",""
"C28","100nF","Capacitor_SMD:C_0603_1608Metric_Pad1.05x0.95mm_HandSolder","~","",""
"C29","100nF","Capacitor_SMD:C_0603_1608Metric_Pad1.05x0.95mm_HandSolder","~","",""
"C30","100nF","Capacitor_SMD:C_0603_1608Metric_Pad1.05x0.95mm_HandSolder","~","",""
"C31","100nF","Capacitor_SMD:C_0603_1608Metric_Pad1.05x0.95mm_HandSolder","~","",""
"C32","100nF","Capacitor_SMD:C_0603_1608Metric_Pad1.05x0.95mm_HandSolder","~","",""
"C33","100nF","Capacitor_SMD:C_0603_1608Metric_Pad1.05x0.95mm_HandSolder","~","",""
"C34","100nF","Capacitor_SMD:C_0603_1608Metric_Pad1.05x0.95mm_HandSolder","~","",""
"C35","36pF","Capacitor_SMD:C_0603_1608Metric_Pad1.05x0.95mm_HandSolder","~","",""
"C36","36pF","Capacitor_SMD:C_0603_1608Metric_Pad1.05x0.95mm_HandSolder","~","",""
"C37","2.2uF X7R","Capacitor_SMD:C_0603_1608Metric_Pad1.05x0.95mm_HandSolder","~","",""
"C38","2.2uF X7R","Capacitor_SMD:C_0603_1608Metric_Pad1.05x0.95mm_HandSolder","~","",""
"C39","25pF","Capacitor_SMD:C_0603_1608Metric_Pad1.05x0.95mm_HandSolder","~","",""
"C40","25pF","Capacitor_SMD:C_0603_1608Metric_Pad1.05x0.95mm_HandSolder","~","",""
"C41","100nF","Capacitor_SMD:C_0603_1608Metric_Pad1.05x0.95mm_HandSolder","~","",""
"C42","100nF","Capacitor_SMD:C_0603_1608Metric_Pad1.05x0.95mm_HandSolder","~","",""
"C43","100nF","Capacitor_SMD:C_0603_1608Metric_Pad1.05x0.95mm_HandSolder","~","",""
"C44","100nF","Capacitor_SMD:C_0603_1608Metric_Pad1.05x0.95mm_HandSolder","~","",""
"C45","100nF","Capacitor_SMD:C_0603_1608Metric_Pad1.05x0.95mm_HandSolder","~","",""
"C46","100nF","Capacitor_SMD:C_0603_1608Metric_Pad1.05x0.95mm_HandSolder","~","",""
"C47","100nF","Capacitor_SMD:C_0603_1608Metric_Pad1.05x0.95mm_HandSolder","~","",""
"C48","100nF","Capacitor_SMD:C_0603_1608Metric_Pad1.05x0.95mm_HandSolder","~","",""
"C49","100nF","Capacitor_SMD:C_0603_1608Metric_Pad1.05x0.95mm_HandSolder","~","",""
"C50","100nF","Capacitor_SMD:C_0603_1608Metric_Pad1.05x0.95mm_HandSolder","~","",""
"C51","100nF","Capacitor_SMD:C_0603_1608Metric_Pad1.05x0.95mm_HandSolder","~","",""
"C52","100nF","Capacitor_SMD:C_0603_1608Metric_Pad1.05x0.95mm_HandSolder","~","",""
"C53","100nF","Capacitor_SMD:C_0603_1608Metric_Pad1.05x0.95mm_HandSolder","~","",""
"C54","100nF","Capacitor_SMD:C_0603_1608Metric_Pad1.05x0.95mm_HandSolder","~","",""
"C55","100nF","Capacitor_SMD:C_0603_1608Metric_Pad1.05x0.95mm_HandSolder","~","",""
"C56","100nF","Capacitor_SMD:C_0603_1608Metric_Pad1.05x0.95mm_HandSolder","~","",""
"C57","100nF","Capacitor_SMD:C_0603_1608Metric_Pad1.05x0.95mm_HandSolder","~","",""
"C58","100nF","Capacitor_SMD:C_0603_1608Metric_Pad1.05x0.95mm_HandSolder","~","",""
"C59","100nF","Capacitor_SMD:C_0603_1608Metric_Pad1.05x0.95mm_HandSolder","~","",""
"C60","100nF","Capacitor_SMD:C_0603_1608Metric_Pad1.05x0.95mm_HandSolder","~","",""
"C61","4.7uF","Capacitor_SMD:C_0603_1608Metric_Pad1.05x0.95mm_HandSolder","~","",""
"C62","4.7uF","Capacitor_SMD:C_0603_1608Metric_Pad1.05x0.95mm_HandSolder","~","",""
"C63","4.7uF","Capacitor_SMD:C_0603_1608Metric_Pad1.05x0.95mm_HandSolder","~","",""
"C64","4.7uF","Capacitor_SMD:C_0603_1608Metric_Pad1.05x0.95mm_HandSolder","~","",""
"C65","4.7uF","Capacitor_SMD:C_0603_1608Metric_Pad1.05x0.95mm_HandSolder","~","",""
"C66","4.7uF","Capacitor_SMD:C_0603_1608Metric_Pad1.05x0.95mm_HandSolder","~","",""
"C67","4.7uF","Capacitor_SMD:C_0603_1608Metric_Pad1.05x0.95mm_HandSolder","~","",""
"C68","4.7uF","Capacitor_SMD:C_0603_1608Metric_Pad1.05x0.95mm_HandSolder","~","",""
"C69","4.7uF","Capacitor_SMD:C_0603_1608Metric_Pad1.05x0.95mm_HandSolder","~","",""
"C70","4.7uF","Capacitor_SMD:C_0603_1608Metric_Pad1.05x0.95mm_HandSolder","~","",""
"C71","4.7uF","Capacitor_SMD:C_0603_1608Metric_Pad1.05x0.95mm_HandSolder","~","",""
"C72","4.7uF","Capacitor_SMD:C_0603_1608Metric_Pad1.05x0.95mm_HandSolder","~","",""
"C73","4.7uF","Capacitor_SMD:C_0603_1608Metric_Pad1.05x0.95mm_HandSolder","~","",""
"C74","4.7uF","Capacitor_SMD:C_0603_1608Metric_Pad1.05x0.95mm_HandSolder","~","",""
"D1","PWR","LED_SMD:LED_0603_1608Metric_Pad1.05x0.95mm_HandSolder","~","",""
"D2","RX","LED_SMD:LED_0603_1608Metric_Pad1.05x0.95mm_HandSolder","~","",""
"D3","TX","LED_SMD:LED_0603_1608Metric_Pad1.05x0.95mm_HandSolder","~","",""
"D4","LED_uC","LED_SMD:LED_0603_1608Metric_Pad1.05x0.95mm_HandSolder","~","",""
"D5","LED_uC","LED_SMD:LED_0603_1608Metric_Pad1.05x0.95mm_HandSolder","~","",""
"D6","LED_uC","LED_SMD:LED_0603_1608Metric_Pad1.05x0.95mm_HandSolder","~","",""
"D7","LED_uC","LED_SMD:LED_0603_1608Metric_Pad1.05x0.95mm_HandSolder","~","",""
"D8","LED_uC","LED_SMD:LED_0603_1608Metric_Pad1.05x0.95mm_HandSolder","~","",""
"D9","LED_uC","LED_SMD:LED_0603_1608Metric_Pad1.05x0.95mm_HandSolder","~","",""
"D10","LED_uC","LED_SMD:LED_0603_1608Metric_Pad1.05x0.95mm_HandSolder","~","",""
"D11","LED_uC","LED_SMD:LED_0603_1608Metric_Pad1.05x0.95mm_HandSolder","~","",""
"D12","LED_uC","LED_SMD:LED_0603_1608Metric_Pad1.05x0.95mm_HandSolder","~","",""
"D13","LED_uC","LED_SMD:LED_0603_1608Metric_Pad1.05x0.95mm_HandSolder","~","",""
"D14","LED_uC","LED_SMD:LED_0603_1608Metric_Pad1.05x0.95mm_HandSolder","~","",""
"D15","LED_uC","LED_SMD:LED_0603_1608Metric_Pad1.05x0.95mm_HandSolder","~","",""
"D16","LED_uC","LED_SMD:LED_0603_1608Metric_Pad1.05x0.95mm_HandSolder","~","",""
"J1","Barrel_Jack","Connector_BarrelJack:BarrelJack_Horizontal","~","",""
"J2","Conn_01x01","Connector_PinHeader_2.54mm:PinHeader_1x01_P2.54mm_Vertical","~","",""
"J3","USB_B_Micro","Connector_USB:USB_Micro-B_GCT_USB3076-30-A","~","",""
"J4","Conn_01x03","Connector_PinHeader_2.54mm:PinHeader_1x03_P2.54mm_Vertical","~","",""
"J5","Conn_01x02","Connector_PinHeader_2.54mm:PinHeader_1x02_P2.54mm_Vertical","~","",""
"J6","Conn_02x06","Connector_PinSocket_2.54mm:PinSocket_2x06_P2.54mm_Vertical","~","",""
"J7","Conn_02x06","pmods:Pmod_2x06_P2.54mm_fixed","~","",""
"J8","Conn_02x06","pmods:Pmod_2x06_P2.54mm_fixed","~","",""
"J9","Conn_02x06","pmods:Pmod_2x06_P2.54mm_fixed","~","",""
"J10","Conn_02x06","pmods:Pmod_2x06_P2.54mm_fixed","~","",""
"J11","Conn_02x06","pmods:Pmod_2x06_P2.54mm_fixed","~","",""
"J12","Conn_02x06","pmods:Pmod_2x06_P2.54mm_fixed","~","",""
"J13","Conn_02x06","pmods:Pmod_2x06_P2.54mm_fixed","~","",""
"J14","Conn_02x06","pmods:Pmod_2x06_P2.54mm_fixed","~","",""
"J15","Conn_02x06","pmods:Pmod_2x06_P2.54mm_fixed","~","",""
"J16","Conn_02x06","pmods:Pmod_2x06_P2.54mm_fixed","~","",""
"L1","bead, 1k, 800 mA","Inductor_SMD:L_0603_1608Metric_Pad1.05x0.95mm_HandSolder","~","",""
"L2","bead, 1k, 800 mA","Inductor_SMD:L_0603_1608Metric_Pad1.05x0.95mm_HandSolder","~","",""
"L3","bead, 600R, 350 mA","Inductor_SMD:L_0603_1608Metric_Pad1.05x0.95mm_HandSolder","~","",""
"L4","bead, 600R, 350 mA","Inductor_SMD:L_0603_1608Metric_Pad1.05x0.95mm_HandSolder","~","",""
"R1","0","Resistor_SMD:R_0603_1608Metric_Pad1.05x0.95mm_HandSolder","~","",""
"R2","10k","Resistor_SMD:R_0603_1608Metric_Pad1.05x0.95mm_HandSolder","~","",""
"R3","390","Resistor_SMD:R_0603_1608Metric_Pad1.05x0.95mm_HandSolder","~","",""
"R4","10k","Resistor_SMD:R_0603_1608Metric_Pad1.05x0.95mm_HandSolder","~","",""
"R5","10k","Resistor_SMD:R_0603_1608Metric_Pad1.05x0.95mm_HandSolder","~","",""
"R6","2.2k","Resistor_SMD:R_0603_1608Metric_Pad1.05x0.95mm_HandSolder","~","",""
"R7","10k","Resistor_SMD:R_0603_1608Metric_Pad1.05x0.95mm_HandSolder","~","",""
"R8","12k","Resistor_SMD:R_0603_1608Metric_Pad1.05x0.95mm_HandSolder","~","",""
"R9","1k","Resistor_SMD:R_0603_1608Metric_Pad1.05x0.95mm_HandSolder","~","",""
"R10","100","Resistor_SMD:R_0603_1608Metric_Pad1.05x0.95mm_HandSolder","~","",""
"R11","100","Resistor_SMD:R_0603_1608Metric_Pad1.05x0.95mm_HandSolder","~","",""
"R12","100","Resistor_SMD:R_0603_1608Metric_Pad1.05x0.95mm_HandSolder","~","",""
"R13","220","Resistor_SMD:R_0603_1608Metric_Pad1.05x0.95mm_HandSolder","~","",""
"R14","220","Resistor_SMD:R_0603_1608Metric_Pad1.05x0.95mm_HandSolder","~","",""
"R15","100","Resistor_SMD:R_0603_1608Metric_Pad1.05x0.95mm_HandSolder","~","",""
"R16","100","Resistor_SMD:R_0603_1608Metric_Pad1.05x0.95mm_HandSolder","~","",""
"R17","100","Resistor_SMD:R_0603_1608Metric_Pad1.05x0.95mm_HandSolder","~","",""
"R18","100","Resistor_SMD:R_0603_1608Metric_Pad1.05x0.95mm_HandSolder","~","",""
"R19","10k","Resistor_SMD:R_0603_1608Metric_Pad1.05x0.95mm_HandSolder","~","",""
"R20","10k","Resistor_SMD:R_0603_1608Metric_Pad1.05x0.95mm_HandSolder","~","",""
"R21","4.7k","Resistor_SMD:R_0603_1608Metric_Pad1.05x0.95mm_HandSolder","~","",""
"R22","4.7k","Resistor_SMD:R_0603_1608Metric_Pad1.05x0.95mm_HandSolder","~","",""
"R23","4.7k","Resistor_SMD:R_0603_1608Metric_Pad1.05x0.95mm_HandSolder","~","",""
"R24","4.7k","Resistor_SMD:R_0603_1608Metric_Pad1.05x0.95mm_HandSolder","~","",""
"R25","680","Resistor_SMD:R_0603_1608Metric_Pad1.05x0.95mm_HandSolder","~","",""
"R26","680","Resistor_SMD:R_0603_1608Metric_Pad1.05x0.95mm_HandSolder","~","",""
"R27","680","Resistor_SMD:R_0603_1608Metric_Pad1.05x0.95mm_HandSolder","~","",""
"R28","680","Resistor_SMD:R_0603_1608Metric_Pad1.05x0.95mm_HandSolder","~","",""
"R29","10k","Resistor_SMD:R_0603_1608Metric_Pad1.05x0.95mm_HandSolder","~","",""
"R30","220k","Resistor_SMD:R_0603_1608Metric_Pad1.05x0.95mm_HandSolder","~","",""
"R31","220k","Resistor_SMD:R_0603_1608Metric_Pad1.05x0.95mm_HandSolder","~","",""
"R32","220k","Resistor_SMD:R_0603_1608Metric_Pad1.05x0.95mm_HandSolder","~","",""
"R33","220k","Resistor_SMD:R_0603_1608Metric_Pad1.05x0.95mm_HandSolder","~","",""
"R34","330","Resistor_SMD:R_0603_1608Metric_Pad1.05x0.95mm_HandSolder","~","",""
"R35","330","Resistor_SMD:R_0603_1608Metric_Pad1.05x0.95mm_HandSolder","~","",""
"R36","330","Resistor_SMD:R_0603_1608Metric_Pad1.05x0.95mm_HandSolder","~","",""
"R37","330","Resistor_SMD:R_0603_1608Metric_Pad1.05x0.95mm_HandSolder","~","",""
"R38","390","Resistor_SMD:R_0603_1608Metric_Pad1.05x0.95mm_HandSolder","~","",""
"R39","390","Resistor_SMD:R_0603_1608Metric_Pad1.05x0.95mm_HandSolder","~","",""
"R40","390","Resistor_SMD:R_0603_1608Metric_Pad1.05x0.95mm_HandSolder","~","",""
"R41","390","Resistor_SMD:R_0603_1608Metric_Pad1.05x0.95mm_HandSolder","~","",""
"R42","390","Resistor_SMD:R_0603_1608Metric_Pad1.05x0.95mm_HandSolder","~","",""
"R43","390","Resistor_SMD:R_0603_1608Metric_Pad1.05x0.95mm_HandSolder","~","",""
"R44","390","Resistor_SMD:R_0603_1608Metric_Pad1.05x0.95mm_HandSolder","~","",""
"R45","390","Resistor_SMD:R_0603_1608Metric_Pad1.05x0.95mm_HandSolder","~","",""
"R46","220","Resistor_SMD:R_0603_1608Metric_Pad1.05x0.95mm_HandSolder","~","",""
"R47","220","Resistor_SMD:R_0603_1608Metric_Pad1.05x0.95mm_HandSolder","~","",""
"R48","4.7k","Resistor_SMD:R_0603_1608Metric_Pad1.05x0.95mm_HandSolder","~","",""
"R49","200","Resistor_SMD:R_0603_1608Metric_Pad1.05x0.95mm_HandSolder","~","",""
"R50","200","Resistor_SMD:R_0603_1608Metric_Pad1.05x0.95mm_HandSolder","~","",""
"R51","200","Resistor_SMD:R_0603_1608Metric_Pad1.05x0.95mm_HandSolder","~","",""
"R52","200","Resistor_SMD:R_0603_1608Metric_Pad1.05x0.95mm_HandSolder","~","",""
"R53","200","Resistor_SMD:R_0603_1608Metric_Pad1.05x0.95mm_HandSolder","~","",""
"R54","200","Resistor_SMD:R_0603_1608Metric_Pad1.05x0.95mm_HandSolder","~","",""
"R55","200","Resistor_SMD:R_0603_1608Metric_Pad1.05x0.95mm_HandSolder","~","",""
"R56","200","Resistor_SMD:R_0603_1608Metric_Pad1.05x0.95mm_HandSolder","~","",""
"R57","200","Resistor_SMD:R_0603_1608Metric_Pad1.05x0.95mm_HandSolder","~","",""
"R58","200","Resistor_SMD:R_0603_1608Metric_Pad1.05x0.95mm_HandSolder","~","",""
"R59","200","Resistor_SMD:R_0603_1608Metric_Pad1.05x0.95mm_HandSolder","~","",""
"R60","200","Resistor_SMD:R_0603_1608Metric_Pad1.05x0.95mm_HandSolder","~","",""
"R61","200","Resistor_SMD:R_0603_1608Metric_Pad1.05x0.95mm_HandSolder","~","",""
"R62","200","Resistor_SMD:R_0603_1608Metric_Pad1.05x0.95mm_HandSolder","~","",""
"R63","200","Resistor_SMD:R_0603_1608Metric_Pad1.05x0.95mm_HandSolder","~","",""
"R64","200","Resistor_SMD:R_0603_1608Metric_Pad1.05x0.95mm_HandSolder","~","",""
"R65","10k","Resistor_SMD:R_0603_1608Metric_Pad1.05x0.95mm_HandSolder","~","",""
"R66","10k","Resistor_SMD:R_0603_1608Metric_Pad1.05x0.95mm_HandSolder","~","",""
"R67","10k","Resistor_SMD:R_0603_1608Metric_Pad1.05x0.95mm_HandSolder","~","",""
"R68","10k","Resistor_SMD:R_0603_1608Metric_Pad1.05x0.95mm_HandSolder","~","",""
"R69","200","Resistor_SMD:R_0603_1608Metric_Pad1.05x0.95mm_HandSolder","~","",""
"R70","200","Resistor_SMD:R_0603_1608Metric_Pad1.05x0.95mm_HandSolder","~","",""
"R71","200","Resistor_SMD:R_0603_1608Metric_Pad1.05x0.95mm_HandSolder","~","",""
"R72","200","Resistor_SMD:R_0603_1608Metric_Pad1.05x0.95mm_HandSolder","~","",""
"R73","200","Resistor_SMD:R_0603_1608Metric_Pad1.05x0.95mm_HandSolder","~","",""
"R74","200","Resistor_SMD:R_0603_1608Metric_Pad1.05x0.95mm_HandSolder","~","",""
"R75","200","Resistor_SMD:R_0603_1608Metric_Pad1.05x0.95mm_HandSolder","~","",""
"R76","200","Resistor_SMD:R_0603_1608Metric_Pad1.05x0.95mm_HandSolder","~","",""
"R77","200","Resistor_SMD:R_0603_1608Metric_Pad1.05x0.95mm_HandSolder","~","",""
"R78","200","Resistor_SMD:R_0603_1608Metric_Pad1.05x0.95mm_HandSolder","~","",""
"R79","200","Resistor_SMD:R_0603_1608Metric_Pad1.05x0.95mm_HandSolder","~","",""
"R80","200","Resistor_SMD:R_0603_1608Metric_Pad1.05x0.95mm_HandSolder","~","",""
"R81","200","Resistor_SMD:R_0603_1608Metric_Pad1.05x0.95mm_HandSolder","~","",""
"R82","200","Resistor_SMD:R_0603_1608Metric_Pad1.05x0.95mm_HandSolder","~","",""
"R83","200","Resistor_SMD:R_0603_1608Metric_Pad1.05x0.95mm_HandSolder","~","",""
"R84","200","Resistor_SMD:R_0603_1608Metric_Pad1.05x0.95mm_HandSolder","~","",""
"R85","10k","Resistor_SMD:R_0603_1608Metric_Pad1.05x0.95mm_HandSolder","~","",""
"R86","10k","Resistor_SMD:R_0603_1608Metric_Pad1.05x0.95mm_HandSolder","~","",""
"R87","10k","Resistor_SMD:R_0603_1608Metric_Pad1.05x0.95mm_HandSolder","~","",""
"R88","10k","Resistor_SMD:R_0603_1608Metric_Pad1.05x0.95mm_HandSolder","~","",""
"SW1","SW_SPDT","Button_Switch_THT:SW_CuK_OS102011MA1QN1_SPDT_Angled","","",""
"SW2","SW_Push_Dual","Button_Switch_THT:SW_PUSH_6mm","","",""
"SW3","SW_Push_Dual","Button_Switch_THT:SW_PUSH_6mm","","",""
"SW4","SW_Push_Dual","Button_Switch_THT:SW_PUSH_6mm","","",""
"SW5","SW_Push_Dual","Button_Switch_THT:SW_PUSH_6mm","","",""
"SW6","SW_Push_Dual","Button_Switch_THT:SW_PUSH_6mm","","",""
"SW7","SW_Push_Dual","Button_Switch_THT:SW_PUSH_6mm","","",""
"SW8","SW_Push_Dual","Button_Switch_THT:SW_PUSH_6mm","","",""
"SW9","SW_Push_Dual","Button_Switch_THT:SW_PUSH_6mm","","",""
"SW10","SW_Push_Dual","Button_Switch_THT:SW_PUSH_6mm","","",""
"SW11","SW_Push_Dual","Button_Switch_THT:SW_PUSH_6mm","","",""
"U1","TLV1117-33","Package_TO_SOT_SMD:SOT-223-3_TabPin2","http://www.ti.com/lit/ds/symlink/tlv1117.pdf","",""
"U2","TLV70012_SOT23-5","Package_TO_SOT_SMD:SOT-23-5","http://www.ti.com/lit/ds/symlink/tlv700.pdf","",""
"U3","93CxxB","Package_SO:SOIC-8_3.9x4.9mm_P1.27mm","http://ww1.microchip.com/downloads/en/DeviceDoc/20001749K.pdf","",""
"U4","FT2232H","Package_QFP:LQFP-64_10x10mm_P0.5mm","http://www.ftdichip.com/Products/ICs/FT2232H.html","",""
"U5","STM32F765ZITx","Package_QFP:LQFP-144_20x20mm_P0.5mm","http://www.st.com/st-web-ui/static/active/en/resource/technical/document/datasheet/DM00273119.pdf","",""
"U6","CY7C199","Package_SO:TSOP-I-28_11.8x8mm_P0.55mm","","",""
"U7","XC6SLX9-TQ144","Package_QFP:LQFP-144_20x20mm_P0.5mm","","",""
"X1","ASE-xxxMHz","Oscillator:Oscillator_SMD_SeikoEpson_SG210-4Pin_2.5x2.0mm_HandSoldering","http://www.abracon.com/Oscillators/ASV.pdf","",""
"Y1","12MHz","Crystal:Crystal_SMD_EuroQuartz_MT-4Pin_3.2x2.5mm_HandSoldering","~","",""
"Y2","12MHz","Crystal:Crystal_SMD_EuroQuartz_MT-4Pin_3.2x2.5mm_HandSoldering","~","",""
"Y3","32kHz","Crystal:Crystal_SMD_G8-2Pin_3.2x1.5mm_HandSoldering","~","",""
