EESchema Schematic File Version 4
LIBS:pcb_edu-cache
EELAYER 26 0
EELAYER END
$Descr A3 16535 11693
encoding utf-8
Sheet 2 4
Title "EDU_PCB-Power Suppy - Configuration"
Date ""
Rev ""
Comp "Universidad Nacional de Colombia"
Comment1 "Dorfell Parra"
Comment2 ""
Comment3 ""
Comment4 ""
$EndDescr
$Comp
L Interface_USB:FT2232H U4
U 1 1 5CC0F8FE
P 11975 6300
F 0 "U4" H 12800 8425 50  0000 C CNN
F 1 "FT2232H" H 12825 4150 50  0000 C CNN
F 2 "Package_QFP:LQFP-64_10x10mm_P0.5mm" H 11975 6300 50  0001 C CNN
F 3 "http://www.ftdichip.com/Products/ICs/FT2232H.html" H 11975 6300 50  0001 C CNN
	1    11975 6300
	1    0    0    -1  
$EndComp
$Comp
L Connector:USB_B_Micro J3
U 1 1 5CCEEA51
P 1775 8100
F 0 "J3" H 1830 8567 50  0000 C CNN
F 1 "USB_B_Micro" H 1830 8476 50  0000 C CNN
F 2 "Connector_USB:USB_Micro-B_GCT_USB3076-30-A" H 1925 8050 50  0001 C CNN
F 3 "~" H 1925 8050 50  0001 C CNN
	1    1775 8100
	1    0    0    -1  
$EndComp
$Comp
L Memory_EEPROM:93CxxB U3
U 1 1 5CC2F512
P 7600 7200
F 0 "U3" H 7825 7450 50  0000 C CNN
F 1 "93CxxB" H 7775 6950 50  0000 C CNN
F 2 "Package_SO:SOIC-8_3.9x4.9mm_P1.27mm" H 7600 7200 50  0001 C CNN
F 3 "http://ww1.microchip.com/downloads/en/DeviceDoc/20001749K.pdf" H 7600 7200 50  0001 C CNN
	1    7600 7200
	1    0    0    -1  
$EndComp
$Comp
L power:GND #PWR035
U 1 1 5CC2F63F
P 12275 9025
F 0 "#PWR035" H 12275 8775 50  0001 C CNN
F 1 "GND" H 12280 8852 50  0000 C CNN
F 2 "" H 12275 9025 50  0001 C CNN
F 3 "" H 12275 9025 50  0001 C CNN
	1    12275 9025
	1    0    0    -1  
$EndComp
Wire Wire Line
	12275 8500 12275 8775
Wire Wire Line
	12275 8775 12175 8775
Wire Wire Line
	10450 8775 10450 8100
Wire Wire Line
	10450 8100 10775 8100
Wire Wire Line
	12175 8500 12175 8775
Connection ~ 12175 8775
Wire Wire Line
	12175 8775 12075 8775
Wire Wire Line
	12075 8500 12075 8775
Connection ~ 12075 8775
Wire Wire Line
	12075 8775 11975 8775
Wire Wire Line
	11975 8500 11975 8775
Connection ~ 11975 8775
Wire Wire Line
	11975 8775 11875 8775
Wire Wire Line
	11875 8500 11875 8775
Connection ~ 11875 8775
Wire Wire Line
	11875 8775 11775 8775
Wire Wire Line
	11775 8500 11775 8775
Connection ~ 11775 8775
Wire Wire Line
	11775 8775 11675 8775
Wire Wire Line
	11675 8500 11675 8775
Connection ~ 11675 8775
Wire Wire Line
	11675 8775 11575 8775
Wire Wire Line
	11575 8500 11575 8775
Connection ~ 11575 8775
Wire Wire Line
	11375 8500 11375 8775
Wire Wire Line
	10450 8775 11375 8775
Connection ~ 11375 8775
Wire Wire Line
	11375 8775 11575 8775
Wire Wire Line
	12275 8775 12275 9025
Connection ~ 12275 8775
$Comp
L Device:C_Small C13
U 1 1 5CC301F2
P 9450 8400
F 0 "C13" H 9500 8475 50  0000 L CNN
F 1 "18pF" H 9500 8325 50  0000 L CNN
F 2 "Capacitor_SMD:C_0603_1608Metric_Pad1.05x0.95mm_HandSolder" H 9450 8400 50  0001 C CNN
F 3 "~" H 9450 8400 50  0001 C CNN
	1    9450 8400
	1    0    0    -1  
$EndComp
$Comp
L Device:C_Small C15
U 1 1 5CC302C0
P 10025 8400
F 0 "C15" H 10075 8475 50  0000 L CNN
F 1 "18pF" H 10075 8325 50  0000 L CNN
F 2 "Capacitor_SMD:C_0603_1608Metric_Pad1.05x0.95mm_HandSolder" H 10025 8400 50  0001 C CNN
F 3 "~" H 10025 8400 50  0001 C CNN
	1    10025 8400
	1    0    0    -1  
$EndComp
Wire Wire Line
	10775 7900 10025 7900
Wire Wire Line
	9625 7900 9450 7900
Wire Wire Line
	9450 7900 9450 8300
Wire Wire Line
	10025 8300 10025 7900
Connection ~ 10025 7900
Wire Wire Line
	10025 7900 9825 7900
$Comp
L power:GND #PWR027
U 1 1 5CC3109F
P 9725 8950
F 0 "#PWR027" H 9725 8700 50  0001 C CNN
F 1 "GND" H 9730 8777 50  0000 C CNN
F 2 "" H 9725 8950 50  0001 C CNN
F 3 "" H 9725 8950 50  0001 C CNN
	1    9725 8950
	1    0    0    -1  
$EndComp
Wire Wire Line
	9450 8500 9450 8775
Wire Wire Line
	9450 8775 9725 8775
Wire Wire Line
	10025 8775 10025 8500
Wire Wire Line
	9725 8950 9725 8775
Connection ~ 9725 8775
Wire Wire Line
	9725 8775 10025 8775
Wire Wire Line
	10775 7500 9450 7500
Wire Wire Line
	9450 7500 9450 7900
Connection ~ 9450 7900
Wire Wire Line
	8000 7100 8550 7100
Wire Wire Line
	7200 7100 6925 7100
Text Label 10350 7000 0    50   ~ 0
EECS
Text Label 6925 7100 0    50   ~ 0
EECS
$Comp
L power:+3.3V #PWR016
U 1 1 5CC35F70
P 7600 6725
F 0 "#PWR016" H 7600 6575 50  0001 C CNN
F 1 "+3.3V" H 7615 6898 50  0000 C CNN
F 2 "" H 7600 6725 50  0001 C CNN
F 3 "" H 7600 6725 50  0001 C CNN
	1    7600 6725
	1    0    0    -1  
$EndComp
Wire Wire Line
	7600 6900 7600 6725
$Comp
L power:GND #PWR017
U 1 1 5CC36756
P 7600 7675
F 0 "#PWR017" H 7600 7425 50  0001 C CNN
F 1 "GND" H 7605 7502 50  0000 C CNN
F 2 "" H 7600 7675 50  0001 C CNN
F 3 "" H 7600 7675 50  0001 C CNN
	1    7600 7675
	1    0    0    -1  
$EndComp
Wire Wire Line
	7600 7675 7600 7500
$Comp
L power:+3.3V #PWR020
U 1 1 5CC36F5B
P 8275 7850
F 0 "#PWR020" H 8275 7700 50  0001 C CNN
F 1 "+3.3V" H 8290 8023 50  0000 C CNN
F 2 "" H 8275 7850 50  0001 C CNN
F 3 "" H 8275 7850 50  0001 C CNN
	1    8275 7850
	1    0    0    -1  
$EndComp
$Comp
L power:GND #PWR021
U 1 1 5CC376F9
P 8275 8475
F 0 "#PWR021" H 8275 8225 50  0001 C CNN
F 1 "GND" H 8280 8302 50  0000 C CNN
F 2 "" H 8275 8475 50  0001 C CNN
F 3 "" H 8275 8475 50  0001 C CNN
	1    8275 8475
	1    0    0    -1  
$EndComp
$Comp
L Device:C_Small C8
U 1 1 5CC37E79
P 8275 8175
F 0 "C8" H 8325 8250 50  0000 L CNN
F 1 "100nF" H 8325 8100 50  0000 L CNN
F 2 "Capacitor_SMD:C_0603_1608Metric_Pad1.05x0.95mm_HandSolder" H 8275 8175 50  0001 C CNN
F 3 "~" H 8275 8175 50  0001 C CNN
	1    8275 8175
	1    0    0    -1  
$EndComp
Wire Wire Line
	8275 7850 8275 8075
Wire Wire Line
	8275 8275 8275 8475
Wire Wire Line
	8000 7300 8275 7300
$Comp
L Device:R_Small R6
U 1 1 5CC3A6D6
P 8775 7300
F 0 "R6" V 8850 7300 50  0000 C CNN
F 1 "2.2k" V 8925 7300 50  0000 C CNN
F 2 "Resistor_SMD:R_0603_1608Metric_Pad1.05x0.95mm_HandSolder" H 8775 7300 50  0001 C CNN
F 3 "~" H 8775 7300 50  0001 C CNN
	1    8775 7300
	0    1    1    0   
$EndComp
Wire Wire Line
	8000 7200 9150 7200
Wire Wire Line
	8875 7300 9150 7300
Wire Wire Line
	9150 7300 9150 7200
Connection ~ 9150 7200
Wire Wire Line
	9150 7200 10775 7200
$Comp
L Device:R_Small R4
U 1 1 5CC3E5BA
P 8275 6625
F 0 "R4" H 8334 6671 50  0000 L CNN
F 1 "10k" H 8334 6580 50  0000 L CNN
F 2 "Resistor_SMD:R_0603_1608Metric_Pad1.05x0.95mm_HandSolder" H 8275 6625 50  0001 C CNN
F 3 "~" H 8275 6625 50  0001 C CNN
	1    8275 6625
	1    0    0    -1  
$EndComp
$Comp
L Device:R_Small R5
U 1 1 5CC3E6D5
P 8550 6625
F 0 "R5" H 8609 6671 50  0000 L CNN
F 1 "10k" H 8609 6580 50  0000 L CNN
F 2 "Resistor_SMD:R_0603_1608Metric_Pad1.05x0.95mm_HandSolder" H 8550 6625 50  0001 C CNN
F 3 "~" H 8550 6625 50  0001 C CNN
	1    8550 6625
	1    0    0    -1  
$EndComp
$Comp
L Device:R_Small R7
U 1 1 5CC3E737
P 8825 6600
F 0 "R7" H 8884 6646 50  0000 L CNN
F 1 "10k" H 8884 6555 50  0000 L CNN
F 2 "Resistor_SMD:R_0603_1608Metric_Pad1.05x0.95mm_HandSolder" H 8825 6600 50  0001 C CNN
F 3 "~" H 8825 6600 50  0001 C CNN
	1    8825 6600
	1    0    0    -1  
$EndComp
Wire Wire Line
	8275 6725 8275 7300
Connection ~ 8275 7300
Wire Wire Line
	8275 7300 8675 7300
Wire Wire Line
	8550 6725 8550 7100
Connection ~ 8550 7100
Wire Wire Line
	8550 7100 10775 7100
Wire Wire Line
	8825 6700 8825 7000
Wire Wire Line
	8825 7000 10775 7000
Wire Wire Line
	8275 6525 8275 6350
Wire Wire Line
	8275 6350 8550 6350
Wire Wire Line
	8825 6350 8825 6500
Wire Wire Line
	8550 6525 8550 6350
Connection ~ 8550 6350
Wire Wire Line
	8550 6350 8825 6350
Wire Wire Line
	8550 6350 8550 6225
$Comp
L power:+3.3V #PWR022
U 1 1 5CC43A16
P 8550 6225
F 0 "#PWR022" H 8550 6075 50  0001 C CNN
F 1 "+3.3V" H 8565 6398 50  0000 C CNN
F 2 "" H 8550 6225 50  0001 C CNN
F 3 "" H 8550 6225 50  0001 C CNN
	1    8550 6225
	1    0    0    -1  
$EndComp
$Comp
L power:+3.3V #PWR029
U 1 1 5CC44F35
P 10250 5900
F 0 "#PWR029" H 10250 5750 50  0001 C CNN
F 1 "+3.3V" V 10265 6028 50  0000 L CNN
F 2 "" H 10250 5900 50  0001 C CNN
F 3 "" H 10250 5900 50  0001 C CNN
	1    10250 5900
	0    -1   -1   0   
$EndComp
Wire Wire Line
	10625 5900 10775 5900
$Comp
L Device:R_Small R9
U 1 1 5CC4A1E1
P 10525 5900
F 0 "R9" V 10450 5775 50  0000 C CNN
F 1 "1k" V 10600 5900 50  0000 C CNN
F 2 "Resistor_SMD:R_0603_1608Metric_Pad1.05x0.95mm_HandSolder" H 10525 5900 50  0001 C CNN
F 3 "~" H 10525 5900 50  0001 C CNN
	1    10525 5900
	0    1    1    0   
$EndComp
Wire Wire Line
	10425 5900 10250 5900
Wire Wire Line
	10625 5700 10775 5700
$Comp
L Device:R_Small R8
U 1 1 5CC4B4F1
P 10525 5700
F 0 "R8" V 10450 5575 50  0000 C CNN
F 1 "12k" V 10600 5700 50  0000 C CNN
F 2 "Resistor_SMD:R_0603_1608Metric_Pad1.05x0.95mm_HandSolder" H 10525 5700 50  0001 C CNN
F 3 "~" H 10525 5700 50  0001 C CNN
	1    10525 5700
	0    1    1    0   
$EndComp
Wire Wire Line
	10425 5700 10250 5700
Wire Wire Line
	10775 5400 10450 5400
Wire Wire Line
	10775 5500 10450 5500
Text Label 10450 5400 0    50   ~ 0
D-
Text Label 10450 5500 0    50   ~ 0
D+
Wire Wire Line
	2075 8200 2400 8200
Wire Wire Line
	2075 8100 2400 8100
Text Label 2400 8200 2    50   ~ 0
D-
Text Label 2400 8100 2    50   ~ 0
D+
NoConn ~ 2075 8300
$Comp
L power:GND #PWR01
U 1 1 5CC6127B
P 1775 8850
F 0 "#PWR01" H 1775 8600 50  0001 C CNN
F 1 "GND" H 1780 8677 50  0000 C CNN
F 2 "" H 1775 8850 50  0001 C CNN
F 3 "" H 1775 8850 50  0001 C CNN
	1    1775 8850
	1    0    0    -1  
$EndComp
$Comp
L Device:R_Small R1
U 1 1 5CC6808E
P 1675 8675
F 0 "R1" H 1825 8725 50  0000 R CNN
F 1 "0" H 1825 8625 50  0000 R CNN
F 2 "Resistor_SMD:R_0603_1608Metric_Pad1.05x0.95mm_HandSolder" H 1675 8675 50  0001 C CNN
F 3 "~" H 1675 8675 50  0001 C CNN
	1    1675 8675
	-1   0    0    -1  
$EndComp
Wire Wire Line
	1675 8500 1675 8575
Wire Wire Line
	1675 8775 1675 8850
Wire Wire Line
	1675 8850 1775 8850
Wire Wire Line
	1775 8500 1775 8850
Connection ~ 1775 8850
$Comp
L power:+3.3V #PWR036
U 1 1 5CC3A9A6
P 12325 3725
F 0 "#PWR036" H 12325 3575 50  0001 C CNN
F 1 "+3.3V" H 12340 3898 50  0000 C CNN
F 2 "" H 12325 3725 50  0001 C CNN
F 3 "" H 12325 3725 50  0001 C CNN
	1    12325 3725
	1    0    0    -1  
$EndComp
Wire Wire Line
	12175 4100 12175 3900
Wire Wire Line
	12175 3900 12275 3900
Wire Wire Line
	12475 3900 12475 4100
Wire Wire Line
	12325 3725 12325 3900
Connection ~ 12325 3900
Wire Wire Line
	12275 4100 12275 3900
Connection ~ 12275 3900
Wire Wire Line
	12275 3900 12325 3900
Wire Wire Line
	12375 4100 12375 3900
Wire Wire Line
	12325 3900 12375 3900
Connection ~ 12375 3900
Wire Wire Line
	12375 3900 12475 3900
Wire Wire Line
	11775 4100 11775 3900
Wire Wire Line
	11775 3900 11875 3900
Wire Wire Line
	11975 3900 11975 4100
Wire Wire Line
	11875 4100 11875 3900
Connection ~ 11875 3900
Wire Wire Line
	11875 3900 11975 3900
$Comp
L power:+1V8 #PWR034
U 1 1 5CC45128
P 11875 3725
F 0 "#PWR034" H 11875 3575 50  0001 C CNN
F 1 "+1V8" H 11890 3898 50  0000 C CNN
F 2 "" H 11875 3725 50  0001 C CNN
F 3 "" H 11875 3725 50  0001 C CNN
	1    11875 3725
	1    0    0    -1  
$EndComp
Wire Wire Line
	11875 3725 11875 3900
$Comp
L Device:C_Small C17
U 1 1 5CC50A03
P 10425 4775
F 0 "C17" H 10475 4850 50  0000 L CNN
F 1 "3.3uF" H 10475 4700 50  0000 L CNN
F 2 "Capacitor_SMD:C_0603_1608Metric_Pad1.05x0.95mm_HandSolder" H 10425 4775 50  0001 C CNN
F 3 "~" H 10425 4775 50  0001 C CNN
	1    10425 4775
	1    0    0    -1  
$EndComp
$Comp
L power:+3.3V #PWR030
U 1 1 5CC50C0C
P 10300 4400
F 0 "#PWR030" H 10300 4250 50  0001 C CNN
F 1 "+3.3V" V 10315 4528 50  0000 L CNN
F 2 "" H 10300 4400 50  0001 C CNN
F 3 "" H 10300 4400 50  0001 C CNN
	1    10300 4400
	0    -1   -1   0   
$EndComp
Wire Wire Line
	10775 4600 10425 4600
$Comp
L power:GND #PWR032
U 1 1 5CC52D4B
P 10425 4950
F 0 "#PWR032" H 10425 4700 50  0001 C CNN
F 1 "GND" H 10500 4800 50  0000 R CNN
F 2 "" H 10425 4950 50  0001 C CNN
F 3 "" H 10425 4950 50  0001 C CNN
	1    10425 4950
	1    0    0    -1  
$EndComp
Wire Wire Line
	10425 4875 10425 4950
Wire Wire Line
	10425 4675 10425 4600
Wire Wire Line
	10300 4400 10775 4400
$Comp
L power:+1V8 #PWR031
U 1 1 5CC61387
P 10300 4600
F 0 "#PWR031" H 10300 4450 50  0001 C CNN
F 1 "+1V8" V 10315 4728 50  0000 L CNN
F 2 "" H 10300 4600 50  0001 C CNN
F 3 "" H 10300 4600 50  0001 C CNN
	1    10300 4600
	0    -1   -1   0   
$EndComp
Wire Wire Line
	10300 4600 10425 4600
Connection ~ 10425 4600
$Comp
L Device:C_Small C5
U 1 1 5CC65C71
P 7375 4775
F 0 "C5" H 7425 4850 50  0000 L CNN
F 1 "100nF" V 7275 4675 50  0000 L CNN
F 2 "Capacitor_SMD:C_0603_1608Metric_Pad1.05x0.95mm_HandSolder" H 7375 4775 50  0001 C CNN
F 3 "~" H 7375 4775 50  0001 C CNN
	1    7375 4775
	1    0    0    -1  
$EndComp
$Comp
L Device:C_Small C6
U 1 1 5CC66131
P 7675 4775
F 0 "C6" H 7725 4850 50  0000 L CNN
F 1 "100nF" V 7575 4675 50  0000 L CNN
F 2 "Capacitor_SMD:C_0603_1608Metric_Pad1.05x0.95mm_HandSolder" H 7675 4775 50  0001 C CNN
F 3 "~" H 7675 4775 50  0001 C CNN
	1    7675 4775
	1    0    0    -1  
$EndComp
$Comp
L Device:C_Small C7
U 1 1 5CC6CB89
P 7975 4775
F 0 "C7" H 8025 4850 50  0000 L CNN
F 1 "100nF" V 7875 4675 50  0000 L CNN
F 2 "Capacitor_SMD:C_0603_1608Metric_Pad1.05x0.95mm_HandSolder" H 7975 4775 50  0001 C CNN
F 3 "~" H 7975 4775 50  0001 C CNN
	1    7975 4775
	1    0    0    -1  
$EndComp
$Comp
L Device:C_Small C9
U 1 1 5CC6CB8F
P 8350 4800
F 0 "C9" H 8400 4875 50  0000 L CNN
F 1 "100nF" V 8250 4700 50  0000 L CNN
F 2 "Capacitor_SMD:C_0603_1608Metric_Pad1.05x0.95mm_HandSolder" H 8350 4800 50  0001 C CNN
F 3 "~" H 8350 4800 50  0001 C CNN
	1    8350 4800
	1    0    0    -1  
$EndComp
$Comp
L Device:C_Small C10
U 1 1 5CC6EF0B
P 8650 4800
F 0 "C10" H 8700 4875 50  0000 L CNN
F 1 "100nF" V 8550 4700 50  0000 L CNN
F 2 "Capacitor_SMD:C_0603_1608Metric_Pad1.05x0.95mm_HandSolder" H 8650 4800 50  0001 C CNN
F 3 "~" H 8650 4800 50  0001 C CNN
	1    8650 4800
	1    0    0    -1  
$EndComp
$Comp
L Device:C_Small C11
U 1 1 5CC6EF11
P 8950 4800
F 0 "C11" H 9000 4875 50  0000 L CNN
F 1 "100nF" V 8850 4700 50  0000 L CNN
F 2 "Capacitor_SMD:C_0603_1608Metric_Pad1.05x0.95mm_HandSolder" H 8950 4800 50  0001 C CNN
F 3 "~" H 8950 4800 50  0001 C CNN
	1    8950 4800
	1    0    0    -1  
$EndComp
$Comp
L Device:C_Small C12
U 1 1 5CC6EF17
P 9250 4800
F 0 "C12" H 9300 4875 50  0000 L CNN
F 1 "100nF" V 9150 4700 50  0000 L CNN
F 2 "Capacitor_SMD:C_0603_1608Metric_Pad1.05x0.95mm_HandSolder" H 9250 4800 50  0001 C CNN
F 3 "~" H 9250 4800 50  0001 C CNN
	1    9250 4800
	1    0    0    -1  
$EndComp
Wire Wire Line
	7375 4875 7375 5025
Wire Wire Line
	7375 5025 7675 5025
Wire Wire Line
	7975 5025 7975 4875
Wire Wire Line
	8350 4900 8350 5050
Wire Wire Line
	9250 5050 9250 4900
Wire Wire Line
	7675 4875 7675 5025
Connection ~ 7675 5025
Wire Wire Line
	7675 5025 7975 5025
Wire Wire Line
	8650 4900 8650 5050
Wire Wire Line
	8350 5050 8650 5050
Connection ~ 8650 5050
Wire Wire Line
	8950 4900 8950 5050
Wire Wire Line
	8650 5050 8800 5050
Connection ~ 8950 5050
Wire Wire Line
	8950 5050 9250 5050
Wire Wire Line
	7375 4675 7375 4500
Wire Wire Line
	7975 4500 7975 4675
Wire Wire Line
	8350 4700 8350 4525
Wire Wire Line
	8350 4525 8650 4525
Wire Wire Line
	9250 4525 9250 4700
Wire Wire Line
	8950 4700 8950 4525
Connection ~ 8950 4525
Wire Wire Line
	8950 4525 9250 4525
Wire Wire Line
	8650 4700 8650 4525
Connection ~ 8650 4525
Wire Wire Line
	8650 4525 8800 4525
Wire Wire Line
	7675 4675 7675 4500
Wire Wire Line
	7375 4500 7675 4500
Connection ~ 7675 4500
Wire Wire Line
	7675 4500 7975 4500
$Comp
L power:+3.3V #PWR023
U 1 1 5CC9372B
P 8800 4350
F 0 "#PWR023" H 8800 4200 50  0001 C CNN
F 1 "+3.3V" H 8815 4523 50  0000 C CNN
F 2 "" H 8800 4350 50  0001 C CNN
F 3 "" H 8800 4350 50  0001 C CNN
	1    8800 4350
	1    0    0    -1  
$EndComp
Wire Wire Line
	8800 4350 8800 4525
$Comp
L power:+1V8 #PWR018
U 1 1 5CC93732
P 7675 4325
F 0 "#PWR018" H 7675 4175 50  0001 C CNN
F 1 "+1V8" H 7690 4498 50  0000 C CNN
F 2 "" H 7675 4325 50  0001 C CNN
F 3 "" H 7675 4325 50  0001 C CNN
	1    7675 4325
	1    0    0    -1  
$EndComp
Wire Wire Line
	7675 4325 7675 4500
Connection ~ 8800 4525
Wire Wire Line
	8800 4525 8950 4525
$Comp
L power:GND #PWR024
U 1 1 5CC9DEC7
P 8800 5125
F 0 "#PWR024" H 8800 4875 50  0001 C CNN
F 1 "GND" H 8875 4975 50  0000 R CNN
F 2 "" H 8800 5125 50  0001 C CNN
F 3 "" H 8800 5125 50  0001 C CNN
	1    8800 5125
	1    0    0    -1  
$EndComp
Wire Wire Line
	8800 5050 8800 5125
Connection ~ 8800 5050
Wire Wire Line
	8800 5050 8950 5050
$Comp
L power:GND #PWR019
U 1 1 5CCA1649
P 7675 5100
F 0 "#PWR019" H 7675 4850 50  0001 C CNN
F 1 "GND" H 7750 4950 50  0000 R CNN
F 2 "" H 7675 5100 50  0001 C CNN
F 3 "" H 7675 5100 50  0001 C CNN
	1    7675 5100
	1    0    0    -1  
$EndComp
Wire Wire Line
	7675 5025 7675 5100
$Comp
L Device:C_Small C14
U 1 1 5CCB39F8
P 10000 3675
F 0 "C14" H 10025 3850 50  0000 L CNN
F 1 "4.7uF" V 9900 3575 50  0000 L CNN
F 2 "Capacitor_SMD:C_0603_1608Metric_Pad1.05x0.95mm_HandSolder" H 10000 3675 50  0001 C CNN
F 3 "~" H 10000 3675 50  0001 C CNN
	1    10000 3675
	1    0    0    -1  
$EndComp
$Comp
L Device:C_Small C16
U 1 1 5CCB39FE
P 10300 3675
F 0 "C16" H 10325 3850 50  0000 L CNN
F 1 "4.7uF" V 10200 3575 50  0000 L CNN
F 2 "Capacitor_SMD:C_0603_1608Metric_Pad1.05x0.95mm_HandSolder" H 10300 3675 50  0001 C CNN
F 3 "~" H 10300 3675 50  0001 C CNN
	1    10300 3675
	1    0    0    -1  
$EndComp
$Comp
L Device:C_Small C18
U 1 1 5CCB3A04
P 10600 3675
F 0 "C18" H 10625 3850 50  0000 L CNN
F 1 "100nF" V 10500 3575 50  0000 L CNN
F 2 "Capacitor_SMD:C_0603_1608Metric_Pad1.05x0.95mm_HandSolder" H 10600 3675 50  0001 C CNN
F 3 "~" H 10600 3675 50  0001 C CNN
	1    10600 3675
	1    0    0    -1  
$EndComp
$Comp
L Device:C_Small C19
U 1 1 5CCB3A0A
P 10900 3675
F 0 "C19" H 10925 3850 50  0000 L CNN
F 1 "100nF" V 10800 3575 50  0000 L CNN
F 2 "Capacitor_SMD:C_0603_1608Metric_Pad1.05x0.95mm_HandSolder" H 10900 3675 50  0001 C CNN
F 3 "~" H 10900 3675 50  0001 C CNN
	1    10900 3675
	1    0    0    -1  
$EndComp
Wire Wire Line
	10000 3775 10000 3925
Wire Wire Line
	10900 3925 10900 3775
Wire Wire Line
	10300 3775 10300 3925
Wire Wire Line
	10000 3925 10300 3925
Connection ~ 10300 3925
Wire Wire Line
	10600 3775 10600 3925
Wire Wire Line
	10300 3925 10450 3925
Connection ~ 10600 3925
Wire Wire Line
	10600 3925 10900 3925
Wire Wire Line
	10000 3575 10000 3400
Wire Wire Line
	10600 3575 10600 3400
$Comp
L power:+3.3V #PWR026
U 1 1 5CCB3A22
P 8925 3400
F 0 "#PWR026" H 8925 3250 50  0001 C CNN
F 1 "+3.3V" H 8940 3573 50  0000 C CNN
F 2 "" H 8925 3400 50  0001 C CNN
F 3 "" H 8925 3400 50  0001 C CNN
	1    8925 3400
	0    -1   -1   0   
$EndComp
$Comp
L power:GND #PWR033
U 1 1 5CCB3A2B
P 10450 4000
F 0 "#PWR033" H 10450 3750 50  0001 C CNN
F 1 "GND" H 10525 3850 50  0000 R CNN
F 2 "" H 10450 4000 50  0001 C CNN
F 3 "" H 10450 4000 50  0001 C CNN
	1    10450 4000
	1    0    0    -1  
$EndComp
Wire Wire Line
	10450 3925 10450 4000
Connection ~ 10450 3925
Wire Wire Line
	10450 3925 10600 3925
$Comp
L Device:L_Small L?
U 1 1 5CCBDCB4
P 9325 3400
AR Path="/5CB544F7/5CCBDCB4" Ref="L?"  Part="1" 
AR Path="/5CB3762C/5CCBDCB4" Ref="L2"  Part="1" 
F 0 "L2" V 9400 3350 50  0000 L CNN
F 1 "bead, 1k, 800 mA" V 9250 3125 50  0000 L CNN
F 2 "Inductor_SMD:L_0603_1608Metric_Pad1.05x0.95mm_HandSolder" H 9325 3400 50  0001 C CNN
F 3 "~" H 9325 3400 50  0001 C CNN
	1    9325 3400
	0    -1   -1   0   
$EndComp
Wire Wire Line
	8925 3400 9225 3400
Wire Wire Line
	10000 3400 10600 3400
Wire Wire Line
	9425 3400 10000 3400
Connection ~ 10000 3400
$Comp
L power:+3.3V #PWR025
U 1 1 5CD03669
P 8900 3075
F 0 "#PWR025" H 8900 2925 50  0001 C CNN
F 1 "+3.3V" H 8915 3248 50  0000 C CNN
F 2 "" H 8900 3075 50  0001 C CNN
F 3 "" H 8900 3075 50  0001 C CNN
	1    8900 3075
	0    -1   -1   0   
$EndComp
$Comp
L Device:L_Small L?
U 1 1 5CD0366F
P 9300 3075
AR Path="/5CB544F7/5CD0366F" Ref="L?"  Part="1" 
AR Path="/5CB3762C/5CD0366F" Ref="L1"  Part="1" 
F 0 "L1" V 9375 3025 50  0000 L CNN
F 1 "bead, 1k, 800 mA" V 9225 2775 50  0000 L CNN
F 2 "Inductor_SMD:L_0603_1608Metric_Pad1.05x0.95mm_HandSolder" H 9300 3075 50  0001 C CNN
F 3 "~" H 9300 3075 50  0001 C CNN
	1    9300 3075
	0    -1   -1   0   
$EndComp
Wire Wire Line
	8900 3075 9200 3075
Wire Wire Line
	10900 3075 10900 3575
Wire Wire Line
	9400 3075 10300 3075
Wire Wire Line
	10300 3575 10300 3075
Connection ~ 10300 3075
Wire Wire Line
	10300 3075 10900 3075
Wire Wire Line
	11475 4100 11475 3400
Wire Wire Line
	11475 3400 10600 3400
Connection ~ 10600 3400
Wire Wire Line
	11575 4100 11575 3075
Wire Wire Line
	11575 3075 10900 3075
Connection ~ 10900 3075
Text Label 13175 4400 0    50   ~ 0
TCK
Text Label 13175 4500 0    50   ~ 0
TDI_FT-TDI_uC
Text Label 13175 4600 0    50   ~ 0
TDO_FT-TDO_FPGA
Text Label 13175 4700 0    50   ~ 0
TMS
Wire Wire Line
	13175 7400 13400 7400
$Comp
L Device:R_Small R13
U 1 1 5CD5C195
P 13925 7400
F 0 "R13" V 13850 7325 50  0000 C CNN
F 1 "220" V 13850 7500 50  0000 C CNN
F 2 "Resistor_SMD:R_0603_1608Metric_Pad1.05x0.95mm_HandSolder" H 13925 7400 50  0001 C CNN
F 3 "~" H 13925 7400 50  0001 C CNN
	1    13925 7400
	0    1    1    0   
$EndComp
$Comp
L Device:LED_Small D2
U 1 1 5CD623E7
P 13500 7400
F 0 "D2" H 13425 7450 50  0000 C CNN
F 1 "RX" H 13600 7450 50  0000 C CNN
F 2 "LED_SMD:LED_0603_1608Metric_Pad1.05x0.95mm_HandSolder" V 13500 7400 50  0001 C CNN
F 3 "~" V 13500 7400 50  0001 C CNN
	1    13500 7400
	1    0    0    -1  
$EndComp
$Comp
L power:+3.3V #PWR042
U 1 1 5CD62A46
P 14225 7450
F 0 "#PWR042" H 14225 7300 50  0001 C CNN
F 1 "+3.3V" H 14240 7623 50  0000 C CNN
F 2 "" H 14225 7450 50  0001 C CNN
F 3 "" H 14225 7450 50  0001 C CNN
	1    14225 7450
	0    1    1    0   
$EndComp
Wire Wire Line
	13600 7400 13825 7400
Wire Wire Line
	13175 7500 13400 7500
$Comp
L Device:R_Small R14
U 1 1 5CD7506C
P 13925 7500
F 0 "R14" V 14000 7425 50  0000 C CNN
F 1 "220" V 14000 7600 50  0000 C CNN
F 2 "Resistor_SMD:R_0603_1608Metric_Pad1.05x0.95mm_HandSolder" H 13925 7500 50  0001 C CNN
F 3 "~" H 13925 7500 50  0001 C CNN
	1    13925 7500
	0    1    1    0   
$EndComp
$Comp
L Device:LED_Small D3
U 1 1 5CD75072
P 13500 7500
F 0 "D3" H 13425 7450 50  0000 C CNN
F 1 "TX" H 13600 7450 50  0000 C CNN
F 2 "LED_SMD:LED_0603_1608Metric_Pad1.05x0.95mm_HandSolder" V 13500 7500 50  0001 C CNN
F 3 "~" V 13500 7500 50  0001 C CNN
	1    13500 7500
	1    0    0    -1  
$EndComp
Wire Wire Line
	13600 7500 13825 7500
Wire Wire Line
	14025 7500 14125 7500
Wire Wire Line
	14125 7500 14125 7450
Wire Wire Line
	14125 7400 14025 7400
Connection ~ 14125 7450
Wire Wire Line
	14125 7450 14125 7400
Wire Wire Line
	14125 7450 14225 7450
Text Label 13175 6200 0    50   ~ 0
TXD_FT
Text Label 13175 6300 0    50   ~ 0
RXD_FT
NoConn ~ 13175 4800
NoConn ~ 13175 5000
NoConn ~ 13175 5100
NoConn ~ 13175 5300
NoConn ~ 13175 5400
NoConn ~ 13175 5500
NoConn ~ 13175 5600
NoConn ~ 13175 5700
NoConn ~ 13175 5800
NoConn ~ 13175 5900
NoConn ~ 13175 6000
NoConn ~ 13175 6400
NoConn ~ 13175 6500
NoConn ~ 13175 6600
NoConn ~ 13175 6700
NoConn ~ 13175 6800
NoConn ~ 13175 6900
NoConn ~ 13175 7100
NoConn ~ 13175 7200
NoConn ~ 13175 7300
NoConn ~ 13175 7600
NoConn ~ 13175 7700
NoConn ~ 13175 7800
NoConn ~ 13175 8000
NoConn ~ 13175 8100
Text Label 13475 2175 0    50   ~ 0
TCK_JTAG
Text Label 13475 1975 0    50   ~ 0
TDI_JTAG
Text Label 13475 2075 0    50   ~ 0
TDO_JTAG
Text Label 13475 1875 0    50   ~ 0
TMS_JTAG
Text Label 12925 1975 2    50   ~ 0
TXD_EXT
Text Label 12925 2075 2    50   ~ 0
RXD_EXT
Wire Wire Line
	2075 7900 2400 7900
Text Label 2400 7900 2    50   ~ 0
VUSB
Wire Notes Line
	975  9475 975  1025
Wire Notes Line
	975  1025 15725 1025
Wire Notes Line
	15725 1025 15725 9475
Wire Notes Line
	6800 9475 6800 1025
Wire Notes Line
	975  9475 15725 9475
Text Notes 7100 1525 0    118  ~ 24
JTAG Configuration and UART port
$Comp
L Device:R_Small R3
U 1 1 5CEB2419
P 4200 7750
F 0 "R3" V 4125 7675 50  0000 C CNN
F 1 "390" V 4125 7850 50  0000 C CNN
F 2 "Resistor_SMD:R_0603_1608Metric_Pad1.05x0.95mm_HandSolder" H 4200 7750 50  0001 C CNN
F 3 "~" H 4200 7750 50  0001 C CNN
	1    4200 7750
	0    1    -1   0   
$EndComp
$Comp
L Device:LED_Small D1
U 1 1 5CEB241F
P 4625 7750
F 0 "D1" H 4550 7800 50  0000 C CNN
F 1 "PWR" H 4750 7800 50  0000 C CNN
F 2 "LED_SMD:LED_0603_1608Metric_Pad1.05x0.95mm_HandSolder" V 4625 7750 50  0001 C CNN
F 3 "~" V 4625 7750 50  0001 C CNN
	1    4625 7750
	1    0    0    1   
$EndComp
Wire Wire Line
	4300 7750 4525 7750
Text Notes 1175 1475 0    118  ~ 24
Regulator 1.2 [v]
Text Notes 1275 6475 0    118  ~ 24
USB port and Power Jumper
Text Notes 1125 3875 0    118  ~ 24
Regulator 3.3[v]
$Comp
L Connector_Generic:Conn_01x03 J4
U 1 1 5CEDBEEF
P 3650 7275
F 0 "J4" H 3650 7475 50  0000 C CNN
F 1 "Conn_01x03" H 3650 7075 50  0000 C CNN
F 2 "Connector_PinHeader_2.54mm:PinHeader_1x03_P2.54mm_Vertical" H 3650 7275 50  0001 C CNN
F 3 "~" H 3650 7275 50  0001 C CNN
	1    3650 7275
	-1   0    0    -1  
$EndComp
Wire Wire Line
	3850 7175 4175 7175
Text Label 4175 7175 2    50   ~ 0
VUSB
Wire Wire Line
	3850 7375 4175 7375
Text Label 4175 7375 2    50   ~ 0
VEXT
$Comp
L power:+5V #PWR015
U 1 1 5CF18151
P 4875 7375
F 0 "#PWR015" H 4875 7225 50  0001 C CNN
F 1 "+5V" V 4875 7500 50  0000 L CNN
F 2 "" H 4875 7375 50  0001 C CNN
F 3 "" H 4875 7375 50  0001 C CNN
	1    4875 7375
	0    1    1    0   
$EndComp
$Comp
L power:+5V #PWR05
U 1 1 5CF3BD7F
P 3000 4575
F 0 "#PWR05" H 3000 4425 50  0001 C CNN
F 1 "+5V" H 2925 4750 50  0000 L CNN
F 2 "" H 3000 4575 50  0001 C CNN
F 3 "" H 3000 4575 50  0001 C CNN
	1    3000 4575
	1    0    0    -1  
$EndComp
$Comp
L Device:C_Small C2
U 1 1 5CF93D4C
P 3000 4775
F 0 "C2" H 3050 4850 50  0000 L CNN
F 1 "1uF" H 3050 4700 50  0000 L CNN
F 2 "Capacitor_SMD:C_0603_1608Metric_Pad1.05x0.95mm_HandSolder" H 3000 4775 50  0001 C CNN
F 3 "~" H 3000 4775 50  0001 C CNN
	1    3000 4775
	1    0    0    -1  
$EndComp
$Comp
L Device:C_Small C3
U 1 1 5CF93D53
P 4175 4750
F 0 "C3" H 4225 4825 50  0000 L CNN
F 1 "1uF" H 4200 4675 50  0000 L CNN
F 2 "Capacitor_SMD:C_0603_1608Metric_Pad1.05x0.95mm_HandSolder" H 4175 4750 50  0001 C CNN
F 3 "~" H 4175 4750 50  0001 C CNN
	1    4175 4750
	1    0    0    -1  
$EndComp
Wire Notes Line
	975  6150 6800 6150
Wire Wire Line
	3850 7275 4325 7275
Wire Wire Line
	4725 7375 4875 7375
$Comp
L power:+5V #PWR014
U 1 1 5CC7F959
P 5050 7750
F 0 "#PWR014" H 5050 7600 50  0001 C CNN
F 1 "+5V" V 5050 7875 50  0000 L CNN
F 2 "" H 5050 7750 50  0001 C CNN
F 3 "" H 5050 7750 50  0001 C CNN
	1    5050 7750
	0    1    1    0   
$EndComp
$Comp
L power:GND #PWR08
U 1 1 5CCA1898
P 3725 7750
F 0 "#PWR08" H 3725 7500 50  0001 C CNN
F 1 "GND" H 3730 7577 50  0000 C CNN
F 2 "" H 3725 7750 50  0001 C CNN
F 3 "" H 3725 7750 50  0001 C CNN
	1    3725 7750
	0    1    1    0   
$EndComp
Wire Wire Line
	4725 7750 5050 7750
$Comp
L power:+3.3V #PWR041
U 1 1 5CD14AEA
P 13700 2375
F 0 "#PWR041" H 13700 2225 50  0001 C CNN
F 1 "+3.3V" V 13715 2503 50  0000 L CNN
F 2 "" H 13700 2375 50  0001 C CNN
F 3 "" H 13700 2375 50  0001 C CNN
	1    13700 2375
	0    1    -1   0   
$EndComp
$Comp
L power:GND #PWR028
U 1 1 5CC4CC28
P 10250 5700
F 0 "#PWR028" H 10250 5450 50  0001 C CNN
F 1 "GND" V 10255 5572 50  0000 R CNN
F 2 "" H 10250 5700 50  0001 C CNN
F 3 "" H 10250 5700 50  0001 C CNN
	1    10250 5700
	0    1    1    0   
$EndComp
$Comp
L power:GND #PWR040
U 1 1 5CD7AC13
P 13700 2275
F 0 "#PWR040" H 13700 2025 50  0001 C CNN
F 1 "GND" V 13705 2147 50  0000 R CNN
F 2 "" H 13700 2275 50  0001 C CNN
F 3 "" H 13700 2275 50  0001 C CNN
	1    13700 2275
	0    -1   1    0   
$EndComp
Wire Wire Line
	13450 2375 13700 2375
Wire Wire Line
	13450 2275 13700 2275
Wire Wire Line
	3725 7750 4100 7750
$Comp
L Connector:Barrel_Jack J1
U 1 1 5CDE2B26
P 1675 7075
F 0 "J1" H 1675 7275 50  0000 C CNN
F 1 "Barrel_Jack" H 1725 6925 50  0000 C CNN
F 2 "Connector_BarrelJack:BarrelJack_Horizontal" H 1725 7035 50  0001 C CNN
F 3 "~" H 1725 7035 50  0001 C CNN
	1    1675 7075
	1    0    0    -1  
$EndComp
Wire Wire Line
	1975 6975 2300 6975
Text Label 2300 6975 2    50   ~ 0
VEXT
$Comp
L power:GND #PWR02
U 1 1 5CDEEA1E
P 2300 7125
F 0 "#PWR02" H 2300 6875 50  0001 C CNN
F 1 "GND" H 2305 6952 50  0000 C CNN
F 2 "" H 2300 7125 50  0001 C CNN
F 3 "" H 2300 7125 50  0001 C CNN
	1    2300 7125
	0    -1   -1   0   
$EndComp
Wire Wire Line
	1975 7075 2300 7075
Wire Wire Line
	1975 7175 2025 7175
Wire Wire Line
	2300 7075 2300 7125
Connection ~ 2300 7125
Wire Wire Line
	2300 7125 2300 7175
Text Notes 1525 6825 0    50   ~ 0
CP-002A-ND
$Comp
L Connector_Generic:Conn_01x02 J5
U 1 1 5CE8C589
P 3650 8150
F 0 "J5" H 3650 8275 50  0000 C CNN
F 1 "Conn_01x02" H 3650 7925 50  0000 C CNN
F 2 "Connector_PinHeader_2.54mm:PinHeader_1x02_P2.54mm_Vertical" H 3650 8150 50  0001 C CNN
F 3 "~" H 3650 8150 50  0001 C CNN
	1    3650 8150
	-1   0    0    -1  
$EndComp
Wire Wire Line
	3850 8150 4175 8150
Wire Wire Line
	3850 8250 4175 8250
$Comp
L power:+5V #PWR010
U 1 1 5CEB1D53
P 4175 8150
F 0 "#PWR010" H 4175 8000 50  0001 C CNN
F 1 "+5V" V 4175 8275 50  0000 L CNN
F 2 "" H 4175 8150 50  0001 C CNN
F 3 "" H 4175 8150 50  0001 C CNN
	1    4175 8150
	0    1    1    0   
$EndComp
$Comp
L power:GND #PWR011
U 1 1 5CEB1DE5
P 4175 8250
F 0 "#PWR011" H 4175 8000 50  0001 C CNN
F 1 "GND" V 4175 8050 50  0000 C CNN
F 2 "" H 4175 8250 50  0001 C CNN
F 3 "" H 4175 8250 50  0001 C CNN
	1    4175 8250
	0    -1   1    0   
$EndComp
$Comp
L Connector_Generic:Conn_01x01 J2
U 1 1 5CF015B0
P 1725 7375
F 0 "J2" H 1850 7375 50  0000 C CNN
F 1 "Conn_01x01" H 1725 7275 50  0000 C CNN
F 2 "Connector_PinHeader_2.54mm:PinHeader_1x01_P2.54mm_Vertical" H 1725 7375 50  0001 C CNN
F 3 "~" H 1725 7375 50  0001 C CNN
	1    1725 7375
	-1   0    0    -1  
$EndComp
Wire Wire Line
	1925 7375 2025 7375
Wire Wire Line
	2025 7375 2025 7175
Connection ~ 2025 7175
Wire Wire Line
	2025 7175 2300 7175
Wire Notes Line
	975  3500 6800 3500
$Comp
L Regulator_Linear:TLV1117-33 U1
U 1 1 5CFF131E
P 3575 4575
F 0 "U1" H 3575 4700 50  0000 C CNN
F 1 "TLV1117-33" H 3825 4325 50  0000 C CNN
F 2 "Package_TO_SOT_SMD:SOT-223-3_TabPin2" H 3575 4575 50  0001 C CNN
F 3 "http://www.ti.com/lit/ds/symlink/tlv1117.pdf" H 3575 4575 50  0001 C CNN
	1    3575 4575
	1    0    0    -1  
$EndComp
$Comp
L power:+3.3V #PWR09
U 1 1 5CF9EFAA
P 4175 4575
F 0 "#PWR09" H 4175 4425 50  0001 C CNN
F 1 "+3.3V" H 4190 4748 50  0000 C CNN
F 2 "" H 4175 4575 50  0001 C CNN
F 3 "" H 4175 4575 50  0001 C CNN
	1    4175 4575
	1    0    0    -1  
$EndComp
Wire Wire Line
	3000 4875 3000 5050
Wire Wire Line
	4175 4850 4175 5050
Wire Wire Line
	3000 5050 3575 5050
Wire Wire Line
	3575 5050 4175 5050
Wire Wire Line
	3875 4575 4175 4575
Wire Wire Line
	4175 4575 4175 4650
Wire Wire Line
	3000 4675 3000 4575
Wire Wire Line
	3000 4575 3275 4575
Connection ~ 3000 4575
Connection ~ 4175 4575
$Comp
L power:GND #PWR06
U 1 1 5D077708
P 3575 5200
F 0 "#PWR06" H 3575 4950 50  0001 C CNN
F 1 "GND" H 3580 5027 50  0000 C CNN
F 2 "" H 3575 5200 50  0001 C CNN
F 3 "" H 3575 5200 50  0001 C CNN
	1    3575 5200
	1    0    0    -1  
$EndComp
$Comp
L Device:C_Small C1
U 1 1 5D135227
P 2375 2325
F 0 "C1" H 2425 2400 50  0000 L CNN
F 1 "1uF" H 2425 2250 50  0000 L CNN
F 2 "Capacitor_SMD:C_0603_1608Metric_Pad1.05x0.95mm_HandSolder" H 2375 2325 50  0001 C CNN
F 3 "~" H 2375 2325 50  0001 C CNN
	1    2375 2325
	1    0    0    -1  
$EndComp
$Comp
L Device:C_Small C4
U 1 1 5D13522D
P 4675 2300
F 0 "C4" H 4725 2375 50  0000 L CNN
F 1 "1uF" H 4700 2225 50  0000 L CNN
F 2 "Capacitor_SMD:C_0603_1608Metric_Pad1.05x0.95mm_HandSolder" H 4675 2300 50  0001 C CNN
F 3 "~" H 4675 2300 50  0001 C CNN
	1    4675 2300
	1    0    0    -1  
$EndComp
Wire Wire Line
	4675 2125 4675 2200
Wire Wire Line
	2375 2225 2375 2125
$Comp
L power:GND #PWR07
U 1 1 5D13524B
P 3650 2750
F 0 "#PWR07" H 3650 2500 50  0001 C CNN
F 1 "GND" H 3655 2577 50  0000 C CNN
F 2 "" H 3650 2750 50  0001 C CNN
F 3 "" H 3650 2750 50  0001 C CNN
	1    3650 2750
	1    0    0    -1  
$EndComp
$Comp
L power:+5V #PWR013
U 1 1 5D15A18D
P 4975 4675
F 0 "#PWR013" H 4975 4525 50  0001 C CNN
F 1 "+5V" H 4900 4850 50  0000 L CNN
F 2 "" H 4975 4675 50  0001 C CNN
F 3 "" H 4975 4675 50  0001 C CNN
	1    4975 4675
	1    0    0    -1  
$EndComp
$Comp
L power:+1V2 #PWR012
U 1 1 5D184AF6
P 4675 2125
F 0 "#PWR012" H 4675 1975 50  0001 C CNN
F 1 "+1V2" H 4690 2298 50  0000 C CNN
F 2 "" H 4675 2125 50  0001 C CNN
F 3 "" H 4675 2125 50  0001 C CNN
	1    4675 2125
	1    0    0    -1  
$EndComp
Connection ~ 4675 2125
$Comp
L power:PWR_FLAG #FLG01
U 1 1 5D19184F
P 4975 4925
F 0 "#FLG01" H 4975 5000 50  0001 C CNN
F 1 "PWR_FLAG" H 4775 5075 50  0000 L CNN
F 2 "" H 4975 4925 50  0001 C CNN
F 3 "~" H 4975 4925 50  0001 C CNN
	1    4975 4925
	-1   0    0    1   
$EndComp
Wire Wire Line
	4975 4675 4975 4925
$Comp
L Regulator_Linear:TLV70012_SOT23-5 U2
U 1 1 5D1B7049
P 3650 2225
F 0 "U2" H 3650 2567 50  0000 C CNN
F 1 "TLV70012_SOT23-5" H 4050 1950 50  0000 C CNN
F 2 "Package_TO_SOT_SMD:SOT-23-5" H 3650 2550 50  0001 C CIN
F 3 "http://www.ti.com/lit/ds/symlink/tlv700.pdf" H 3650 2275 50  0001 C CNN
	1    3650 2225
	1    0    0    -1  
$EndComp
Wire Wire Line
	2375 2425 2375 2675
Wire Wire Line
	4675 2400 4675 2675
Wire Wire Line
	3650 2525 3650 2675
$Comp
L Device:R_Small R15
U 1 1 5CD1E23D
P 14400 1875
F 0 "R15" V 14450 1725 50  0000 C CNN
F 1 "100" V 14450 2050 50  0000 C CNN
F 2 "Resistor_SMD:R_0603_1608Metric_Pad1.05x0.95mm_HandSolder" H 14400 1875 50  0001 C CNN
F 3 "~" H 14400 1875 50  0001 C CNN
	1    14400 1875
	0    1    1    0   
$EndComp
$Comp
L Device:R_Small R16
U 1 1 5CD1ED22
P 14400 1975
F 0 "R16" V 14450 1825 50  0000 C CNN
F 1 "100" V 14450 2150 50  0000 C CNN
F 2 "Resistor_SMD:R_0603_1608Metric_Pad1.05x0.95mm_HandSolder" H 14400 1975 50  0001 C CNN
F 3 "~" H 14400 1975 50  0001 C CNN
	1    14400 1975
	0    1    1    0   
$EndComp
$Comp
L Device:R_Small R17
U 1 1 5CD1EDA8
P 14400 2075
F 0 "R17" V 14450 1925 50  0000 C CNN
F 1 "100" V 14450 2250 50  0000 C CNN
F 2 "Resistor_SMD:R_0603_1608Metric_Pad1.05x0.95mm_HandSolder" H 14400 2075 50  0001 C CNN
F 3 "~" H 14400 2075 50  0001 C CNN
	1    14400 2075
	0    1    1    0   
$EndComp
$Comp
L Device:R_Small R18
U 1 1 5CD1F007
P 14400 2175
F 0 "R18" V 14450 2025 50  0000 C CNN
F 1 "100" V 14450 2350 50  0000 C CNN
F 2 "Resistor_SMD:R_0603_1608Metric_Pad1.05x0.95mm_HandSolder" H 14400 2175 50  0001 C CNN
F 3 "~" H 14400 2175 50  0001 C CNN
	1    14400 2175
	0    1    1    0   
$EndComp
$Comp
L Device:R_Small R11
U 1 1 5CD1F083
P 12000 1975
F 0 "R11" V 12050 2150 50  0000 C CNN
F 1 "100" V 12050 1825 50  0000 C CNN
F 2 "Resistor_SMD:R_0603_1608Metric_Pad1.05x0.95mm_HandSolder" H 12000 1975 50  0001 C CNN
F 3 "~" H 12000 1975 50  0001 C CNN
	1    12000 1975
	0    -1   1    0   
$EndComp
$Comp
L Device:R_Small R12
U 1 1 5CD1F107
P 12000 2075
F 0 "R12" V 12050 2250 50  0000 C CNN
F 1 "100" V 12050 1925 50  0000 C CNN
F 2 "Resistor_SMD:R_0603_1608Metric_Pad1.05x0.95mm_HandSolder" H 12000 2075 50  0001 C CNN
F 3 "~" H 12000 2075 50  0001 C CNN
	1    12000 2075
	0    -1   1    0   
$EndComp
Text Label 14750 2175 0    50   ~ 0
TCK
Text Label 14750 1975 0    50   ~ 0
TDO_FT-TDO_FPGA
Text Label 14750 2075 0    50   ~ 0
TDI_FT-TDI_uC
Text Label 14750 1875 0    50   ~ 0
TMS
Text Label 11625 1975 2    50   ~ 0
TXD_FT
Text Label 11625 2075 2    50   ~ 0
RXD_FT
Wire Wire Line
	11900 2075 11625 2075
Wire Wire Line
	14500 2175 14750 2175
Wire Wire Line
	14500 1975 14750 1975
Wire Wire Line
	14500 1875 14750 1875
$Comp
L Device:R_Small R2
U 1 1 5CC7F2DC
P 3100 2350
F 0 "R2" V 3000 2450 50  0000 C CNN
F 1 "10k" V 3000 2275 50  0000 C CNN
F 2 "Resistor_SMD:R_0603_1608Metric_Pad1.05x0.95mm_HandSolder" H 3100 2350 50  0001 C CNN
F 3 "~" H 3100 2350 50  0001 C CNN
	1    3100 2350
	0    1    1    0   
$EndComp
Connection ~ 3575 5050
Wire Wire Line
	3575 5050 3575 5200
Wire Wire Line
	3575 5050 3575 4875
Wire Wire Line
	3950 2125 4675 2125
$Comp
L power:+3.3V #PWR04
U 1 1 5CD50242
P 2875 2350
F 0 "#PWR04" H 2875 2200 50  0001 C CNN
F 1 "+3.3V" H 2890 2523 50  0000 C CNN
F 2 "" H 2875 2350 50  0001 C CNN
F 3 "" H 2875 2350 50  0001 C CNN
	1    2875 2350
	0    -1   -1   0   
$EndComp
Wire Wire Line
	2375 2125 3350 2125
Wire Wire Line
	2375 2675 3650 2675
Wire Wire Line
	3200 2350 3300 2350
Wire Wire Line
	3300 2350 3300 2225
Wire Wire Line
	3300 2225 3350 2225
Wire Wire Line
	2875 2350 3000 2350
$Comp
L power:+3.3V #PWR03
U 1 1 5CCB7866
P 2375 2125
F 0 "#PWR03" H 2375 1975 50  0001 C CNN
F 1 "+3.3V" H 2390 2298 50  0000 C CNN
F 2 "" H 2375 2125 50  0001 C CNN
F 3 "" H 2375 2125 50  0001 C CNN
	1    2375 2125
	1    0    0    -1  
$EndComp
Connection ~ 2375 2125
Text HLabel 13475 6200 2    50   Output ~ 0
TXD_FT
Text HLabel 13475 6300 2    50   Input ~ 0
RXD_FT
Wire Wire Line
	13175 6300 13475 6300
Wire Wire Line
	13175 6200 13475 6200
Text HLabel 14025 4600 2    50   Input ~ 0
TDO_FT
Text HLabel 14025 4500 2    50   Output ~ 0
TDI_FT
Text HLabel 14025 4400 2    50   Output ~ 0
TCK
Text HLabel 14025 4700 2    50   Output ~ 0
TMS
Wire Wire Line
	13175 4400 14025 4400
Wire Wire Line
	13175 4500 14025 4500
Wire Wire Line
	13175 4700 14025 4700
Wire Wire Line
	13175 4600 14025 4600
Text HLabel 14025 4900 2    50   Output ~ 0
NJTRST
Text Label 13175 4900 0    50   ~ 0
NJTRST
Wire Wire Line
	13175 4900 14025 4900
Text Label 11625 1875 2    50   ~ 0
NJTRST
Wire Wire Line
	12100 1875 12950 1875
$Comp
L power:+3.3V #PWR039
U 1 1 5D6F4E20
P 12700 2375
F 0 "#PWR039" H 12700 2225 50  0001 C CNN
F 1 "+3.3V" V 12715 2503 50  0000 L CNN
F 2 "" H 12700 2375 50  0001 C CNN
F 3 "" H 12700 2375 50  0001 C CNN
	1    12700 2375
	0    -1   -1   0   
$EndComp
$Comp
L power:GND #PWR038
U 1 1 5D6F4E26
P 12700 2275
F 0 "#PWR038" H 12700 2025 50  0001 C CNN
F 1 "GND" V 12705 2147 50  0000 R CNN
F 2 "" H 12700 2275 50  0001 C CNN
F 3 "" H 12700 2275 50  0001 C CNN
	1    12700 2275
	0    1    1    0   
$EndComp
Wire Wire Line
	12950 2375 12700 2375
Wire Wire Line
	12950 2275 12700 2275
Wire Wire Line
	13450 2175 14300 2175
Wire Wire Line
	13450 2075 14300 2075
Wire Wire Line
	13450 1975 14300 1975
Wire Wire Line
	13450 1875 14300 1875
Wire Wire Line
	12100 1975 12950 1975
Wire Wire Line
	12100 2075 12950 2075
Wire Wire Line
	11625 1975 11900 1975
$Comp
L Device:R_Small R10
U 1 1 5D869564
P 12000 1875
F 0 "R10" V 12050 1725 50  0000 C CNN
F 1 "100" V 12050 2050 50  0000 C CNN
F 2 "Resistor_SMD:R_0603_1608Metric_Pad1.05x0.95mm_HandSolder" H 12000 1875 50  0001 C CNN
F 3 "~" H 12000 1875 50  0001 C CNN
	1    12000 1875
	0    1    1    0   
$EndComp
Text Label 12475 1875 0    50   ~ 0
NJTRST_JTAG
Wire Wire Line
	11900 1875 11625 1875
Wire Notes Line
	11075 1025 11075 2700
Wire Notes Line
	11075 2700 15725 2700
Wire Wire Line
	12950 2175 12700 2175
$Comp
L power:+5V #PWR037
U 1 1 5D8EA46F
P 12700 2175
F 0 "#PWR037" H 12700 2025 50  0001 C CNN
F 1 "+5V" V 12700 2375 50  0000 L CNN
F 2 "" H 12700 2175 50  0001 C CNN
F 3 "" H 12700 2175 50  0001 C CNN
	1    12700 2175
	0    -1   -1   0   
$EndComp
Wire Wire Line
	14500 2075 14750 2075
Text Notes 9850 7875 0    50   ~ 0
535-9826-1-ND
Text Notes 6850 7525 0    50   ~ 0
497-8656-1-ND
Text Notes 3250 4175 0    50   ~ 0
296-21112-1-ND
$Comp
L Switch:SW_SPDT SW1
U 1 1 5CE90B21
P 4525 7275
F 0 "SW1" H 4575 7450 50  0000 C CNN
F 1 "SW_SPDT" H 4575 7075 50  0000 C CNN
F 2 "Button_Switch_THT:SW_CuK_OS102011MA1QN1_SPDT_Angled" H 4525 7275 50  0001 C CNN
F 3 "" H 4525 7275 50  0001 C CNN
	1    4525 7275
	1    0    0    -1  
$EndComp
NoConn ~ 4725 7175
Text Notes 4400 7000 0    50   ~ 0
CKN9559-ND
Text Notes 8950 2925 0    50   ~ 0
445-8694-1-ND
Text Notes 1950 8500 0    50   ~ 0
2073-USB3076-30-ACT-ND 
$Comp
L Device:Crystal_GND24_Small Y1
U 1 1 5CD6794A
P 9725 7900
F 0 "Y1" H 9775 8050 50  0000 L CNN
F 1 "12MHz" H 9750 7800 50  0000 L CNN
F 2 "Crystal:Crystal_SMD_EuroQuartz_MT-4Pin_3.2x2.5mm_HandSoldering" H 9725 7900 50  0001 C CNN
F 3 "~" H 9725 7900 50  0001 C CNN
	1    9725 7900
	1    0    0    -1  
$EndComp
$Comp
L power:GND #PWR0134
U 1 1 5CD6809B
P 9725 8100
F 0 "#PWR0134" H 9725 7850 50  0001 C CNN
F 1 "GND" H 9575 8050 50  0000 C CNN
F 2 "" H 9725 8100 50  0001 C CNN
F 3 "" H 9725 8100 50  0001 C CNN
	1    9725 8100
	1    0    0    -1  
$EndComp
$Comp
L power:GND #PWR0135
U 1 1 5CD683BE
P 9725 7675
F 0 "#PWR0135" H 9725 7425 50  0001 C CNN
F 1 "GND" H 9875 7625 50  0000 C CNN
F 2 "" H 9725 7675 50  0001 C CNN
F 3 "" H 9725 7675 50  0001 C CNN
	1    9725 7675
	-1   0    0    1   
$EndComp
Wire Wire Line
	9725 7675 9725 7775
Wire Wire Line
	9725 8025 9725 8100
$Comp
L Connector_Generic:Conn_02x06_Odd_Even J6
U 1 1 5CE420C2
P 13150 2075
F 0 "J6" H 13175 2400 50  0000 C CNN
F 1 "Conn_02x06" H 13200 1675 50  0000 C CNN
F 2 "Connector_PinSocket_2.54mm:PinSocket_2x06_P2.54mm_Vertical" H 13150 2075 50  0001 C CNN
F 3 "~" H 13150 2075 50  0001 C CNN
	1    13150 2075
	1    0    0    -1  
$EndComp
Connection ~ 3650 2675
Wire Wire Line
	3650 2675 3650 2750
Wire Wire Line
	3650 2675 4675 2675
$EndSCHEMATC
