EESchema Schematic File Version 4
LIBS:pcb_edu-cache
EELAYER 26 0
EELAYER END
$Descr A2 23386 16535
encoding utf-8
Sheet 4 4
Title "EDU_PCB-FPGA"
Date ""
Rev ""
Comp "Universidad Nacional de Colombia"
Comment1 "Dorfell Parra"
Comment2 ""
Comment3 ""
Comment4 ""
$EndDescr
$Comp
L power:GND #PWR0112
U 1 1 5CC10FAF
P 11625 11775
F 0 "#PWR0112" H 11625 11525 50  0001 C CNN
F 1 "GND" H 11630 11602 50  0000 C CNN
F 2 "" H 11625 11775 50  0001 C CNN
F 3 "" H 11625 11775 50  0001 C CNN
	1    11625 11775
	1    0    0    -1  
$EndComp
Wire Wire Line
	11625 11775 11625 11650
Wire Wire Line
	11025 11400 11025 11650
Connection ~ 11625 11650
Wire Wire Line
	11625 11650 11625 11400
Wire Wire Line
	12225 11400 12225 11650
Wire Wire Line
	11125 11400 11125 11650
Wire Wire Line
	11025 11650 11125 11650
Connection ~ 11125 11650
Wire Wire Line
	11125 11650 11225 11650
Wire Wire Line
	11225 11400 11225 11650
Connection ~ 11225 11650
Wire Wire Line
	11225 11650 11325 11650
Wire Wire Line
	11325 11400 11325 11650
Connection ~ 11325 11650
Wire Wire Line
	11325 11650 11425 11650
Wire Wire Line
	11425 11400 11425 11650
Connection ~ 11425 11650
Wire Wire Line
	11525 11400 11525 11650
Wire Wire Line
	11425 11650 11525 11650
Connection ~ 11525 11650
Wire Wire Line
	11525 11650 11625 11650
Wire Wire Line
	11725 11400 11725 11650
Connection ~ 11725 11650
Wire Wire Line
	11725 11650 11625 11650
Wire Wire Line
	11825 11400 11825 11650
Wire Wire Line
	11725 11650 11825 11650
Connection ~ 11825 11650
Wire Wire Line
	11925 11400 11925 11650
Wire Wire Line
	11825 11650 11925 11650
Connection ~ 11925 11650
Wire Wire Line
	12025 11400 12025 11650
Wire Wire Line
	11925 11650 12025 11650
Connection ~ 12025 11650
Wire Wire Line
	12025 11650 12125 11650
Wire Wire Line
	12125 11400 12125 11650
Connection ~ 12125 11650
Wire Wire Line
	12125 11650 12225 11650
$Comp
L power:+1V2 #PWR0113
U 1 1 5CC11D7B
P 12625 4000
F 0 "#PWR0113" H 12625 3850 50  0001 C CNN
F 1 "+1V2" H 12640 4173 50  0000 C CNN
F 2 "" H 12625 4000 50  0001 C CNN
F 3 "" H 12625 4000 50  0001 C CNN
	1    12625 4000
	1    0    0    -1  
$EndComp
$Comp
L power:+3.3V #PWR0111
U 1 1 5CC11F9E
P 11325 4000
F 0 "#PWR0111" H 11325 3850 50  0001 C CNN
F 1 "+3.3V" H 11340 4173 50  0000 C CNN
F 2 "" H 11325 4000 50  0001 C CNN
F 3 "" H 11325 4000 50  0001 C CNN
	1    11325 4000
	1    0    0    -1  
$EndComp
Wire Wire Line
	12425 4600 12425 4225
Wire Wire Line
	12425 4225 12525 4225
Wire Wire Line
	12825 4225 12825 4600
Wire Wire Line
	12525 4600 12525 4225
Connection ~ 12525 4225
Wire Wire Line
	12625 4600 12625 4225
Wire Wire Line
	12525 4225 12625 4225
Connection ~ 12625 4225
Wire Wire Line
	12625 4225 12725 4225
Wire Wire Line
	12725 4600 12725 4225
Connection ~ 12725 4225
Wire Wire Line
	12725 4225 12825 4225
Wire Wire Line
	12625 4225 12625 4000
Wire Wire Line
	10325 4600 10325 4225
Wire Wire Line
	12225 4225 12225 4600
Wire Wire Line
	10425 4600 10425 4225
Wire Wire Line
	10325 4225 10425 4225
Connection ~ 10425 4225
Wire Wire Line
	10525 4600 10525 4225
Wire Wire Line
	10425 4225 10525 4225
Connection ~ 10525 4225
Wire Wire Line
	10525 4225 10625 4225
Wire Wire Line
	10625 4600 10625 4225
Connection ~ 10625 4225
Wire Wire Line
	10725 4600 10725 4225
Wire Wire Line
	10625 4225 10725 4225
Connection ~ 10725 4225
Wire Wire Line
	10725 4225 10925 4225
Wire Wire Line
	10925 4600 10925 4225
Connection ~ 10925 4225
Wire Wire Line
	10925 4225 11025 4225
Wire Wire Line
	11025 4600 11025 4225
Connection ~ 11025 4225
Wire Wire Line
	11025 4225 11125 4225
Wire Wire Line
	11125 4600 11125 4225
Connection ~ 11125 4225
Wire Wire Line
	11125 4225 11325 4225
Wire Wire Line
	11325 4600 11325 4225
Connection ~ 11325 4225
Wire Wire Line
	11425 4600 11425 4225
Wire Wire Line
	11325 4225 11425 4225
Connection ~ 11425 4225
Wire Wire Line
	11425 4225 11525 4225
Wire Wire Line
	11525 4600 11525 4225
Connection ~ 11525 4225
Wire Wire Line
	11525 4225 11725 4225
Wire Wire Line
	11725 4600 11725 4225
Connection ~ 11725 4225
Wire Wire Line
	11725 4225 11825 4225
Wire Wire Line
	11825 4600 11825 4225
Connection ~ 11825 4225
Wire Wire Line
	11825 4225 12025 4225
Wire Wire Line
	12025 4600 12025 4225
Connection ~ 12025 4225
Wire Wire Line
	12025 4225 12125 4225
Wire Wire Line
	12125 4600 12125 4225
Connection ~ 12125 4225
Wire Wire Line
	12125 4225 12225 4225
Wire Wire Line
	11325 4000 11325 4225
$Comp
L Device:C_Small C45
U 1 1 5CC25811
P 1700 5550
F 0 "C45" H 1600 5625 50  0000 L CNN
F 1 "100nF" V 1800 5450 50  0000 L CNN
F 2 "Capacitor_SMD:C_0603_1608Metric_Pad1.05x0.95mm_HandSolder" H 1700 5550 50  0001 C CNN
F 3 "~" H 1700 5550 50  0001 C CNN
	1    1700 5550
	1    0    0    -1  
$EndComp
$Comp
L Device:C_Small C46
U 1 1 5CC295DF
P 1950 5550
F 0 "C46" H 1850 5625 50  0000 L CNN
F 1 "100nF" V 2050 5450 50  0000 L CNN
F 2 "Capacitor_SMD:C_0603_1608Metric_Pad1.05x0.95mm_HandSolder" H 1950 5550 50  0001 C CNN
F 3 "~" H 1950 5550 50  0001 C CNN
	1    1950 5550
	1    0    0    -1  
$EndComp
$Comp
L Device:C_Small C47
U 1 1 5CC2BC1A
P 2200 5550
F 0 "C47" H 2100 5625 50  0000 L CNN
F 1 "100nF" V 2300 5450 50  0000 L CNN
F 2 "Capacitor_SMD:C_0603_1608Metric_Pad1.05x0.95mm_HandSolder" H 2200 5550 50  0001 C CNN
F 3 "~" H 2200 5550 50  0001 C CNN
	1    2200 5550
	1    0    0    -1  
$EndComp
$Comp
L Device:C_Small C49
U 1 1 5CC2BC20
P 2450 5550
F 0 "C49" H 2350 5625 50  0000 L CNN
F 1 "100nF" V 2550 5450 50  0000 L CNN
F 2 "Capacitor_SMD:C_0603_1608Metric_Pad1.05x0.95mm_HandSolder" H 2450 5550 50  0001 C CNN
F 3 "~" H 2450 5550 50  0001 C CNN
	1    2450 5550
	1    0    0    -1  
$EndComp
$Comp
L Device:C_Small C52
U 1 1 5CC2F641
P 2700 5550
F 0 "C52" H 2600 5625 50  0000 L CNN
F 1 "100nF" V 2800 5450 50  0000 L CNN
F 2 "Capacitor_SMD:C_0603_1608Metric_Pad1.05x0.95mm_HandSolder" H 2700 5550 50  0001 C CNN
F 3 "~" H 2700 5550 50  0001 C CNN
	1    2700 5550
	1    0    0    -1  
$EndComp
$Comp
L Device:C_Small C54
U 1 1 5CC2F647
P 2950 5550
F 0 "C54" H 2850 5625 50  0000 L CNN
F 1 "100nF" V 3050 5450 50  0000 L CNN
F 2 "Capacitor_SMD:C_0603_1608Metric_Pad1.05x0.95mm_HandSolder" H 2950 5550 50  0001 C CNN
F 3 "~" H 2950 5550 50  0001 C CNN
	1    2950 5550
	1    0    0    -1  
$EndComp
$Comp
L Device:C_Small C56
U 1 1 5CC2F64D
P 3200 5550
F 0 "C56" H 3100 5625 50  0000 L CNN
F 1 "100nF" V 3300 5450 50  0000 L CNN
F 2 "Capacitor_SMD:C_0603_1608Metric_Pad1.05x0.95mm_HandSolder" H 3200 5550 50  0001 C CNN
F 3 "~" H 3200 5550 50  0001 C CNN
	1    3200 5550
	1    0    0    -1  
$EndComp
$Comp
L Device:C_Small C59
U 1 1 5CC2F653
P 3450 5550
F 0 "C59" H 3350 5625 50  0000 L CNN
F 1 "100nF" V 3550 5450 50  0000 L CNN
F 2 "Capacitor_SMD:C_0603_1608Metric_Pad1.05x0.95mm_HandSolder" H 3450 5550 50  0001 C CNN
F 3 "~" H 3450 5550 50  0001 C CNN
	1    3450 5550
	1    0    0    -1  
$EndComp
$Comp
L Device:C_Small C60
U 1 1 5CC30EE3
P 3725 5550
F 0 "C60" H 3625 5625 50  0000 L CNN
F 1 "100nF" V 3825 5450 50  0000 L CNN
F 2 "Capacitor_SMD:C_0603_1608Metric_Pad1.05x0.95mm_HandSolder" H 3725 5550 50  0001 C CNN
F 3 "~" H 3725 5550 50  0001 C CNN
	1    3725 5550
	1    0    0    -1  
$EndComp
$Comp
L Device:C_Small C48
U 1 1 5CC360B6
P 2250 3575
F 0 "C48" H 2150 3650 50  0000 L CNN
F 1 "100nF" V 2350 3475 50  0000 L CNN
F 2 "Capacitor_SMD:C_0603_1608Metric_Pad1.05x0.95mm_HandSolder" H 2250 3575 50  0001 C CNN
F 3 "~" H 2250 3575 50  0001 C CNN
	1    2250 3575
	1    0    0    -1  
$EndComp
$Comp
L Device:C_Small C51
U 1 1 5CC360BC
P 2500 3575
F 0 "C51" H 2400 3650 50  0000 L CNN
F 1 "100nF" V 2600 3475 50  0000 L CNN
F 2 "Capacitor_SMD:C_0603_1608Metric_Pad1.05x0.95mm_HandSolder" H 2500 3575 50  0001 C CNN
F 3 "~" H 2500 3575 50  0001 C CNN
	1    2500 3575
	1    0    0    -1  
$EndComp
$Comp
L Device:C_Small C53
U 1 1 5CC360C2
P 2750 3575
F 0 "C53" H 2650 3650 50  0000 L CNN
F 1 "100nF" V 2850 3475 50  0000 L CNN
F 2 "Capacitor_SMD:C_0603_1608Metric_Pad1.05x0.95mm_HandSolder" H 2750 3575 50  0001 C CNN
F 3 "~" H 2750 3575 50  0001 C CNN
	1    2750 3575
	1    0    0    -1  
$EndComp
$Comp
L Device:C_Small C55
U 1 1 5CC360C8
P 3000 3575
F 0 "C55" H 2900 3650 50  0000 L CNN
F 1 "100nF" V 3100 3475 50  0000 L CNN
F 2 "Capacitor_SMD:C_0603_1608Metric_Pad1.05x0.95mm_HandSolder" H 3000 3575 50  0001 C CNN
F 3 "~" H 3000 3575 50  0001 C CNN
	1    3000 3575
	1    0    0    -1  
$EndComp
$Comp
L Device:C_Small C57
U 1 1 5CC360CE
P 3250 3575
F 0 "C57" H 3150 3650 50  0000 L CNN
F 1 "100nF" V 3350 3475 50  0000 L CNN
F 2 "Capacitor_SMD:C_0603_1608Metric_Pad1.05x0.95mm_HandSolder" H 3250 3575 50  0001 C CNN
F 3 "~" H 3250 3575 50  0001 C CNN
	1    3250 3575
	1    0    0    -1  
$EndComp
Wire Wire Line
	1700 5650 1700 5900
Wire Wire Line
	1700 5900 1950 5900
Wire Wire Line
	3725 5900 3725 5650
Wire Wire Line
	1950 5650 1950 5900
Connection ~ 1950 5900
Wire Wire Line
	1950 5900 2200 5900
Wire Wire Line
	2200 5650 2200 5900
Connection ~ 2200 5900
Wire Wire Line
	2200 5900 2450 5900
Wire Wire Line
	2450 5650 2450 5900
Connection ~ 2450 5900
Wire Wire Line
	2450 5900 2700 5900
Wire Wire Line
	2700 5650 2700 5900
Connection ~ 2700 5900
Wire Wire Line
	2700 5900 2950 5900
Wire Wire Line
	2950 5650 2950 5900
Connection ~ 2950 5900
Wire Wire Line
	2950 5900 3200 5900
Wire Wire Line
	3200 5650 3200 5900
Connection ~ 3200 5900
Wire Wire Line
	3200 5900 3450 5900
Wire Wire Line
	3450 5650 3450 5900
Connection ~ 3450 5900
Wire Wire Line
	3450 5900 3725 5900
Wire Wire Line
	1700 5450 1700 5200
Wire Wire Line
	1700 5200 1950 5200
Wire Wire Line
	3725 5200 3725 5450
Wire Wire Line
	1950 5450 1950 5200
Connection ~ 1950 5200
Wire Wire Line
	1950 5200 2200 5200
Wire Wire Line
	2200 5450 2200 5200
Connection ~ 2200 5200
Wire Wire Line
	2200 5200 2450 5200
Wire Wire Line
	2450 5450 2450 5200
Connection ~ 2450 5200
Wire Wire Line
	2450 5200 2700 5200
Wire Wire Line
	2700 5450 2700 5200
Connection ~ 2700 5200
Wire Wire Line
	2950 5450 2950 5200
Wire Wire Line
	2700 5200 2950 5200
Connection ~ 2950 5200
Wire Wire Line
	2950 5200 3200 5200
Wire Wire Line
	3200 5450 3200 5200
Connection ~ 3200 5200
Wire Wire Line
	3200 5200 3450 5200
Wire Wire Line
	3450 5450 3450 5200
Connection ~ 3450 5200
Wire Wire Line
	3450 5200 3725 5200
$Comp
L power:GND #PWR094
U 1 1 5CC5CA13
P 2700 6025
F 0 "#PWR094" H 2700 5775 50  0001 C CNN
F 1 "GND" H 2705 5852 50  0000 C CNN
F 2 "" H 2700 6025 50  0001 C CNN
F 3 "" H 2700 6025 50  0001 C CNN
	1    2700 6025
	1    0    0    -1  
$EndComp
Wire Wire Line
	2700 6025 2700 5900
$Comp
L power:GND #PWR096
U 1 1 5CC5FDA4
P 2750 4125
F 0 "#PWR096" H 2750 3875 50  0001 C CNN
F 1 "GND" H 2755 3952 50  0000 C CNN
F 2 "" H 2750 4125 50  0001 C CNN
F 3 "" H 2750 4125 50  0001 C CNN
	1    2750 4125
	1    0    0    -1  
$EndComp
Wire Wire Line
	2750 4125 2750 4000
$Comp
L power:+1V2 #PWR095
U 1 1 5CC69E9D
P 2750 2950
F 0 "#PWR095" H 2750 2800 50  0001 C CNN
F 1 "+1V2" H 2765 3123 50  0000 C CNN
F 2 "" H 2750 2950 50  0001 C CNN
F 3 "" H 2750 2950 50  0001 C CNN
	1    2750 2950
	1    0    0    -1  
$EndComp
$Comp
L power:+3.3V #PWR093
U 1 1 5CC69EA3
P 2700 4975
F 0 "#PWR093" H 2700 4825 50  0001 C CNN
F 1 "+3.3V" H 2715 5148 50  0000 C CNN
F 2 "" H 2700 4975 50  0001 C CNN
F 3 "" H 2700 4975 50  0001 C CNN
	1    2700 4975
	1    0    0    -1  
$EndComp
Wire Wire Line
	2750 3175 2750 2950
Wire Wire Line
	2700 4975 2700 5200
Wire Wire Line
	2250 3675 2250 4000
Wire Wire Line
	2250 4000 2500 4000
Wire Wire Line
	3250 4000 3250 3675
Wire Wire Line
	2500 3675 2500 4000
Connection ~ 2500 4000
Wire Wire Line
	2500 4000 2750 4000
Wire Wire Line
	2750 3675 2750 4000
Connection ~ 2750 4000
Wire Wire Line
	2750 4000 3000 4000
Wire Wire Line
	3000 3675 3000 4000
Connection ~ 3000 4000
Wire Wire Line
	3000 4000 3250 4000
Wire Wire Line
	2250 3175 2500 3175
Wire Wire Line
	3250 3175 3250 3475
Wire Wire Line
	3000 3475 3000 3175
Connection ~ 3000 3175
Wire Wire Line
	3000 3175 3250 3175
Wire Wire Line
	2750 3475 2750 3175
Connection ~ 2750 3175
Wire Wire Line
	2750 3175 3000 3175
Wire Wire Line
	2500 3475 2500 3175
Connection ~ 2500 3175
Wire Wire Line
	2500 3175 2750 3175
Wire Wire Line
	2250 3175 2250 3475
Text Label 9625 5100 2    50   ~ 0
TMS
Text Label 9625 5200 2    50   ~ 0
TCK
Text Label 9625 5000 2    50   ~ 0
TDO_FT-TDO_FPGA
Text Label 9625 5300 2    50   ~ 0
TDO_uC-TDI_FPGA
$Comp
L Device:C_Small C61
U 1 1 5CE653D4
P 4050 5550
F 0 "C61" H 3950 5625 50  0000 L CNN
F 1 "4.7uF" V 4150 5450 50  0000 L CNN
F 2 "Capacitor_SMD:C_0603_1608Metric_Pad1.05x0.95mm_HandSolder" H 4050 5550 50  0001 C CNN
F 3 "~" H 4050 5550 50  0001 C CNN
	1    4050 5550
	1    0    0    -1  
$EndComp
$Comp
L Device:C_Small C62
U 1 1 5CE653DA
P 4300 5550
F 0 "C62" H 4200 5625 50  0000 L CNN
F 1 "4.7uF" V 4400 5450 50  0000 L CNN
F 2 "Capacitor_SMD:C_0603_1608Metric_Pad1.05x0.95mm_HandSolder" H 4300 5550 50  0001 C CNN
F 3 "~" H 4300 5550 50  0001 C CNN
	1    4300 5550
	1    0    0    -1  
$EndComp
$Comp
L Device:C_Small C63
U 1 1 5CE653E0
P 4550 5550
F 0 "C63" H 4450 5625 50  0000 L CNN
F 1 "4.7uF" V 4650 5450 50  0000 L CNN
F 2 "Capacitor_SMD:C_0603_1608Metric_Pad1.05x0.95mm_HandSolder" H 4550 5550 50  0001 C CNN
F 3 "~" H 4550 5550 50  0001 C CNN
	1    4550 5550
	1    0    0    -1  
$EndComp
$Comp
L Device:C_Small C65
U 1 1 5CE653E6
P 4800 5550
F 0 "C65" H 4700 5625 50  0000 L CNN
F 1 "4.7uF" V 4900 5450 50  0000 L CNN
F 2 "Capacitor_SMD:C_0603_1608Metric_Pad1.05x0.95mm_HandSolder" H 4800 5550 50  0001 C CNN
F 3 "~" H 4800 5550 50  0001 C CNN
	1    4800 5550
	1    0    0    -1  
$EndComp
$Comp
L Device:C_Small C67
U 1 1 5CE653EC
P 5050 5550
F 0 "C67" H 4950 5625 50  0000 L CNN
F 1 "4.7uF" V 5150 5450 50  0000 L CNN
F 2 "Capacitor_SMD:C_0603_1608Metric_Pad1.05x0.95mm_HandSolder" H 5050 5550 50  0001 C CNN
F 3 "~" H 5050 5550 50  0001 C CNN
	1    5050 5550
	1    0    0    -1  
$EndComp
$Comp
L Device:C_Small C69
U 1 1 5CE653F2
P 5300 5550
F 0 "C69" H 5200 5625 50  0000 L CNN
F 1 "4.7uF" V 5400 5450 50  0000 L CNN
F 2 "Capacitor_SMD:C_0603_1608Metric_Pad1.05x0.95mm_HandSolder" H 5300 5550 50  0001 C CNN
F 3 "~" H 5300 5550 50  0001 C CNN
	1    5300 5550
	1    0    0    -1  
$EndComp
$Comp
L Device:C_Small C71
U 1 1 5CE653F8
P 5550 5550
F 0 "C71" H 5450 5625 50  0000 L CNN
F 1 "4.7uF" V 5650 5450 50  0000 L CNN
F 2 "Capacitor_SMD:C_0603_1608Metric_Pad1.05x0.95mm_HandSolder" H 5550 5550 50  0001 C CNN
F 3 "~" H 5550 5550 50  0001 C CNN
	1    5550 5550
	1    0    0    -1  
$EndComp
$Comp
L Device:C_Small C73
U 1 1 5CE653FE
P 5800 5550
F 0 "C73" H 5700 5625 50  0000 L CNN
F 1 "4.7uF" V 5900 5450 50  0000 L CNN
F 2 "Capacitor_SMD:C_0603_1608Metric_Pad1.05x0.95mm_HandSolder" H 5800 5550 50  0001 C CNN
F 3 "~" H 5800 5550 50  0001 C CNN
	1    5800 5550
	1    0    0    -1  
$EndComp
$Comp
L Device:C_Small C74
U 1 1 5CE65404
P 6075 5550
F 0 "C74" H 5975 5625 50  0000 L CNN
F 1 "4.7uF" V 6175 5450 50  0000 L CNN
F 2 "Capacitor_SMD:C_0603_1608Metric_Pad1.05x0.95mm_HandSolder" H 6075 5550 50  0001 C CNN
F 3 "~" H 6075 5550 50  0001 C CNN
	1    6075 5550
	1    0    0    -1  
$EndComp
$Comp
L Device:C_Small C64
U 1 1 5CE6540A
P 4575 3575
F 0 "C64" H 4475 3650 50  0000 L CNN
F 1 "4.7uF" V 4675 3475 50  0000 L CNN
F 2 "Capacitor_SMD:C_0603_1608Metric_Pad1.05x0.95mm_HandSolder" H 4575 3575 50  0001 C CNN
F 3 "~" H 4575 3575 50  0001 C CNN
	1    4575 3575
	1    0    0    -1  
$EndComp
$Comp
L Device:C_Small C66
U 1 1 5CE65410
P 4825 3575
F 0 "C66" H 4725 3650 50  0000 L CNN
F 1 "4.7uF" V 4925 3475 50  0000 L CNN
F 2 "Capacitor_SMD:C_0603_1608Metric_Pad1.05x0.95mm_HandSolder" H 4825 3575 50  0001 C CNN
F 3 "~" H 4825 3575 50  0001 C CNN
	1    4825 3575
	1    0    0    -1  
$EndComp
$Comp
L Device:C_Small C68
U 1 1 5CE65416
P 5075 3575
F 0 "C68" H 4975 3650 50  0000 L CNN
F 1 "4.7uF" V 5175 3475 50  0000 L CNN
F 2 "Capacitor_SMD:C_0603_1608Metric_Pad1.05x0.95mm_HandSolder" H 5075 3575 50  0001 C CNN
F 3 "~" H 5075 3575 50  0001 C CNN
	1    5075 3575
	1    0    0    -1  
$EndComp
$Comp
L Device:C_Small C70
U 1 1 5CE6541C
P 5325 3575
F 0 "C70" H 5225 3650 50  0000 L CNN
F 1 "4.7uF" V 5425 3475 50  0000 L CNN
F 2 "Capacitor_SMD:C_0603_1608Metric_Pad1.05x0.95mm_HandSolder" H 5325 3575 50  0001 C CNN
F 3 "~" H 5325 3575 50  0001 C CNN
	1    5325 3575
	1    0    0    -1  
$EndComp
$Comp
L Device:C_Small C72
U 1 1 5CE65422
P 5575 3575
F 0 "C72" H 5475 3650 50  0000 L CNN
F 1 "4.7uF" V 5675 3475 50  0000 L CNN
F 2 "Capacitor_SMD:C_0603_1608Metric_Pad1.05x0.95mm_HandSolder" H 5575 3575 50  0001 C CNN
F 3 "~" H 5575 3575 50  0001 C CNN
	1    5575 3575
	1    0    0    -1  
$EndComp
Wire Wire Line
	4050 5650 4050 5900
Wire Wire Line
	4050 5900 4300 5900
Wire Wire Line
	6075 5900 6075 5650
Wire Wire Line
	4300 5650 4300 5900
Connection ~ 4300 5900
Wire Wire Line
	4300 5900 4550 5900
Wire Wire Line
	4550 5650 4550 5900
Connection ~ 4550 5900
Wire Wire Line
	4550 5900 4800 5900
Wire Wire Line
	4800 5650 4800 5900
Connection ~ 4800 5900
Wire Wire Line
	4800 5900 5050 5900
Wire Wire Line
	5050 5650 5050 5900
Connection ~ 5050 5900
Wire Wire Line
	5050 5900 5300 5900
Wire Wire Line
	5300 5650 5300 5900
Connection ~ 5300 5900
Wire Wire Line
	5300 5900 5550 5900
Wire Wire Line
	5550 5650 5550 5900
Connection ~ 5550 5900
Wire Wire Line
	5550 5900 5800 5900
Wire Wire Line
	5800 5650 5800 5900
Connection ~ 5800 5900
Wire Wire Line
	5800 5900 6075 5900
Wire Wire Line
	4050 5450 4050 5200
Wire Wire Line
	4050 5200 4300 5200
Wire Wire Line
	6075 5200 6075 5450
Wire Wire Line
	4300 5450 4300 5200
Connection ~ 4300 5200
Wire Wire Line
	4300 5200 4550 5200
Wire Wire Line
	4550 5450 4550 5200
Connection ~ 4550 5200
Wire Wire Line
	4550 5200 4800 5200
Wire Wire Line
	4800 5450 4800 5200
Connection ~ 4800 5200
Wire Wire Line
	4800 5200 5050 5200
Wire Wire Line
	5050 5450 5050 5200
Connection ~ 5050 5200
Wire Wire Line
	5300 5450 5300 5200
Wire Wire Line
	5050 5200 5300 5200
Connection ~ 5300 5200
Wire Wire Line
	5300 5200 5550 5200
Wire Wire Line
	5550 5450 5550 5200
Connection ~ 5550 5200
Wire Wire Line
	5550 5200 5800 5200
Wire Wire Line
	5800 5450 5800 5200
Connection ~ 5800 5200
Wire Wire Line
	5800 5200 6075 5200
$Comp
L power:GND #PWR0104
U 1 1 5CE65458
P 5050 6025
F 0 "#PWR0104" H 5050 5775 50  0001 C CNN
F 1 "GND" H 5055 5852 50  0000 C CNN
F 2 "" H 5050 6025 50  0001 C CNN
F 3 "" H 5050 6025 50  0001 C CNN
	1    5050 6025
	1    0    0    -1  
$EndComp
Wire Wire Line
	5050 6025 5050 5900
$Comp
L power:GND #PWR0106
U 1 1 5CE6545F
P 5075 4125
F 0 "#PWR0106" H 5075 3875 50  0001 C CNN
F 1 "GND" H 5080 3952 50  0000 C CNN
F 2 "" H 5075 4125 50  0001 C CNN
F 3 "" H 5075 4125 50  0001 C CNN
	1    5075 4125
	1    0    0    -1  
$EndComp
Wire Wire Line
	5075 4125 5075 4000
$Comp
L power:+1V2 #PWR0105
U 1 1 5CE65466
P 5075 2950
F 0 "#PWR0105" H 5075 2800 50  0001 C CNN
F 1 "+1V2" H 5090 3123 50  0000 C CNN
F 2 "" H 5075 2950 50  0001 C CNN
F 3 "" H 5075 2950 50  0001 C CNN
	1    5075 2950
	1    0    0    -1  
$EndComp
$Comp
L power:+3.3V #PWR0103
U 1 1 5CE6546C
P 5050 4975
F 0 "#PWR0103" H 5050 4825 50  0001 C CNN
F 1 "+3.3V" H 5065 5148 50  0000 C CNN
F 2 "" H 5050 4975 50  0001 C CNN
F 3 "" H 5050 4975 50  0001 C CNN
	1    5050 4975
	1    0    0    -1  
$EndComp
Wire Wire Line
	5075 3175 5075 2950
Wire Wire Line
	5050 4975 5050 5200
Wire Wire Line
	4575 3675 4575 4000
Wire Wire Line
	4575 4000 4825 4000
Wire Wire Line
	5575 4000 5575 3675
Wire Wire Line
	4825 3675 4825 4000
Connection ~ 4825 4000
Wire Wire Line
	4825 4000 5075 4000
Wire Wire Line
	5075 3675 5075 4000
Connection ~ 5075 4000
Wire Wire Line
	5075 4000 5325 4000
Wire Wire Line
	5325 3675 5325 4000
Connection ~ 5325 4000
Wire Wire Line
	5325 4000 5575 4000
Wire Wire Line
	4575 3175 4825 3175
Wire Wire Line
	5575 3175 5575 3475
Wire Wire Line
	5325 3475 5325 3175
Connection ~ 5325 3175
Wire Wire Line
	5325 3175 5575 3175
Wire Wire Line
	5075 3475 5075 3175
Connection ~ 5075 3175
Wire Wire Line
	5075 3175 5325 3175
Wire Wire Line
	4825 3475 4825 3175
Connection ~ 4825 3175
Wire Wire Line
	4825 3175 5075 3175
Wire Wire Line
	4575 3175 4575 3475
Text Notes 2600 2175 0    118  ~ 24
Decoupling capacitors
Text Label 13475 10300 0    50   ~ 0
FMC_NOE
Text Label 13475 10200 0    50   ~ 0
FMC_NWE
Text Label 13525 7300 0    50   ~ 0
FMC_D0
Text Label 13525 7200 0    50   ~ 0
FMC_D1
Text Label 13475 10400 0    50   ~ 0
FMC_CLK
Text Label 13525 8200 0    50   ~ 0
FMC_D13
Text Label 13525 7900 0    50   ~ 0
FMC_D15
Text Label 13525 8000 0    50   ~ 0
FMC_D14
Text Label 13475 10600 0    50   ~ 0
FMC_D2
Text Label 13475 10500 0    50   ~ 0
FMC_D3
Text Label 9625 7400 2    50   ~ 0
FMC_A0
Text Label 9625 7300 2    50   ~ 0
FMC_A1
Text Label 9625 7200 2    50   ~ 0
FMC_A2
Text Label 9625 7100 2    50   ~ 0
FMC_A3
Text Label 9625 7000 2    50   ~ 0
FMC_A4
Text Label 9625 6900 2    50   ~ 0
FMC_A5
Text Label 9625 9900 2    50   ~ 0
FMC_A6
Text Label 9625 9600 2    50   ~ 0
FMC_A7
Text Label 9625 9500 2    50   ~ 0
FMC_D4
Text Label 9625 9400 2    50   ~ 0
FMC_D5
Text Label 9625 9300 2    50   ~ 0
FMC_D6
Text Label 9625 9000 2    50   ~ 0
FMC_D7
Text Label 9625 8900 2    50   ~ 0
FMC_D8
Text Label 9625 8800 2    50   ~ 0
FMC_D9
Text Label 9675 8700 2    50   ~ 0
FMC_D10
Text Label 9675 8600 2    50   ~ 0
FMC_D11
Text Label 9675 8500 2    50   ~ 0
FMC_D12
Text Label 13475 8600 0    50   ~ 0
FMC_BLO
Text Label 13475 8500 0    50   ~ 0
FMC_BL1
$Comp
L Device:LED_Small D?
U 1 1 5EB4A7B2
P 8775 6800
AR Path="/5CB3762C/5EB4A7B2" Ref="D?"  Part="1" 
AR Path="/5CB544F7/5EB4A7B2" Ref="D?"  Part="1" 
AR Path="/5CB37600/5EB4A7B2" Ref="D12"  Part="1" 
F 0 "D12" H 8650 6850 50  0000 C CNN
F 1 "LED_uC" H 8975 6750 50  0001 C CNN
F 2 "LED_SMD:LED_0603_1608Metric_Pad1.05x0.95mm_HandSolder" V 8775 6800 50  0001 C CNN
F 3 "~" V 8775 6800 50  0001 C CNN
	1    8775 6800
	1    0    0    1   
$EndComp
Wire Wire Line
	9725 6800 9200 6800
Wire Wire Line
	9000 6800 8875 6800
$Comp
L Device:R_Small R?
U 1 1 5EB4A7BB
P 9100 6800
AR Path="/5CB3762C/5EB4A7BB" Ref="R?"  Part="1" 
AR Path="/5CB544F7/5EB4A7BB" Ref="R?"  Part="1" 
AR Path="/5CB37600/5EB4A7BB" Ref="R42"  Part="1" 
F 0 "R42" V 9050 6650 50  0000 C CNN
F 1 "390" V 9050 6975 50  0000 C CNN
F 2 "Resistor_SMD:R_0603_1608Metric_Pad1.05x0.95mm_HandSolder" H 9100 6800 50  0001 C CNN
F 3 "~" H 9100 6800 50  0001 C CNN
	1    9100 6800
	0    1    -1   0   
$EndComp
$Comp
L Device:LED_Small D?
U 1 1 5EB4A7C2
P 8775 6700
AR Path="/5CB3762C/5EB4A7C2" Ref="D?"  Part="1" 
AR Path="/5CB544F7/5EB4A7C2" Ref="D?"  Part="1" 
AR Path="/5CB37600/5EB4A7C2" Ref="D13"  Part="1" 
F 0 "D13" H 8650 6750 50  0000 C CNN
F 1 "LED_uC" H 8975 6650 50  0001 C CNN
F 2 "LED_SMD:LED_0603_1608Metric_Pad1.05x0.95mm_HandSolder" V 8775 6700 50  0001 C CNN
F 3 "~" V 8775 6700 50  0001 C CNN
	1    8775 6700
	1    0    0    1   
$EndComp
Wire Wire Line
	9725 6700 9200 6700
Wire Wire Line
	9000 6700 8875 6700
$Comp
L Device:LED_Small D?
U 1 1 5EB4A7D2
P 8775 6600
AR Path="/5CB3762C/5EB4A7D2" Ref="D?"  Part="1" 
AR Path="/5CB544F7/5EB4A7D2" Ref="D?"  Part="1" 
AR Path="/5CB37600/5EB4A7D2" Ref="D14"  Part="1" 
F 0 "D14" H 8650 6650 50  0000 C CNN
F 1 "LED_uC" H 8975 6550 50  0001 C CNN
F 2 "LED_SMD:LED_0603_1608Metric_Pad1.05x0.95mm_HandSolder" V 8775 6600 50  0001 C CNN
F 3 "~" V 8775 6600 50  0001 C CNN
	1    8775 6600
	1    0    0    1   
$EndComp
Wire Wire Line
	9725 6600 9200 6600
Wire Wire Line
	9000 6600 8875 6600
$Comp
L Device:LED_Small D?
U 1 1 5EB4A7E2
P 8775 6400
AR Path="/5CB3762C/5EB4A7E2" Ref="D?"  Part="1" 
AR Path="/5CB544F7/5EB4A7E2" Ref="D?"  Part="1" 
AR Path="/5CB37600/5EB4A7E2" Ref="D15"  Part="1" 
F 0 "D15" H 8650 6450 50  0000 C CNN
F 1 "LED_uC" H 8975 6350 50  0001 C CNN
F 2 "LED_SMD:LED_0603_1608Metric_Pad1.05x0.95mm_HandSolder" V 8775 6400 50  0001 C CNN
F 3 "~" V 8775 6400 50  0001 C CNN
	1    8775 6400
	1    0    0    1   
$EndComp
Wire Wire Line
	9725 6400 9200 6400
Wire Wire Line
	9000 6400 8875 6400
Wire Wire Line
	8450 6800 8675 6800
Wire Wire Line
	8450 6600 8675 6600
Wire Wire Line
	8450 6700 8675 6700
$Comp
L power:GND #PWR?
U 1 1 5EB4A7F4
P 8375 6700
AR Path="/5CB544F7/5EB4A7F4" Ref="#PWR?"  Part="1" 
AR Path="/5CB37600/5EB4A7F4" Ref="#PWR0109"  Part="1" 
F 0 "#PWR0109" H 8375 6450 50  0001 C CNN
F 1 "GND" V 8380 6572 50  0000 R CNN
F 2 "" H 8375 6700 50  0001 C CNN
F 3 "" H 8375 6700 50  0001 C CNN
	1    8375 6700
	0    1    1    0   
$EndComp
$Comp
L Device:R_Small R?
U 1 1 5EB58C0E
P 20225 4300
AR Path="/5CB3762C/5EB58C0E" Ref="R?"  Part="1" 
AR Path="/5CB544F7/5EB58C0E" Ref="R?"  Part="1" 
AR Path="/5CB37600/5EB58C0E" Ref="R85"  Part="1" 
F 0 "R85" V 20275 4100 50  0000 C CNN
F 1 "10k" V 20275 4450 50  0000 C CNN
F 2 "Resistor_SMD:R_0603_1608Metric_Pad1.05x0.95mm_HandSolder" H 20225 4300 50  0001 C CNN
F 3 "~" H 20225 4300 50  0001 C CNN
	1    20225 4300
	0    1    -1   0   
$EndComp
$Comp
L power:+3.3V #PWR?
U 1 1 5EB58C15
P 17800 4150
AR Path="/5CB544F7/5EB58C15" Ref="#PWR?"  Part="1" 
AR Path="/5CB37600/5EB58C15" Ref="#PWR0116"  Part="1" 
F 0 "#PWR0116" H 17800 4000 50  0001 C CNN
F 1 "+3.3V" H 17800 4325 50  0000 C CNN
F 2 "" H 17800 4150 50  0001 C CNN
F 3 "" H 17800 4150 50  0001 C CNN
	1    17800 4150
	1    0    0    -1  
$EndComp
$Comp
L power:GND #PWR?
U 1 1 5EB58C1B
P 19500 6725
AR Path="/5CB544F7/5EB58C1B" Ref="#PWR?"  Part="1" 
AR Path="/5CB37600/5EB58C1B" Ref="#PWR0125"  Part="1" 
F 0 "#PWR0125" H 19500 6475 50  0001 C CNN
F 1 "GND" H 19575 6575 50  0000 R CNN
F 2 "" H 19500 6725 50  0001 C CNN
F 3 "" H 19500 6725 50  0001 C CNN
	1    19500 6725
	1    0    0    -1  
$EndComp
$Comp
L Device:R_Small R?
U 1 1 5EB58C24
P 19125 6325
AR Path="/5CB3762C/5EB58C24" Ref="R?"  Part="1" 
AR Path="/5CB544F7/5EB58C24" Ref="R?"  Part="1" 
AR Path="/5CB37600/5EB58C24" Ref="R65"  Part="1" 
F 0 "R65" H 19225 6275 50  0000 C CNN
F 1 "10k" H 19225 6375 50  0000 C CNN
F 2 "Resistor_SMD:R_0603_1608Metric_Pad1.05x0.95mm_HandSolder" H 19125 6325 50  0001 C CNN
F 3 "~" H 19125 6325 50  0001 C CNN
	1    19125 6325
	1    0    0    1   
$EndComp
Text Label 20875 4300 2    50   ~ 0
FSW_A
Text Label 20850 4850 2    50   ~ 0
FSW_B
Text Label 20850 5375 2    50   ~ 0
FSW_C
Text Label 20850 5975 2    50   ~ 0
FSW_D
Wire Wire Line
	13425 9400 13775 9400
Text Label 13450 9400 0    50   ~ 0
MEM_A1
Wire Wire Line
	13425 9500 13775 9500
Text Label 13450 9500 0    50   ~ 0
MEM_A2
Wire Wire Line
	13425 9200 13775 9200
Text Label 13450 9200 0    50   ~ 0
MEM_A0
Wire Wire Line
	13425 9700 13775 9700
Text Label 13450 9700 0    50   ~ 0
MEM_A4
Wire Wire Line
	13425 9900 13775 9900
Text Label 13450 9900 0    50   ~ 0
MEM_A5
Wire Wire Line
	13425 9600 13775 9600
Text Label 13450 9600 0    50   ~ 0
MEM_A3
Wire Wire Line
	13425 10100 13775 10100
Text Label 13450 10100 0    50   ~ 0
MEM_A7
Wire Wire Line
	13425 10700 13775 10700
Text Label 13450 10700 0    50   ~ 0
MEM_A8
Wire Wire Line
	13425 10000 13775 10000
Text Label 13450 10000 0    50   ~ 0
MEM_A6
Wire Wire Line
	13425 10900 13775 10900
Text Label 13450 10900 0    50   ~ 0
MEM_A10
Wire Wire Line
	13425 6300 13775 6300
Text Label 13450 6300 0    50   ~ 0
MEM_A11
Wire Wire Line
	13425 10800 13775 10800
Text Label 13450 10800 0    50   ~ 0
MEM_A9
Wire Wire Line
	13425 9100 13775 9100
Text Label 13450 9100 0    50   ~ 0
MEM_CE
Wire Wire Line
	13425 6100 13775 6100
Text Label 13450 6100 0    50   ~ 0
MEM_A13
Wire Wire Line
	13425 6000 13775 6000
Text Label 13450 6000 0    50   ~ 0
MEM_A14
Wire Wire Line
	13425 6200 13775 6200
Text Label 13450 6200 0    50   ~ 0
MEM_A12
Wire Wire Line
	13425 9300 13775 9300
Text Label 13450 9300 0    50   ~ 0
MEM_OE
Wire Wire Line
	13425 9800 13775 9800
Text Label 13450 9800 0    50   ~ 0
MEM_WE
Wire Wire Line
	13425 5800 13775 5800
Text Label 13475 5800 0    50   ~ 0
MEM_D1
Wire Wire Line
	13425 5700 13775 5700
Text Label 13475 5700 0    50   ~ 0
MEM_D2
Wire Wire Line
	13425 5900 13775 5900
Text Label 13475 5900 0    50   ~ 0
MEM_D0
Wire Wire Line
	13425 8400 13775 8400
Text Label 13475 8400 0    50   ~ 0
MEM_D4
Wire Wire Line
	13425 8800 13775 8800
Text Label 13475 8800 0    50   ~ 0
MEM_D5
Wire Wire Line
	13425 8700 13775 8700
Text Label 13475 8700 0    50   ~ 0
MEM_D3
Wire Wire Line
	13425 9000 13775 9000
Text Label 13475 9000 0    50   ~ 0
MEM_D7
Wire Wire Line
	13425 8900 13775 8900
Text Label 13475 8900 0    50   ~ 0
MEM_D6
$Comp
L Memory_RAM:CY7C199 U?
U 1 1 5CE4CD96
P 4250 11850
AR Path="/5CB37616/5CE4CD96" Ref="U?"  Part="1" 
AR Path="/5CB37600/5CE4CD96" Ref="U6"  Part="1" 
F 0 "U6" H 4575 13050 50  0000 C CNN
F 1 "CY7C199" H 4650 10700 50  0000 C CNN
F 2 "Package_SO:TSOP-I-28_11.8x8mm_P0.55mm" H 4250 11850 50  0001 C CNN
F 3 "" H 4250 11850 50  0001 C CNN
	1    4250 11850
	1    0    0    -1  
$EndComp
Wire Wire Line
	3650 11050 3300 11050
Text Label 3575 11050 2    50   ~ 0
MEM_A1
Wire Wire Line
	3650 11150 3300 11150
Text Label 3575 11150 2    50   ~ 0
MEM_A2
Wire Wire Line
	3650 10950 3300 10950
Text Label 3575 10950 2    50   ~ 0
MEM_A0
Wire Wire Line
	3650 11350 3300 11350
Text Label 3575 11350 2    50   ~ 0
MEM_A4
Wire Wire Line
	3650 11450 3300 11450
Text Label 3575 11450 2    50   ~ 0
MEM_A5
Wire Wire Line
	3650 11250 3300 11250
Text Label 3575 11250 2    50   ~ 0
MEM_A3
Wire Wire Line
	3650 11650 3300 11650
Text Label 3575 11650 2    50   ~ 0
MEM_A7
Wire Wire Line
	3650 11750 3300 11750
Text Label 3575 11750 2    50   ~ 0
MEM_A8
Wire Wire Line
	3650 11550 3300 11550
Text Label 3575 11550 2    50   ~ 0
MEM_A6
Wire Wire Line
	3650 11950 3300 11950
Text Label 3625 11950 2    50   ~ 0
MEM_A10
Wire Wire Line
	3650 12050 3300 12050
Text Label 3625 12050 2    50   ~ 0
MEM_A11
Wire Wire Line
	3650 11850 3300 11850
Text Label 3575 11850 2    50   ~ 0
MEM_A9
Wire Wire Line
	4850 11050 5200 11050
Text Label 4900 11050 0    50   ~ 0
MEM_D1
Wire Wire Line
	4850 11150 5200 11150
Text Label 4900 11150 0    50   ~ 0
MEM_D2
Wire Wire Line
	4850 10950 5200 10950
Text Label 4900 10950 0    50   ~ 0
MEM_D0
Wire Wire Line
	4850 11350 5200 11350
Text Label 4900 11350 0    50   ~ 0
MEM_D4
Wire Wire Line
	4850 11450 5200 11450
Text Label 4900 11450 0    50   ~ 0
MEM_D5
Wire Wire Line
	4850 11250 5200 11250
Text Label 4900 11250 0    50   ~ 0
MEM_D3
Wire Wire Line
	4850 11650 5200 11650
Text Label 4900 11650 0    50   ~ 0
MEM_D7
Wire Wire Line
	3650 12550 3300 12550
Text Label 3575 12550 2    50   ~ 0
MEM_CE
Wire Wire Line
	4850 11550 5200 11550
Text Label 4900 11550 0    50   ~ 0
MEM_D6
Wire Wire Line
	3650 12250 3300 12250
Text Label 3625 12250 2    50   ~ 0
MEM_A13
Wire Wire Line
	3650 12350 3300 12350
Text Label 3625 12350 2    50   ~ 0
MEM_A14
Wire Wire Line
	3650 12150 3300 12150
Text Label 3625 12150 2    50   ~ 0
MEM_A12
Wire Wire Line
	3650 12650 3300 12650
Text Label 3575 12650 2    50   ~ 0
MEM_OE
Wire Wire Line
	3650 12750 3300 12750
Text Label 3575 12750 2    50   ~ 0
MEM_WE
$Comp
L Device:C_Small C50
U 1 1 5CE4CDD1
P 2450 11850
AR Path="/5CB37600/5CE4CDD1" Ref="C50"  Part="1" 
AR Path="/5CB37616/5CE4CDD1" Ref="C?"  Part="1" 
F 0 "C50" H 2350 11925 50  0000 L CNN
F 1 "100nF" V 2550 11750 50  0000 L CNN
F 2 "Capacitor_SMD:C_0603_1608Metric_Pad1.05x0.95mm_HandSolder" H 2450 11850 50  0001 C CNN
F 3 "~" H 2450 11850 50  0001 C CNN
	1    2450 11850
	1    0    0    -1  
$EndComp
$Comp
L power:GND #PWR092
U 1 1 5CE4CDD8
P 2450 12325
AR Path="/5CB37600/5CE4CDD8" Ref="#PWR092"  Part="1" 
AR Path="/5CB37616/5CE4CDD8" Ref="#PWR?"  Part="1" 
F 0 "#PWR092" H 2450 12075 50  0001 C CNN
F 1 "GND" H 2455 12152 50  0000 C CNN
F 2 "" H 2450 12325 50  0001 C CNN
F 3 "" H 2450 12325 50  0001 C CNN
	1    2450 12325
	1    0    0    -1  
$EndComp
$Comp
L power:+3.3V #PWR091
U 1 1 5CE4CDDE
P 2450 11275
AR Path="/5CB37600/5CE4CDDE" Ref="#PWR091"  Part="1" 
AR Path="/5CB37616/5CE4CDDE" Ref="#PWR?"  Part="1" 
F 0 "#PWR091" H 2450 11125 50  0001 C CNN
F 1 "+3.3V" H 2465 11448 50  0000 C CNN
F 2 "" H 2450 11275 50  0001 C CNN
F 3 "" H 2450 11275 50  0001 C CNN
	1    2450 11275
	1    0    0    -1  
$EndComp
Wire Wire Line
	2450 11950 2450 12325
Wire Wire Line
	2450 11275 2450 11750
$Comp
L power:+3.3V #PWR0101
U 1 1 5CE4CDE6
P 4250 10475
AR Path="/5CB37600/5CE4CDE6" Ref="#PWR0101"  Part="1" 
AR Path="/5CB37616/5CE4CDE6" Ref="#PWR?"  Part="1" 
F 0 "#PWR0101" H 4250 10325 50  0001 C CNN
F 1 "+3.3V" H 4265 10648 50  0000 C CNN
F 2 "" H 4250 10475 50  0001 C CNN
F 3 "" H 4250 10475 50  0001 C CNN
	1    4250 10475
	1    0    0    -1  
$EndComp
$Comp
L power:GND #PWR0102
U 1 1 5CE4CDEC
P 4250 13250
AR Path="/5CB37600/5CE4CDEC" Ref="#PWR0102"  Part="1" 
AR Path="/5CB37616/5CE4CDEC" Ref="#PWR?"  Part="1" 
F 0 "#PWR0102" H 4250 13000 50  0001 C CNN
F 1 "GND" H 4255 13077 50  0000 C CNN
F 2 "" H 4250 13250 50  0001 C CNN
F 3 "" H 4250 13250 50  0001 C CNN
	1    4250 13250
	1    0    0    -1  
$EndComp
Wire Wire Line
	4250 10475 4250 10650
Wire Wire Line
	4250 13050 4250 13250
Text Notes 3175 9975 0    118  ~ 24
SRAM Memory
Wire Notes Line
	6650 9625 1350 9625
Text HLabel 8625 5000 0    50   Output ~ 0
TDO_FT
Text HLabel 8625 5300 0    50   Input ~ 0
TDI_FPGA
Text HLabel 8625 5200 0    50   Input ~ 0
TCK
Text HLabel 8625 5100 0    50   Input ~ 0
TMS
Wire Wire Line
	8625 5100 9725 5100
Wire Wire Line
	8625 5200 9725 5200
Wire Wire Line
	8625 5300 9725 5300
Text HLabel 9275 7400 0    50   Input ~ 0
FMC_A0
Text HLabel 9275 7300 0    50   Input ~ 0
FMC_A1
Text HLabel 9275 7200 0    50   Input ~ 0
FMC_A2
Text HLabel 9275 7100 0    50   Input ~ 0
FMC_A3
Text HLabel 9275 7000 0    50   Input ~ 0
FMC_A4
Text HLabel 9275 6900 0    50   Input ~ 0
FMC_A5
Text HLabel 9225 9900 0    50   Input ~ 0
FMC_A6
Text HLabel 9225 9600 0    50   Input ~ 0
FMC_A7
Text HLabel 9200 9500 0    50   BiDi ~ 0
FMC_D4
Text HLabel 9200 9400 0    50   BiDi ~ 0
FMC_D5
Text HLabel 9200 9300 0    50   BiDi ~ 0
FMC_D6
Text HLabel 9200 9000 0    50   BiDi ~ 0
FMC_D7
Text HLabel 9200 8900 0    50   BiDi ~ 0
FMC_D8
Text HLabel 9200 8800 0    50   BiDi ~ 0
FMC_D9
Text HLabel 9200 8700 0    50   BiDi ~ 0
FMC_D10
Text HLabel 9200 8600 0    50   BiDi ~ 0
FMC_D11
Text HLabel 9200 8500 0    50   BiDi ~ 0
FMC_D12
Text HLabel 13925 8600 2    50   Input ~ 0
FMC_BL0
Text HLabel 13925 8500 2    50   Input ~ 0
FMC_BL1
Text HLabel 13925 7300 2    50   BiDi ~ 0
FMC_D0
Text HLabel 13925 7200 2    50   BiDi ~ 0
FMC_D1
Text HLabel 13925 8000 2    50   BiDi ~ 0
FMC_D14
Text HLabel 13925 7900 2    50   BiDi ~ 0
FMC_D15
Text HLabel 13925 8200 2    50   BiDi ~ 0
FMC_D13
Text HLabel 13925 10400 2    50   Input ~ 0
FMC_CLK
Text HLabel 13925 10300 2    50   Input ~ 0
FMC_NOE
Text HLabel 13925 10200 2    50   Input ~ 0
FMC_NWE
Text HLabel 13925 10500 2    50   BiDi ~ 0
FMC_D3
Text HLabel 13925 10600 2    50   BiDi ~ 0
FMC_D2
$Comp
L Connector_Generic:Conn_02x06_Counter_Clockwise J?
U 1 1 5DE4E5F5
P 19475 7900
AR Path="/5CB544F7/5DE4E5F5" Ref="J?"  Part="1" 
AR Path="/5CB37600/5DE4E5F5" Ref="J13"  Part="1" 
F 0 "J13" H 19525 8200 50  0000 C CNN
F 1 "Conn_02x06" H 19475 7475 50  0000 C CNN
F 2 "pmods:Pmod_2x06_P2.54mm_fixed" H 19475 7900 50  0001 C CNN
F 3 "~" H 19475 7900 50  0001 C CNN
	1    19475 7900
	1    0    0    -1  
$EndComp
$Comp
L power:GND #PWR?
U 1 1 5DE4E5FC
P 18925 8100
AR Path="/5CB544F7/5DE4E5FC" Ref="#PWR?"  Part="1" 
AR Path="/5CB37600/5DE4E5FC" Ref="#PWR0117"  Part="1" 
F 0 "#PWR0117" H 18925 7850 50  0001 C CNN
F 1 "GND" V 18930 7972 50  0000 R CNN
F 2 "" H 18925 8100 50  0001 C CNN
F 3 "" H 18925 8100 50  0001 C CNN
	1    18925 8100
	0    1    -1   0   
$EndComp
Wire Wire Line
	18925 8100 19275 8100
Wire Wire Line
	18925 8200 19275 8200
$Comp
L power:+3.3V #PWR?
U 1 1 5DE4E604
P 18925 8200
AR Path="/5CB544F7/5DE4E604" Ref="#PWR?"  Part="1" 
AR Path="/5CB37600/5DE4E604" Ref="#PWR0118"  Part="1" 
F 0 "#PWR0118" H 18925 8050 50  0001 C CNN
F 1 "+3.3V" V 18925 8425 50  0000 C CNN
F 2 "" H 18925 8200 50  0001 C CNN
F 3 "" H 18925 8200 50  0001 C CNN
	1    18925 8200
	0    -1   -1   0   
$EndComp
$Comp
L power:+3.3V #PWR?
U 1 1 5DE4E60A
P 20125 8200
AR Path="/5CB544F7/5DE4E60A" Ref="#PWR?"  Part="1" 
AR Path="/5CB37600/5DE4E60A" Ref="#PWR0127"  Part="1" 
F 0 "#PWR0127" H 20125 8050 50  0001 C CNN
F 1 "+3.3V" V 20125 8425 50  0000 C CNN
F 2 "" H 20125 8200 50  0001 C CNN
F 3 "" H 20125 8200 50  0001 C CNN
	1    20125 8200
	0    1    1    0   
$EndComp
$Comp
L power:GND #PWR?
U 1 1 5DE4E610
P 20125 8100
AR Path="/5CB544F7/5DE4E610" Ref="#PWR?"  Part="1" 
AR Path="/5CB37600/5DE4E610" Ref="#PWR0126"  Part="1" 
F 0 "#PWR0126" H 20125 7850 50  0001 C CNN
F 1 "GND" V 20130 7972 50  0000 R CNN
F 2 "" H 20125 8100 50  0001 C CNN
F 3 "" H 20125 8100 50  0001 C CNN
	1    20125 8100
	0    -1   1    0   
$EndComp
Wire Wire Line
	19775 8100 20125 8100
Wire Wire Line
	19775 8200 20125 8200
Wire Wire Line
	9275 7400 9725 7400
Wire Wire Line
	9275 7300 9725 7300
Wire Wire Line
	9275 7200 9725 7200
Wire Wire Line
	9275 7100 9725 7100
Wire Wire Line
	9275 7000 9725 7000
Wire Wire Line
	9275 6900 9725 6900
Wire Wire Line
	9225 9900 9725 9900
Wire Wire Line
	9225 9600 9725 9600
Wire Wire Line
	9200 9500 9725 9500
Wire Wire Line
	9200 9400 9725 9400
Wire Wire Line
	13425 6900 13775 6900
Wire Wire Line
	9200 9300 9725 9300
Wire Wire Line
	9200 9000 9725 9000
Wire Wire Line
	9200 8900 9725 8900
Wire Wire Line
	9200 8800 9725 8800
Wire Wire Line
	9200 8700 9725 8700
Wire Wire Line
	9200 8600 9725 8600
Wire Wire Line
	9200 8500 9725 8500
Wire Wire Line
	13425 10400 13925 10400
Wire Wire Line
	13425 10300 13925 10300
Wire Wire Line
	13425 10200 13925 10200
Wire Wire Line
	13425 10500 13925 10500
Wire Wire Line
	13425 10600 13925 10600
Wire Wire Line
	13425 8600 13925 8600
Wire Wire Line
	13425 8500 13925 8500
Text Notes 4275 8675 0    50   ~ 0
576-5011-5-ND
$Comp
L power:GND #PWR0100
U 1 1 5E29A971
P 4150 8750
F 0 "#PWR0100" H 4150 8500 50  0001 C CNN
F 1 "GND" H 4155 8577 50  0000 C CNN
F 2 "" H 4150 8750 50  0001 C CNN
F 3 "" H 4150 8750 50  0001 C CNN
	1    4150 8750
	1    0    0    -1  
$EndComp
$Comp
L Device:C_Small C58
U 1 1 5E29ADD5
P 3250 8225
F 0 "C58" H 3150 8300 50  0000 L CNN
F 1 "100nF" V 3350 8125 50  0000 L CNN
F 2 "Capacitor_SMD:C_0603_1608Metric_Pad1.05x0.95mm_HandSolder" H 3250 8225 50  0001 C CNN
F 3 "~" H 3250 8225 50  0001 C CNN
	1    3250 8225
	1    0    0    -1  
$EndComp
$Comp
L power:+3.3V #PWR099
U 1 1 5E29B30B
P 4150 7725
F 0 "#PWR099" H 4150 7575 50  0001 C CNN
F 1 "+3.3V" H 4165 7898 50  0000 C CNN
F 2 "" H 4150 7725 50  0001 C CNN
F 3 "" H 4150 7725 50  0001 C CNN
	1    4150 7725
	1    0    0    -1  
$EndComp
$Comp
L power:+3.3V #PWR097
U 1 1 5E29B640
P 3250 7875
F 0 "#PWR097" H 3250 7725 50  0001 C CNN
F 1 "+3.3V" H 3265 8048 50  0000 C CNN
F 2 "" H 3250 7875 50  0001 C CNN
F 3 "" H 3250 7875 50  0001 C CNN
	1    3250 7875
	1    0    0    -1  
$EndComp
$Comp
L power:GND #PWR098
U 1 1 5E29B77B
P 3250 8625
F 0 "#PWR098" H 3250 8375 50  0001 C CNN
F 1 "GND" H 3255 8452 50  0000 C CNN
F 2 "" H 3250 8625 50  0001 C CNN
F 3 "" H 3250 8625 50  0001 C CNN
	1    3250 8625
	1    0    0    -1  
$EndComp
Wire Wire Line
	4150 7725 4150 7825
Wire Wire Line
	4150 8550 4150 8750
Wire Wire Line
	3250 7875 3250 8125
Wire Wire Line
	3250 8625 3250 8325
Wire Wire Line
	4450 8250 4825 8250
Wire Wire Line
	3850 8250 3700 8250
Wire Wire Line
	3700 8250 3700 7825
Wire Wire Line
	3700 7825 4150 7825
Connection ~ 4150 7825
Wire Wire Line
	4150 7825 4150 7950
Text Label 4525 8250 0    50   ~ 0
CLK80MHz
Text Label 13500 6900 0    50   ~ 0
CLK80MHz
Wire Wire Line
	13425 8200 13925 8200
Wire Wire Line
	13425 8000 13925 8000
Wire Wire Line
	13425 7900 13925 7900
Wire Wire Line
	13425 7300 13925 7300
Wire Wire Line
	13425 7200 13925 7200
$Comp
L power:GND #PWR?
U 1 1 5E4E7EFA
P 15600 5725
AR Path="/5CB544F7/5E4E7EFA" Ref="#PWR?"  Part="1" 
AR Path="/5CB37600/5E4E7EFA" Ref="#PWR0115"  Part="1" 
F 0 "#PWR0115" H 15600 5475 50  0001 C CNN
F 1 "GND" H 15675 5575 50  0000 R CNN
F 2 "" H 15600 5725 50  0001 C CNN
F 3 "" H 15600 5725 50  0001 C CNN
	1    15600 5725
	1    0    0    -1  
$EndComp
$Comp
L Device:R_Small R?
U 1 1 5E643512
P 15875 4550
AR Path="/5CB3762C/5E643512" Ref="R?"  Part="1" 
AR Path="/5CB544F7/5E643512" Ref="R?"  Part="1" 
AR Path="/5CB37600/5E643512" Ref="R48"  Part="1" 
F 0 "R48" H 15750 4625 50  0000 C CNN
F 1 "4.7k" H 15750 4500 50  0000 C CNN
F 2 "Resistor_SMD:R_0603_1608Metric_Pad1.05x0.95mm_HandSolder" H 15875 4550 50  0001 C CNN
F 3 "~" H 15875 4550 50  0001 C CNN
	1    15875 4550
	-1   0    0    -1  
$EndComp
$Comp
L Device:R_Small R?
U 1 1 5E65FE41
P 15300 4975
AR Path="/5CB3762C/5E65FE41" Ref="R?"  Part="1" 
AR Path="/5CB544F7/5E65FE41" Ref="R?"  Part="1" 
AR Path="/5CB37600/5E65FE41" Ref="R47"  Part="1" 
F 0 "R47" H 15450 4950 50  0000 C CNN
F 1 "220" H 15175 4925 50  0000 C CNN
F 2 "Resistor_SMD:R_0603_1608Metric_Pad1.05x0.95mm_HandSolder" H 15300 4975 50  0001 C CNN
F 3 "~" H 15300 4975 50  0001 C CNN
	1    15300 4975
	-1   0    0    -1  
$EndComp
$Comp
L Device:LED_Small D?
U 1 1 5E65FE47
P 15300 5350
AR Path="/5CB3762C/5E65FE47" Ref="D?"  Part="1" 
AR Path="/5CB544F7/5E65FE47" Ref="D?"  Part="1" 
AR Path="/5CB37600/5E65FE47" Ref="D16"  Part="1" 
F 0 "D16" H 15300 5250 50  0000 C CNN
F 1 "LED_uC" H 15500 5300 50  0001 C CNN
F 2 "LED_SMD:LED_0603_1608Metric_Pad1.05x0.95mm_HandSolder" V 15300 5350 50  0001 C CNN
F 3 "~" V 15300 5350 50  0001 C CNN
	1    15300 5350
	0    1    -1   0   
$EndComp
$Comp
L Device:R_Small R?
U 1 1 5E65FE54
P 15300 4550
AR Path="/5CB3762C/5E65FE54" Ref="R?"  Part="1" 
AR Path="/5CB544F7/5E65FE54" Ref="R?"  Part="1" 
AR Path="/5CB37600/5E65FE54" Ref="R46"  Part="1" 
F 0 "R46" H 15425 4550 50  0000 C CNN
F 1 "220" H 15175 4500 50  0000 C CNN
F 2 "Resistor_SMD:R_0603_1608Metric_Pad1.05x0.95mm_HandSolder" H 15300 4550 50  0001 C CNN
F 3 "~" H 15300 4550 50  0001 C CNN
	1    15300 4550
	-1   0    0    -1  
$EndComp
$Comp
L power:GND #PWR0110
U 1 1 5CD3F99A
P 9475 5500
F 0 "#PWR0110" H 9475 5250 50  0001 C CNN
F 1 "GND" H 9480 5327 50  0000 C CNN
F 2 "" H 9475 5500 50  0001 C CNN
F 3 "" H 9475 5500 50  0001 C CNN
	1    9475 5500
	0    1    1    0   
$EndComp
Wire Wire Line
	9475 5500 9725 5500
$Comp
L power:+3.3V #PWR?
U 1 1 5CE0E057
P 15600 4175
AR Path="/5CB544F7/5CE0E057" Ref="#PWR?"  Part="1" 
AR Path="/5CB37600/5CE0E057" Ref="#PWR0114"  Part="1" 
F 0 "#PWR0114" H 15600 4025 50  0001 C CNN
F 1 "+3.3V" H 15600 4350 50  0000 C CNN
F 2 "" H 15600 4175 50  0001 C CNN
F 3 "" H 15600 4175 50  0001 C CNN
	1    15600 4175
	1    0    0    -1  
$EndComp
Wire Wire Line
	13425 5400 13775 5400
Text Label 13575 5400 0    50   ~ 0
DONE
Wire Wire Line
	15300 4450 15300 4300
NoConn ~ 13425 5500
Wire Wire Line
	15300 4650 15300 4800
Wire Wire Line
	15300 5075 15300 5250
Wire Wire Line
	15875 4300 15875 4450
Wire Wire Line
	15300 4300 15600 4300
Wire Wire Line
	15875 4650 15875 4800
Wire Wire Line
	15300 5450 15300 5625
Wire Wire Line
	15300 5625 15600 5625
Wire Wire Line
	15875 5625 15875 5450
Wire Wire Line
	15600 4175 15600 4300
Connection ~ 15600 4300
Wire Wire Line
	15600 4300 15875 4300
Wire Wire Line
	15600 5725 15600 5625
Connection ~ 15600 5625
Wire Wire Line
	15600 5625 15875 5625
Wire Wire Line
	13425 5300 13775 5300
Text Label 13425 5300 0    50   ~ 0
PROGRAM_B
Wire Wire Line
	14950 4800 15300 4800
Text Label 15025 4800 0    50   ~ 0
DONE
Wire Wire Line
	15525 4800 15875 4800
Text Label 15850 4800 2    50   ~ 0
PROGRAM_B
Connection ~ 15300 4800
Wire Wire Line
	15300 4800 15300 4875
Connection ~ 15875 4800
Wire Wire Line
	15875 4800 15875 4875
Wire Wire Line
	13425 6400 13775 6400
Text Label 13525 6400 0    50   ~ 0
FGPIO0
Text Label 13525 6700 0    50   ~ 0
FGPIO3
Wire Wire Line
	13425 6700 13775 6700
Text Label 13525 6500 0    50   ~ 0
FGPIO1
Wire Wire Line
	13425 6500 13775 6500
Text Label 13525 6600 0    50   ~ 0
FGPIO2
Wire Wire Line
	13425 6600 13775 6600
$Comp
L Device:R_Small R?
U 1 1 5D3B5FB4
P 9100 6700
AR Path="/5CB3762C/5D3B5FB4" Ref="R?"  Part="1" 
AR Path="/5CB544F7/5D3B5FB4" Ref="R?"  Part="1" 
AR Path="/5CB37600/5D3B5FB4" Ref="R43"  Part="1" 
F 0 "R43" V 9050 6550 50  0000 C CNN
F 1 "390" V 9050 6875 50  0000 C CNN
F 2 "Resistor_SMD:R_0603_1608Metric_Pad1.05x0.95mm_HandSolder" H 9100 6700 50  0001 C CNN
F 3 "~" H 9100 6700 50  0001 C CNN
	1    9100 6700
	0    1    -1   0   
$EndComp
$Comp
L Device:R_Small R?
U 1 1 5D3B603E
P 9100 6600
AR Path="/5CB3762C/5D3B603E" Ref="R?"  Part="1" 
AR Path="/5CB544F7/5D3B603E" Ref="R?"  Part="1" 
AR Path="/5CB37600/5D3B603E" Ref="R44"  Part="1" 
F 0 "R44" V 9050 6450 50  0000 C CNN
F 1 "390" V 9050 6775 50  0000 C CNN
F 2 "Resistor_SMD:R_0603_1608Metric_Pad1.05x0.95mm_HandSolder" H 9100 6600 50  0001 C CNN
F 3 "~" H 9100 6600 50  0001 C CNN
	1    9100 6600
	0    1    -1   0   
$EndComp
$Comp
L Device:R_Small R?
U 1 1 5D3B60C6
P 9100 6400
AR Path="/5CB3762C/5D3B60C6" Ref="R?"  Part="1" 
AR Path="/5CB544F7/5D3B60C6" Ref="R?"  Part="1" 
AR Path="/5CB37600/5D3B60C6" Ref="R45"  Part="1" 
F 0 "R45" V 9050 6250 50  0000 C CNN
F 1 "390" V 9050 6575 50  0000 C CNN
F 2 "Resistor_SMD:R_0603_1608Metric_Pad1.05x0.95mm_HandSolder" H 9100 6400 50  0001 C CNN
F 3 "~" H 9100 6400 50  0001 C CNN
	1    9100 6400
	0    1    -1   0   
$EndComp
$Comp
L Device:R_Small R?
U 1 1 5D66518C
P 20225 4850
AR Path="/5CB3762C/5D66518C" Ref="R?"  Part="1" 
AR Path="/5CB544F7/5D66518C" Ref="R?"  Part="1" 
AR Path="/5CB37600/5D66518C" Ref="R86"  Part="1" 
F 0 "R86" V 20300 4650 50  0000 C CNN
F 1 "10k" V 20300 5025 50  0000 C CNN
F 2 "Resistor_SMD:R_0603_1608Metric_Pad1.05x0.95mm_HandSolder" H 20225 4850 50  0001 C CNN
F 3 "~" H 20225 4850 50  0001 C CNN
	1    20225 4850
	0    1    -1   0   
$EndComp
$Comp
L Device:R_Small R?
U 1 1 5D6DF0FF
P 19375 6325
AR Path="/5CB3762C/5D6DF0FF" Ref="R?"  Part="1" 
AR Path="/5CB544F7/5D6DF0FF" Ref="R?"  Part="1" 
AR Path="/5CB37600/5D6DF0FF" Ref="R66"  Part="1" 
F 0 "R66" H 19475 6275 50  0000 C CNN
F 1 "10k" H 19475 6375 50  0000 C CNN
F 2 "Resistor_SMD:R_0603_1608Metric_Pad1.05x0.95mm_HandSolder" H 19375 6325 50  0001 C CNN
F 3 "~" H 19375 6325 50  0001 C CNN
	1    19375 6325
	1    0    0    1   
$EndComp
$Comp
L Device:R_Small R?
U 1 1 5D6DF195
P 19625 6325
AR Path="/5CB3762C/5D6DF195" Ref="R?"  Part="1" 
AR Path="/5CB544F7/5D6DF195" Ref="R?"  Part="1" 
AR Path="/5CB37600/5D6DF195" Ref="R67"  Part="1" 
F 0 "R67" H 19725 6275 50  0000 C CNN
F 1 "10k" H 19725 6375 50  0000 C CNN
F 2 "Resistor_SMD:R_0603_1608Metric_Pad1.05x0.95mm_HandSolder" H 19625 6325 50  0001 C CNN
F 3 "~" H 19625 6325 50  0001 C CNN
	1    19625 6325
	1    0    0    1   
$EndComp
$Comp
L Device:R_Small R?
U 1 1 5D6DF22D
P 19875 6325
AR Path="/5CB3762C/5D6DF22D" Ref="R?"  Part="1" 
AR Path="/5CB544F7/5D6DF22D" Ref="R?"  Part="1" 
AR Path="/5CB37600/5D6DF22D" Ref="R68"  Part="1" 
F 0 "R68" H 19975 6275 50  0000 C CNN
F 1 "10k" H 19975 6375 50  0000 C CNN
F 2 "Resistor_SMD:R_0603_1608Metric_Pad1.05x0.95mm_HandSolder" H 19875 6325 50  0001 C CNN
F 3 "~" H 19875 6325 50  0001 C CNN
	1    19875 6325
	1    0    0    1   
$EndComp
Wire Wire Line
	19125 6425 19125 6650
Wire Wire Line
	19125 6650 19375 6650
Wire Wire Line
	19875 6650 19875 6425
Wire Wire Line
	19375 6425 19375 6650
Connection ~ 19375 6650
Wire Wire Line
	19375 6650 19500 6650
Wire Wire Line
	19625 6425 19625 6650
Connection ~ 19625 6650
Wire Wire Line
	19625 6650 19875 6650
Wire Wire Line
	19500 6725 19500 6650
Connection ~ 19500 6650
Wire Wire Line
	19500 6650 19625 6650
$Comp
L Device:R_Small R?
U 1 1 5D836C65
P 20225 5975
AR Path="/5CB3762C/5D836C65" Ref="R?"  Part="1" 
AR Path="/5CB544F7/5D836C65" Ref="R?"  Part="1" 
AR Path="/5CB37600/5D836C65" Ref="R88"  Part="1" 
F 0 "R88" V 20275 5775 50  0000 C CNN
F 1 "10k" V 20275 6150 50  0000 C CNN
F 2 "Resistor_SMD:R_0603_1608Metric_Pad1.05x0.95mm_HandSolder" H 20225 5975 50  0001 C CNN
F 3 "~" H 20225 5975 50  0001 C CNN
	1    20225 5975
	0    1    -1   0   
$EndComp
$Comp
L Device:R_Small R?
U 1 1 5D89579B
P 20225 5375
AR Path="/5CB3762C/5D89579B" Ref="R?"  Part="1" 
AR Path="/5CB544F7/5D89579B" Ref="R?"  Part="1" 
AR Path="/5CB37600/5D89579B" Ref="R87"  Part="1" 
F 0 "R87" V 20300 5175 50  0000 C CNN
F 1 "10k" V 20300 5525 50  0000 C CNN
F 2 "Resistor_SMD:R_0603_1608Metric_Pad1.05x0.95mm_HandSolder" H 20225 5375 50  0001 C CNN
F 3 "~" H 20225 5375 50  0001 C CNN
	1    20225 5375
	0    1    -1   0   
$EndComp
Wire Wire Line
	20325 5975 20950 5975
Wire Wire Line
	20325 4300 20975 4300
Wire Wire Line
	20325 4850 20925 4850
Wire Wire Line
	20325 5375 20950 5375
Wire Wire Line
	18625 5975 18750 5975
Wire Wire Line
	19125 6225 19125 5975
Connection ~ 19125 5975
Wire Wire Line
	19125 5975 20125 5975
Wire Wire Line
	18225 4300 18125 4300
Wire Wire Line
	17800 5975 18100 5975
Wire Wire Line
	18225 5375 18125 5375
Wire Wire Line
	18225 4850 18125 4850
Wire Wire Line
	17800 4150 17800 4300
Connection ~ 17800 4300
Text Label 9375 6500 0    50   ~ 0
FSW_A
Text Label 9625 7500 2    50   ~ 0
FSW_B
Text Label 9625 7700 2    50   ~ 0
FSW_C
Text Label 9625 7800 2    50   ~ 0
FSW_D
Wire Wire Line
	9375 7500 9725 7500
Wire Wire Line
	9725 6500 9375 6500
Wire Wire Line
	9375 7800 9725 7800
Wire Wire Line
	9375 7700 9725 7700
Wire Wire Line
	13425 6800 13775 6800
Text Label 13525 6800 0    50   ~ 0
FGPIO4
Text Label 13525 7600 0    50   ~ 0
FGPIO7
Wire Wire Line
	13425 7600 13775 7600
Text Label 13525 7100 0    50   ~ 0
FGPIO5
Wire Wire Line
	13425 7100 13775 7100
Text Label 13525 7500 0    50   ~ 0
FGPIO6
Wire Wire Line
	13425 7500 13775 7500
Wire Wire Line
	13425 7700 13775 7700
Text Label 13525 7700 0    50   ~ 0
FGPIO8
Text Label 13525 7800 0    50   ~ 0
FGPIO9
Wire Wire Line
	13425 7800 13775 7800
Text Label 9625 9100 2    50   ~ 0
FGPIO12
Wire Wire Line
	9725 9100 9375 9100
Text Label 9625 9200 2    50   ~ 0
FGPIO13
Wire Wire Line
	9725 9200 9375 9200
Text Label 9625 9700 2    50   ~ 0
FGPIO14
Wire Wire Line
	9725 9700 9375 9700
Text Label 9625 9800 2    50   ~ 0
FGPIO15
Wire Wire Line
	9725 9800 9375 9800
Text Label 9625 10000 2    50   ~ 0
FGPIO16
Wire Wire Line
	9725 10000 9375 10000
Text Label 9625 10100 2    50   ~ 0
FGPIO17
Wire Wire Line
	9725 10100 9375 10100
Text Label 9625 10200 2    50   ~ 0
FGPIO18
Wire Wire Line
	9725 10200 9375 10200
Text Label 9625 10300 2    50   ~ 0
FGPIO19
Wire Wire Line
	9725 10300 9375 10300
Text Label 9625 10400 2    50   ~ 0
FGPIO20
Wire Wire Line
	9725 10400 9375 10400
Text Label 9625 10500 2    50   ~ 0
FGPIO21
Wire Wire Line
	9725 10500 9375 10500
Text Label 9625 10600 2    50   ~ 0
FGPIO22
Wire Wire Line
	9725 10600 9375 10600
Text Label 9625 10700 2    50   ~ 0
FGPIO23
Wire Wire Line
	9725 10700 9375 10700
Text Label 9625 5700 2    50   ~ 0
FGPIO24
Wire Wire Line
	9725 5700 9375 5700
Text Label 9625 5800 2    50   ~ 0
FGPIO25
Wire Wire Line
	9725 5800 9375 5800
Text Label 9625 5900 2    50   ~ 0
FGPIO26
Wire Wire Line
	9725 5900 9375 5900
Text Label 9625 6000 2    50   ~ 0
FGPIO27
Wire Wire Line
	9725 6000 9375 6000
Text Label 9625 6100 2    50   ~ 0
FGPIO28
Wire Wire Line
	9725 6100 9375 6100
Text Label 9625 6200 2    50   ~ 0
FGPIO29
Wire Wire Line
	9725 6200 9375 6200
Text Label 9625 6300 2    50   ~ 0
FGPIO30
Wire Wire Line
	9725 6300 9375 6300
Text Label 9625 8400 2    50   ~ 0
FGPIO31
Wire Wire Line
	9725 8400 9375 8400
Text Label 18600 7700 2    50   ~ 0
FGPIO0
Text Label 18600 7800 2    50   ~ 0
FGPIO1
Text Label 18600 7900 2    50   ~ 0
FGPIO2
Text Label 18600 8000 2    50   ~ 0
FGPIO3
Text Label 20500 8000 0    50   ~ 0
FGPIO7
Text Label 20500 7700 0    50   ~ 0
FGPIO4
Text Label 20500 7900 0    50   ~ 0
FGPIO6
Text Label 20500 7800 0    50   ~ 0
FGPIO5
$Comp
L Device:R_Small R?
U 1 1 5E496ACA
P 18975 7700
AR Path="/5CB3762C/5E496ACA" Ref="R?"  Part="1" 
AR Path="/5CB544F7/5E496ACA" Ref="R?"  Part="1" 
AR Path="/5CB37600/5E496ACA" Ref="R49"  Part="1" 
F 0 "R49" V 19025 7500 50  0000 C CNN
F 1 "200" V 19025 7875 50  0000 C CNN
F 2 "Resistor_SMD:R_0603_1608Metric_Pad1.05x0.95mm_HandSolder" H 18975 7700 50  0001 C CNN
F 3 "~" H 18975 7700 50  0001 C CNN
	1    18975 7700
	0    1    -1   0   
$EndComp
$Comp
L Device:R_Small R?
U 1 1 5E496F45
P 18975 7800
AR Path="/5CB3762C/5E496F45" Ref="R?"  Part="1" 
AR Path="/5CB544F7/5E496F45" Ref="R?"  Part="1" 
AR Path="/5CB37600/5E496F45" Ref="R50"  Part="1" 
F 0 "R50" V 19025 7600 50  0000 C CNN
F 1 "200" V 19025 7975 50  0000 C CNN
F 2 "Resistor_SMD:R_0603_1608Metric_Pad1.05x0.95mm_HandSolder" H 18975 7800 50  0001 C CNN
F 3 "~" H 18975 7800 50  0001 C CNN
	1    18975 7800
	0    1    -1   0   
$EndComp
$Comp
L Device:R_Small R?
U 1 1 5E496FD3
P 18975 7900
AR Path="/5CB3762C/5E496FD3" Ref="R?"  Part="1" 
AR Path="/5CB544F7/5E496FD3" Ref="R?"  Part="1" 
AR Path="/5CB37600/5E496FD3" Ref="R51"  Part="1" 
F 0 "R51" V 19025 7700 50  0000 C CNN
F 1 "200" V 19025 8075 50  0000 C CNN
F 2 "Resistor_SMD:R_0603_1608Metric_Pad1.05x0.95mm_HandSolder" H 18975 7900 50  0001 C CNN
F 3 "~" H 18975 7900 50  0001 C CNN
	1    18975 7900
	0    1    -1   0   
$EndComp
$Comp
L Device:R_Small R?
U 1 1 5E497063
P 18975 8000
AR Path="/5CB3762C/5E497063" Ref="R?"  Part="1" 
AR Path="/5CB544F7/5E497063" Ref="R?"  Part="1" 
AR Path="/5CB37600/5E497063" Ref="R52"  Part="1" 
F 0 "R52" V 19025 7800 50  0000 C CNN
F 1 "200" V 19025 8175 50  0000 C CNN
F 2 "Resistor_SMD:R_0603_1608Metric_Pad1.05x0.95mm_HandSolder" H 18975 8000 50  0001 C CNN
F 3 "~" H 18975 8000 50  0001 C CNN
	1    18975 8000
	0    1    -1   0   
$EndComp
$Comp
L Device:R_Small R?
U 1 1 5E4971C3
P 20075 8000
AR Path="/5CB3762C/5E4971C3" Ref="R?"  Part="1" 
AR Path="/5CB544F7/5E4971C3" Ref="R?"  Part="1" 
AR Path="/5CB37600/5E4971C3" Ref="R69"  Part="1" 
F 0 "R69" V 20125 7800 50  0000 C CNN
F 1 "200" V 20125 8175 50  0000 C CNN
F 2 "Resistor_SMD:R_0603_1608Metric_Pad1.05x0.95mm_HandSolder" H 20075 8000 50  0001 C CNN
F 3 "~" H 20075 8000 50  0001 C CNN
	1    20075 8000
	0    1    -1   0   
$EndComp
$Comp
L Device:R_Small R?
U 1 1 5E497ED7
P 20075 7900
AR Path="/5CB3762C/5E497ED7" Ref="R?"  Part="1" 
AR Path="/5CB544F7/5E497ED7" Ref="R?"  Part="1" 
AR Path="/5CB37600/5E497ED7" Ref="R70"  Part="1" 
F 0 "R70" V 20125 7700 50  0000 C CNN
F 1 "200" V 20125 8075 50  0000 C CNN
F 2 "Resistor_SMD:R_0603_1608Metric_Pad1.05x0.95mm_HandSolder" H 20075 7900 50  0001 C CNN
F 3 "~" H 20075 7900 50  0001 C CNN
	1    20075 7900
	0    1    -1   0   
$EndComp
$Comp
L Device:R_Small R?
U 1 1 5E497F71
P 20075 7800
AR Path="/5CB3762C/5E497F71" Ref="R?"  Part="1" 
AR Path="/5CB544F7/5E497F71" Ref="R?"  Part="1" 
AR Path="/5CB37600/5E497F71" Ref="R71"  Part="1" 
F 0 "R71" V 20125 7600 50  0000 C CNN
F 1 "200" V 20125 7975 50  0000 C CNN
F 2 "Resistor_SMD:R_0603_1608Metric_Pad1.05x0.95mm_HandSolder" H 20075 7800 50  0001 C CNN
F 3 "~" H 20075 7800 50  0001 C CNN
	1    20075 7800
	0    1    -1   0   
$EndComp
$Comp
L Device:R_Small R?
U 1 1 5E498011
P 20075 7700
AR Path="/5CB3762C/5E498011" Ref="R?"  Part="1" 
AR Path="/5CB544F7/5E498011" Ref="R?"  Part="1" 
AR Path="/5CB37600/5E498011" Ref="R72"  Part="1" 
F 0 "R72" V 20125 7500 50  0000 C CNN
F 1 "200" V 20125 7875 50  0000 C CNN
F 2 "Resistor_SMD:R_0603_1608Metric_Pad1.05x0.95mm_HandSolder" H 20075 7700 50  0001 C CNN
F 3 "~" H 20075 7700 50  0001 C CNN
	1    20075 7700
	0    1    -1   0   
$EndComp
Wire Wire Line
	18350 7700 18875 7700
Wire Wire Line
	18350 7800 18875 7800
Wire Wire Line
	18350 7900 18875 7900
Wire Wire Line
	18350 8000 18875 8000
Wire Wire Line
	19075 7700 19275 7700
Wire Wire Line
	19075 7800 19275 7800
Wire Wire Line
	19075 7900 19275 7900
Wire Wire Line
	19075 8000 19275 8000
Wire Wire Line
	19775 8000 19975 8000
Wire Wire Line
	20175 8000 20750 8000
Wire Wire Line
	19775 7900 19975 7900
Wire Wire Line
	20175 7900 20750 7900
Wire Wire Line
	19775 7800 19975 7800
Wire Wire Line
	20175 7800 20750 7800
Wire Wire Line
	19775 7700 19975 7700
Wire Wire Line
	20175 7700 20750 7700
$Comp
L Connector_Generic:Conn_02x06_Counter_Clockwise J?
U 1 1 5EBB6918
P 19500 9025
AR Path="/5CB544F7/5EBB6918" Ref="J?"  Part="1" 
AR Path="/5CB37600/5EBB6918" Ref="J16"  Part="1" 
F 0 "J16" H 19550 9325 50  0000 C CNN
F 1 "Conn_02x06" H 19500 8600 50  0000 C CNN
F 2 "pmods:Pmod_2x06_P2.54mm_fixed" H 19500 9025 50  0001 C CNN
F 3 "~" H 19500 9025 50  0001 C CNN
	1    19500 9025
	1    0    0    -1  
$EndComp
$Comp
L power:GND #PWR?
U 1 1 5EBB691E
P 18950 9225
AR Path="/5CB544F7/5EBB691E" Ref="#PWR?"  Part="1" 
AR Path="/5CB37600/5EBB691E" Ref="#PWR0123"  Part="1" 
F 0 "#PWR0123" H 18950 8975 50  0001 C CNN
F 1 "GND" V 18955 9097 50  0000 R CNN
F 2 "" H 18950 9225 50  0001 C CNN
F 3 "" H 18950 9225 50  0001 C CNN
	1    18950 9225
	0    1    -1   0   
$EndComp
Wire Wire Line
	18950 9225 19300 9225
Wire Wire Line
	18950 9325 19300 9325
$Comp
L power:+3.3V #PWR?
U 1 1 5EBB6926
P 18950 9325
AR Path="/5CB544F7/5EBB6926" Ref="#PWR?"  Part="1" 
AR Path="/5CB37600/5EBB6926" Ref="#PWR0124"  Part="1" 
F 0 "#PWR0124" H 18950 9175 50  0001 C CNN
F 1 "+3.3V" V 18950 9550 50  0000 C CNN
F 2 "" H 18950 9325 50  0001 C CNN
F 3 "" H 18950 9325 50  0001 C CNN
	1    18950 9325
	0    -1   -1   0   
$EndComp
$Comp
L power:+3.3V #PWR?
U 1 1 5EBB692C
P 20150 9325
AR Path="/5CB544F7/5EBB692C" Ref="#PWR?"  Part="1" 
AR Path="/5CB37600/5EBB692C" Ref="#PWR0133"  Part="1" 
F 0 "#PWR0133" H 20150 9175 50  0001 C CNN
F 1 "+3.3V" V 20150 9550 50  0000 C CNN
F 2 "" H 20150 9325 50  0001 C CNN
F 3 "" H 20150 9325 50  0001 C CNN
	1    20150 9325
	0    1    1    0   
$EndComp
$Comp
L power:GND #PWR?
U 1 1 5EBB6932
P 20150 9225
AR Path="/5CB544F7/5EBB6932" Ref="#PWR?"  Part="1" 
AR Path="/5CB37600/5EBB6932" Ref="#PWR0132"  Part="1" 
F 0 "#PWR0132" H 20150 8975 50  0001 C CNN
F 1 "GND" V 20155 9097 50  0000 R CNN
F 2 "" H 20150 9225 50  0001 C CNN
F 3 "" H 20150 9225 50  0001 C CNN
	1    20150 9225
	0    -1   1    0   
$EndComp
Wire Wire Line
	19800 9225 20150 9225
Wire Wire Line
	19800 9325 20150 9325
Text Label 18625 8825 2    50   ~ 0
FGPIO8
Text Label 18625 8925 2    50   ~ 0
FGPIO9
Text Label 18625 9025 2    50   ~ 0
FGPIO10
Text Label 18625 9125 2    50   ~ 0
FGPIO11
Text Label 18600 9850 2    50   ~ 0
FGPIO15
Text Label 20525 9025 0    50   ~ 0
FGPIO12
Text Label 20525 8925 0    50   ~ 0
FGPIO14
Text Label 20525 9125 0    50   ~ 0
FGPIO13
$Comp
L Device:R_Small R?
U 1 1 5EBB6942
P 19000 8825
AR Path="/5CB3762C/5EBB6942" Ref="R?"  Part="1" 
AR Path="/5CB544F7/5EBB6942" Ref="R?"  Part="1" 
AR Path="/5CB37600/5EBB6942" Ref="R61"  Part="1" 
F 0 "R61" V 19050 8625 50  0000 C CNN
F 1 "200" V 19050 9000 50  0000 C CNN
F 2 "Resistor_SMD:R_0603_1608Metric_Pad1.05x0.95mm_HandSolder" H 19000 8825 50  0001 C CNN
F 3 "~" H 19000 8825 50  0001 C CNN
	1    19000 8825
	0    1    -1   0   
$EndComp
$Comp
L Device:R_Small R?
U 1 1 5EBB6948
P 19000 8925
AR Path="/5CB3762C/5EBB6948" Ref="R?"  Part="1" 
AR Path="/5CB544F7/5EBB6948" Ref="R?"  Part="1" 
AR Path="/5CB37600/5EBB6948" Ref="R62"  Part="1" 
F 0 "R62" V 19050 8725 50  0000 C CNN
F 1 "200" V 19050 9100 50  0000 C CNN
F 2 "Resistor_SMD:R_0603_1608Metric_Pad1.05x0.95mm_HandSolder" H 19000 8925 50  0001 C CNN
F 3 "~" H 19000 8925 50  0001 C CNN
	1    19000 8925
	0    1    -1   0   
$EndComp
$Comp
L Device:R_Small R?
U 1 1 5EBB694E
P 19000 9025
AR Path="/5CB3762C/5EBB694E" Ref="R?"  Part="1" 
AR Path="/5CB544F7/5EBB694E" Ref="R?"  Part="1" 
AR Path="/5CB37600/5EBB694E" Ref="R63"  Part="1" 
F 0 "R63" V 19050 8825 50  0000 C CNN
F 1 "200" V 19050 9200 50  0000 C CNN
F 2 "Resistor_SMD:R_0603_1608Metric_Pad1.05x0.95mm_HandSolder" H 19000 9025 50  0001 C CNN
F 3 "~" H 19000 9025 50  0001 C CNN
	1    19000 9025
	0    1    -1   0   
$EndComp
$Comp
L Device:R_Small R?
U 1 1 5EBB6954
P 19000 9125
AR Path="/5CB3762C/5EBB6954" Ref="R?"  Part="1" 
AR Path="/5CB544F7/5EBB6954" Ref="R?"  Part="1" 
AR Path="/5CB37600/5EBB6954" Ref="R64"  Part="1" 
F 0 "R64" V 19050 8925 50  0000 C CNN
F 1 "200" V 19050 9300 50  0000 C CNN
F 2 "Resistor_SMD:R_0603_1608Metric_Pad1.05x0.95mm_HandSolder" H 19000 9125 50  0001 C CNN
F 3 "~" H 19000 9125 50  0001 C CNN
	1    19000 9125
	0    1    -1   0   
$EndComp
$Comp
L Device:R_Small R?
U 1 1 5EBB695A
P 20100 9125
AR Path="/5CB3762C/5EBB695A" Ref="R?"  Part="1" 
AR Path="/5CB544F7/5EBB695A" Ref="R?"  Part="1" 
AR Path="/5CB37600/5EBB695A" Ref="R81"  Part="1" 
F 0 "R81" V 20150 8925 50  0000 C CNN
F 1 "200" V 20150 9300 50  0000 C CNN
F 2 "Resistor_SMD:R_0603_1608Metric_Pad1.05x0.95mm_HandSolder" H 20100 9125 50  0001 C CNN
F 3 "~" H 20100 9125 50  0001 C CNN
	1    20100 9125
	0    1    -1   0   
$EndComp
$Comp
L Device:R_Small R?
U 1 1 5EBB6960
P 20100 9025
AR Path="/5CB3762C/5EBB6960" Ref="R?"  Part="1" 
AR Path="/5CB544F7/5EBB6960" Ref="R?"  Part="1" 
AR Path="/5CB37600/5EBB6960" Ref="R82"  Part="1" 
F 0 "R82" V 20150 8825 50  0000 C CNN
F 1 "200" V 20150 9200 50  0000 C CNN
F 2 "Resistor_SMD:R_0603_1608Metric_Pad1.05x0.95mm_HandSolder" H 20100 9025 50  0001 C CNN
F 3 "~" H 20100 9025 50  0001 C CNN
	1    20100 9025
	0    1    -1   0   
$EndComp
$Comp
L Device:R_Small R?
U 1 1 5EBB6966
P 20100 8925
AR Path="/5CB3762C/5EBB6966" Ref="R?"  Part="1" 
AR Path="/5CB544F7/5EBB6966" Ref="R?"  Part="1" 
AR Path="/5CB37600/5EBB6966" Ref="R83"  Part="1" 
F 0 "R83" V 20150 8725 50  0000 C CNN
F 1 "200" V 20150 9100 50  0000 C CNN
F 2 "Resistor_SMD:R_0603_1608Metric_Pad1.05x0.95mm_HandSolder" H 20100 8925 50  0001 C CNN
F 3 "~" H 20100 8925 50  0001 C CNN
	1    20100 8925
	0    1    -1   0   
$EndComp
$Comp
L Device:R_Small R?
U 1 1 5EBB696C
P 18975 9850
AR Path="/5CB3762C/5EBB696C" Ref="R?"  Part="1" 
AR Path="/5CB544F7/5EBB696C" Ref="R?"  Part="1" 
AR Path="/5CB37600/5EBB696C" Ref="R84"  Part="1" 
F 0 "R84" V 19025 10050 50  0000 C CNN
F 1 "200" V 19025 9700 50  0000 C CNN
F 2 "Resistor_SMD:R_0603_1608Metric_Pad1.05x0.95mm_HandSolder" H 18975 9850 50  0001 C CNN
F 3 "~" H 18975 9850 50  0001 C CNN
	1    18975 9850
	0    -1   -1   0   
$EndComp
Wire Wire Line
	18375 8825 18900 8825
Wire Wire Line
	18375 8925 18900 8925
Wire Wire Line
	18375 9025 18900 9025
Wire Wire Line
	18375 9125 18900 9125
Wire Wire Line
	19100 8825 19300 8825
Wire Wire Line
	19100 8925 19300 8925
Wire Wire Line
	19100 9025 19300 9025
Wire Wire Line
	19100 9125 19300 9125
Wire Wire Line
	19800 9125 20000 9125
Wire Wire Line
	18875 9850 18300 9850
Wire Wire Line
	19800 9025 20000 9025
Wire Wire Line
	20200 8925 20775 8925
Wire Wire Line
	19800 8925 20000 8925
Wire Wire Line
	20200 9025 20775 9025
Wire Wire Line
	19275 9850 19075 9850
Wire Wire Line
	20200 9125 20775 9125
$Comp
L Connector_Generic:Conn_02x06_Counter_Clockwise J?
U 1 1 5EBF056B
P 19475 10050
AR Path="/5CB544F7/5EBF056B" Ref="J?"  Part="1" 
AR Path="/5CB37600/5EBF056B" Ref="J14"  Part="1" 
F 0 "J14" H 19525 10350 50  0000 C CNN
F 1 "Conn_02x06" H 19475 9625 50  0000 C CNN
F 2 "pmods:Pmod_2x06_P2.54mm_fixed" H 19475 10050 50  0001 C CNN
F 3 "~" H 19475 10050 50  0001 C CNN
	1    19475 10050
	1    0    0    -1  
$EndComp
$Comp
L power:GND #PWR?
U 1 1 5EBF0571
P 18925 10250
AR Path="/5CB544F7/5EBF0571" Ref="#PWR?"  Part="1" 
AR Path="/5CB37600/5EBF0571" Ref="#PWR0119"  Part="1" 
F 0 "#PWR0119" H 18925 10000 50  0001 C CNN
F 1 "GND" V 18930 10122 50  0000 R CNN
F 2 "" H 18925 10250 50  0001 C CNN
F 3 "" H 18925 10250 50  0001 C CNN
	1    18925 10250
	0    1    -1   0   
$EndComp
Wire Wire Line
	18925 10250 19275 10250
Wire Wire Line
	18925 10350 19275 10350
$Comp
L power:+3.3V #PWR?
U 1 1 5EBF0579
P 18925 10350
AR Path="/5CB544F7/5EBF0579" Ref="#PWR?"  Part="1" 
AR Path="/5CB37600/5EBF0579" Ref="#PWR0120"  Part="1" 
F 0 "#PWR0120" H 18925 10200 50  0001 C CNN
F 1 "+3.3V" V 18925 10575 50  0000 C CNN
F 2 "" H 18925 10350 50  0001 C CNN
F 3 "" H 18925 10350 50  0001 C CNN
	1    18925 10350
	0    -1   -1   0   
$EndComp
$Comp
L power:+3.3V #PWR?
U 1 1 5EBF057F
P 20125 10350
AR Path="/5CB544F7/5EBF057F" Ref="#PWR?"  Part="1" 
AR Path="/5CB37600/5EBF057F" Ref="#PWR0129"  Part="1" 
F 0 "#PWR0129" H 20125 10200 50  0001 C CNN
F 1 "+3.3V" V 20125 10575 50  0000 C CNN
F 2 "" H 20125 10350 50  0001 C CNN
F 3 "" H 20125 10350 50  0001 C CNN
	1    20125 10350
	0    1    1    0   
$EndComp
$Comp
L power:GND #PWR?
U 1 1 5EBF0585
P 20125 10250
AR Path="/5CB544F7/5EBF0585" Ref="#PWR?"  Part="1" 
AR Path="/5CB37600/5EBF0585" Ref="#PWR0128"  Part="1" 
F 0 "#PWR0128" H 20125 10000 50  0001 C CNN
F 1 "GND" V 20130 10122 50  0000 R CNN
F 2 "" H 20125 10250 50  0001 C CNN
F 3 "" H 20125 10250 50  0001 C CNN
	1    20125 10250
	0    -1   1    0   
$EndComp
Wire Wire Line
	19775 10250 20125 10250
Wire Wire Line
	19775 10350 20125 10350
Text Label 18600 9950 2    50   ~ 0
FGPIO16
Text Label 18600 10050 2    50   ~ 0
FGPIO17
Text Label 18600 10150 2    50   ~ 0
FGPIO18
Text Label 20500 9850 0    50   ~ 0
FGPIO19
Text Label 18600 10925 2    50   ~ 0
FGPIO23
Text Label 20500 9950 0    50   ~ 0
FGPIO20
Text Label 20500 10150 0    50   ~ 0
FGPIO22
Text Label 20500 10050 0    50   ~ 0
FGPIO21
$Comp
L Device:R_Small R?
U 1 1 5EBF0595
P 18975 9950
AR Path="/5CB3762C/5EBF0595" Ref="R?"  Part="1" 
AR Path="/5CB544F7/5EBF0595" Ref="R?"  Part="1" 
AR Path="/5CB37600/5EBF0595" Ref="R53"  Part="1" 
F 0 "R53" V 19025 9750 50  0000 C CNN
F 1 "200" V 19025 10125 50  0000 C CNN
F 2 "Resistor_SMD:R_0603_1608Metric_Pad1.05x0.95mm_HandSolder" H 18975 9950 50  0001 C CNN
F 3 "~" H 18975 9950 50  0001 C CNN
	1    18975 9950
	0    1    -1   0   
$EndComp
$Comp
L Device:R_Small R?
U 1 1 5EBF059B
P 18975 10050
AR Path="/5CB3762C/5EBF059B" Ref="R?"  Part="1" 
AR Path="/5CB544F7/5EBF059B" Ref="R?"  Part="1" 
AR Path="/5CB37600/5EBF059B" Ref="R54"  Part="1" 
F 0 "R54" V 19025 9850 50  0000 C CNN
F 1 "200" V 19025 10225 50  0000 C CNN
F 2 "Resistor_SMD:R_0603_1608Metric_Pad1.05x0.95mm_HandSolder" H 18975 10050 50  0001 C CNN
F 3 "~" H 18975 10050 50  0001 C CNN
	1    18975 10050
	0    1    -1   0   
$EndComp
$Comp
L Device:R_Small R?
U 1 1 5EBF05A1
P 18975 10150
AR Path="/5CB3762C/5EBF05A1" Ref="R?"  Part="1" 
AR Path="/5CB544F7/5EBF05A1" Ref="R?"  Part="1" 
AR Path="/5CB37600/5EBF05A1" Ref="R55"  Part="1" 
F 0 "R55" V 19025 9950 50  0000 C CNN
F 1 "200" V 19025 10325 50  0000 C CNN
F 2 "Resistor_SMD:R_0603_1608Metric_Pad1.05x0.95mm_HandSolder" H 18975 10150 50  0001 C CNN
F 3 "~" H 18975 10150 50  0001 C CNN
	1    18975 10150
	0    1    -1   0   
$EndComp
$Comp
L Device:R_Small R?
U 1 1 5EBF05A7
P 20075 9850
AR Path="/5CB3762C/5EBF05A7" Ref="R?"  Part="1" 
AR Path="/5CB544F7/5EBF05A7" Ref="R?"  Part="1" 
AR Path="/5CB37600/5EBF05A7" Ref="R56"  Part="1" 
F 0 "R56" V 20125 10050 50  0000 C CNN
F 1 "200" V 20125 9675 50  0000 C CNN
F 2 "Resistor_SMD:R_0603_1608Metric_Pad1.05x0.95mm_HandSolder" H 20075 9850 50  0001 C CNN
F 3 "~" H 20075 9850 50  0001 C CNN
	1    20075 9850
	0    -1   -1   0   
$EndComp
$Comp
L Device:R_Small R?
U 1 1 5EBF05AD
P 18975 10925
AR Path="/5CB3762C/5EBF05AD" Ref="R?"  Part="1" 
AR Path="/5CB544F7/5EBF05AD" Ref="R?"  Part="1" 
AR Path="/5CB37600/5EBF05AD" Ref="R73"  Part="1" 
F 0 "R73" V 19025 11100 50  0000 C CNN
F 1 "200" V 19025 10750 50  0000 C CNN
F 2 "Resistor_SMD:R_0603_1608Metric_Pad1.05x0.95mm_HandSolder" H 18975 10925 50  0001 C CNN
F 3 "~" H 18975 10925 50  0001 C CNN
	1    18975 10925
	0    -1   -1   0   
$EndComp
$Comp
L Device:R_Small R?
U 1 1 5EBF05B3
P 20075 10150
AR Path="/5CB3762C/5EBF05B3" Ref="R?"  Part="1" 
AR Path="/5CB544F7/5EBF05B3" Ref="R?"  Part="1" 
AR Path="/5CB37600/5EBF05B3" Ref="R74"  Part="1" 
F 0 "R74" V 20125 9950 50  0000 C CNN
F 1 "200" V 20125 10325 50  0000 C CNN
F 2 "Resistor_SMD:R_0603_1608Metric_Pad1.05x0.95mm_HandSolder" H 20075 10150 50  0001 C CNN
F 3 "~" H 20075 10150 50  0001 C CNN
	1    20075 10150
	0    1    -1   0   
$EndComp
$Comp
L Device:R_Small R?
U 1 1 5EBF05B9
P 20075 10050
AR Path="/5CB3762C/5EBF05B9" Ref="R?"  Part="1" 
AR Path="/5CB544F7/5EBF05B9" Ref="R?"  Part="1" 
AR Path="/5CB37600/5EBF05B9" Ref="R75"  Part="1" 
F 0 "R75" V 20125 9850 50  0000 C CNN
F 1 "200" V 20125 10225 50  0000 C CNN
F 2 "Resistor_SMD:R_0603_1608Metric_Pad1.05x0.95mm_HandSolder" H 20075 10050 50  0001 C CNN
F 3 "~" H 20075 10050 50  0001 C CNN
	1    20075 10050
	0    1    -1   0   
$EndComp
$Comp
L Device:R_Small R?
U 1 1 5EBF05BF
P 20075 9950
AR Path="/5CB3762C/5EBF05BF" Ref="R?"  Part="1" 
AR Path="/5CB544F7/5EBF05BF" Ref="R?"  Part="1" 
AR Path="/5CB37600/5EBF05BF" Ref="R76"  Part="1" 
F 0 "R76" V 20125 9750 50  0000 C CNN
F 1 "200" V 20125 10125 50  0000 C CNN
F 2 "Resistor_SMD:R_0603_1608Metric_Pad1.05x0.95mm_HandSolder" H 20075 9950 50  0001 C CNN
F 3 "~" H 20075 9950 50  0001 C CNN
	1    20075 9950
	0    1    -1   0   
$EndComp
Wire Wire Line
	18350 9950 18875 9950
Wire Wire Line
	18350 10050 18875 10050
Wire Wire Line
	18350 10150 18875 10150
Wire Wire Line
	20700 9850 20175 9850
Wire Wire Line
	19075 9950 19275 9950
Wire Wire Line
	19075 10050 19275 10050
Wire Wire Line
	19075 10150 19275 10150
Wire Wire Line
	19975 9850 19775 9850
Wire Wire Line
	19275 10925 19075 10925
Wire Wire Line
	18875 10925 18300 10925
Wire Wire Line
	19775 10150 19975 10150
Wire Wire Line
	20175 10150 20750 10150
Wire Wire Line
	19775 10050 19975 10050
Wire Wire Line
	20175 10050 20750 10050
Wire Wire Line
	19775 9950 19975 9950
Wire Wire Line
	20175 9950 20750 9950
$Comp
L Connector_Generic:Conn_02x06_Counter_Clockwise J?
U 1 1 5EBF05D5
P 19475 11125
AR Path="/5CB544F7/5EBF05D5" Ref="J?"  Part="1" 
AR Path="/5CB37600/5EBF05D5" Ref="J15"  Part="1" 
F 0 "J15" H 19525 11425 50  0000 C CNN
F 1 "Conn_02x06" H 19475 10700 50  0000 C CNN
F 2 "pmods:Pmod_2x06_P2.54mm_fixed" H 19475 11125 50  0001 C CNN
F 3 "~" H 19475 11125 50  0001 C CNN
	1    19475 11125
	1    0    0    -1  
$EndComp
$Comp
L power:GND #PWR?
U 1 1 5EBF05DB
P 18925 11325
AR Path="/5CB544F7/5EBF05DB" Ref="#PWR?"  Part="1" 
AR Path="/5CB37600/5EBF05DB" Ref="#PWR0121"  Part="1" 
F 0 "#PWR0121" H 18925 11075 50  0001 C CNN
F 1 "GND" V 18930 11197 50  0000 R CNN
F 2 "" H 18925 11325 50  0001 C CNN
F 3 "" H 18925 11325 50  0001 C CNN
	1    18925 11325
	0    1    -1   0   
$EndComp
Wire Wire Line
	18925 11325 19275 11325
Wire Wire Line
	18925 11425 19275 11425
$Comp
L power:+3.3V #PWR?
U 1 1 5EBF05E3
P 18925 11425
AR Path="/5CB544F7/5EBF05E3" Ref="#PWR?"  Part="1" 
AR Path="/5CB37600/5EBF05E3" Ref="#PWR0122"  Part="1" 
F 0 "#PWR0122" H 18925 11275 50  0001 C CNN
F 1 "+3.3V" V 18925 11650 50  0000 C CNN
F 2 "" H 18925 11425 50  0001 C CNN
F 3 "" H 18925 11425 50  0001 C CNN
	1    18925 11425
	0    -1   -1   0   
$EndComp
$Comp
L power:+3.3V #PWR?
U 1 1 5EBF05E9
P 20125 11425
AR Path="/5CB544F7/5EBF05E9" Ref="#PWR?"  Part="1" 
AR Path="/5CB37600/5EBF05E9" Ref="#PWR0131"  Part="1" 
F 0 "#PWR0131" H 20125 11275 50  0001 C CNN
F 1 "+3.3V" V 20125 11650 50  0000 C CNN
F 2 "" H 20125 11425 50  0001 C CNN
F 3 "" H 20125 11425 50  0001 C CNN
	1    20125 11425
	0    1    1    0   
$EndComp
$Comp
L power:GND #PWR?
U 1 1 5EBF05EF
P 20125 11325
AR Path="/5CB544F7/5EBF05EF" Ref="#PWR?"  Part="1" 
AR Path="/5CB37600/5EBF05EF" Ref="#PWR0130"  Part="1" 
F 0 "#PWR0130" H 20125 11075 50  0001 C CNN
F 1 "GND" V 20130 11197 50  0000 R CNN
F 2 "" H 20125 11325 50  0001 C CNN
F 3 "" H 20125 11325 50  0001 C CNN
	1    20125 11325
	0    -1   1    0   
$EndComp
Wire Wire Line
	19775 11325 20125 11325
Wire Wire Line
	19775 11425 20125 11425
Text Label 18600 11025 2    50   ~ 0
FGPIO24
Text Label 18600 11125 2    50   ~ 0
FGPIO25
Text Label 18600 11225 2    50   ~ 0
FGPIO26
Text Label 20500 10925 0    50   ~ 0
FGPIO27
Text Label 20525 8825 0    50   ~ 0
FGPIO31
Text Label 20500 11025 0    50   ~ 0
FGPIO28
Text Label 20500 11225 0    50   ~ 0
FGPIO30
Text Label 20500 11125 0    50   ~ 0
FGPIO29
$Comp
L Device:R_Small R?
U 1 1 5EBF05FF
P 18975 11025
AR Path="/5CB3762C/5EBF05FF" Ref="R?"  Part="1" 
AR Path="/5CB544F7/5EBF05FF" Ref="R?"  Part="1" 
AR Path="/5CB37600/5EBF05FF" Ref="R57"  Part="1" 
F 0 "R57" V 19025 10825 50  0000 C CNN
F 1 "200" V 19025 11200 50  0000 C CNN
F 2 "Resistor_SMD:R_0603_1608Metric_Pad1.05x0.95mm_HandSolder" H 18975 11025 50  0001 C CNN
F 3 "~" H 18975 11025 50  0001 C CNN
	1    18975 11025
	0    1    -1   0   
$EndComp
$Comp
L Device:R_Small R?
U 1 1 5EBF0605
P 18975 11125
AR Path="/5CB3762C/5EBF0605" Ref="R?"  Part="1" 
AR Path="/5CB544F7/5EBF0605" Ref="R?"  Part="1" 
AR Path="/5CB37600/5EBF0605" Ref="R58"  Part="1" 
F 0 "R58" V 19025 10925 50  0000 C CNN
F 1 "200" V 19025 11300 50  0000 C CNN
F 2 "Resistor_SMD:R_0603_1608Metric_Pad1.05x0.95mm_HandSolder" H 18975 11125 50  0001 C CNN
F 3 "~" H 18975 11125 50  0001 C CNN
	1    18975 11125
	0    1    -1   0   
$EndComp
$Comp
L Device:R_Small R?
U 1 1 5EBF060B
P 18975 11225
AR Path="/5CB3762C/5EBF060B" Ref="R?"  Part="1" 
AR Path="/5CB544F7/5EBF060B" Ref="R?"  Part="1" 
AR Path="/5CB37600/5EBF060B" Ref="R59"  Part="1" 
F 0 "R59" V 19025 11025 50  0000 C CNN
F 1 "200" V 19025 11400 50  0000 C CNN
F 2 "Resistor_SMD:R_0603_1608Metric_Pad1.05x0.95mm_HandSolder" H 18975 11225 50  0001 C CNN
F 3 "~" H 18975 11225 50  0001 C CNN
	1    18975 11225
	0    1    -1   0   
$EndComp
$Comp
L Device:R_Small R?
U 1 1 5EBF0611
P 20075 10925
AR Path="/5CB3762C/5EBF0611" Ref="R?"  Part="1" 
AR Path="/5CB544F7/5EBF0611" Ref="R?"  Part="1" 
AR Path="/5CB37600/5EBF0611" Ref="R60"  Part="1" 
F 0 "R60" V 20125 11125 50  0000 C CNN
F 1 "200" V 20125 10750 50  0000 C CNN
F 2 "Resistor_SMD:R_0603_1608Metric_Pad1.05x0.95mm_HandSolder" H 20075 10925 50  0001 C CNN
F 3 "~" H 20075 10925 50  0001 C CNN
	1    20075 10925
	0    -1   -1   0   
$EndComp
$Comp
L Device:R_Small R?
U 1 1 5EBF0617
P 20100 8825
AR Path="/5CB3762C/5EBF0617" Ref="R?"  Part="1" 
AR Path="/5CB544F7/5EBF0617" Ref="R?"  Part="1" 
AR Path="/5CB37600/5EBF0617" Ref="R77"  Part="1" 
F 0 "R77" V 20150 8625 50  0000 C CNN
F 1 "200" V 20150 9000 50  0000 C CNN
F 2 "Resistor_SMD:R_0603_1608Metric_Pad1.05x0.95mm_HandSolder" H 20100 8825 50  0001 C CNN
F 3 "~" H 20100 8825 50  0001 C CNN
	1    20100 8825
	0    1    -1   0   
$EndComp
$Comp
L Device:R_Small R?
U 1 1 5EBF061D
P 20075 11225
AR Path="/5CB3762C/5EBF061D" Ref="R?"  Part="1" 
AR Path="/5CB544F7/5EBF061D" Ref="R?"  Part="1" 
AR Path="/5CB37600/5EBF061D" Ref="R78"  Part="1" 
F 0 "R78" V 20125 11025 50  0000 C CNN
F 1 "200" V 20125 11400 50  0000 C CNN
F 2 "Resistor_SMD:R_0603_1608Metric_Pad1.05x0.95mm_HandSolder" H 20075 11225 50  0001 C CNN
F 3 "~" H 20075 11225 50  0001 C CNN
	1    20075 11225
	0    1    -1   0   
$EndComp
$Comp
L Device:R_Small R?
U 1 1 5EBF0623
P 20075 11125
AR Path="/5CB3762C/5EBF0623" Ref="R?"  Part="1" 
AR Path="/5CB544F7/5EBF0623" Ref="R?"  Part="1" 
AR Path="/5CB37600/5EBF0623" Ref="R79"  Part="1" 
F 0 "R79" V 20125 10925 50  0000 C CNN
F 1 "200" V 20125 11300 50  0000 C CNN
F 2 "Resistor_SMD:R_0603_1608Metric_Pad1.05x0.95mm_HandSolder" H 20075 11125 50  0001 C CNN
F 3 "~" H 20075 11125 50  0001 C CNN
	1    20075 11125
	0    1    -1   0   
$EndComp
$Comp
L Device:R_Small R?
U 1 1 5EBF0629
P 20075 11025
AR Path="/5CB3762C/5EBF0629" Ref="R?"  Part="1" 
AR Path="/5CB544F7/5EBF0629" Ref="R?"  Part="1" 
AR Path="/5CB37600/5EBF0629" Ref="R80"  Part="1" 
F 0 "R80" V 20125 10825 50  0000 C CNN
F 1 "200" V 20125 11200 50  0000 C CNN
F 2 "Resistor_SMD:R_0603_1608Metric_Pad1.05x0.95mm_HandSolder" H 20075 11025 50  0001 C CNN
F 3 "~" H 20075 11025 50  0001 C CNN
	1    20075 11025
	0    1    -1   0   
$EndComp
Wire Wire Line
	18350 11025 18875 11025
Wire Wire Line
	18350 11125 18875 11125
Wire Wire Line
	18350 11225 18875 11225
Wire Wire Line
	20700 10925 20175 10925
Wire Wire Line
	19075 11025 19275 11025
Wire Wire Line
	19075 11125 19275 11125
Wire Wire Line
	19075 11225 19275 11225
Wire Wire Line
	19975 10925 19775 10925
Wire Wire Line
	19800 8825 20000 8825
Wire Wire Line
	20200 8825 20775 8825
Wire Wire Line
	19775 11225 19975 11225
Wire Wire Line
	20175 11225 20750 11225
Wire Wire Line
	19775 11125 19975 11125
Wire Wire Line
	20175 11125 20750 11125
Wire Wire Line
	19775 11025 19975 11025
Wire Wire Line
	20175 11025 20750 11025
Wire Notes Line
	1350 1750 22100 1750
Wire Notes Line
	22100 1750 22100 13825
Wire Notes Line
	1350 13825 22100 13825
Wire Notes Line
	1350 1750 1350 13825
Wire Notes Line
	6650 1750 6650 13825
Wire Notes Line
	1350 6950 6650 6950
Text Notes 2875 7275 0    118  ~ 24
80 [MHz] Oscilator
Wire Notes Line
	17100 1750 17100 13825
Text Notes 11150 2200 0    118  ~ 24
FPGA
Text Notes 18875 2325 0    118  ~ 24
GPIO Pins\n
$Comp
L Device:LED_Small D?
U 1 1 5CD36611
P 8775 8000
AR Path="/5CB3762C/5CD36611" Ref="D?"  Part="1" 
AR Path="/5CB544F7/5CD36611" Ref="D?"  Part="1" 
AR Path="/5CB37600/5CD36611" Ref="D9"  Part="1" 
F 0 "D9" H 8625 8050 50  0000 C CNN
F 1 "LED_uC" H 8975 7950 50  0001 C CNN
F 2 "LED_SMD:LED_0603_1608Metric_Pad1.05x0.95mm_HandSolder" V 8775 8000 50  0001 C CNN
F 3 "~" V 8775 8000 50  0001 C CNN
	1    8775 8000
	1    0    0    1   
$EndComp
Wire Wire Line
	9725 8000 9200 8000
Wire Wire Line
	9000 8000 8875 8000
$Comp
L Device:R_Small R?
U 1 1 5CD36619
P 9100 8000
AR Path="/5CB3762C/5CD36619" Ref="R?"  Part="1" 
AR Path="/5CB544F7/5CD36619" Ref="R?"  Part="1" 
AR Path="/5CB37600/5CD36619" Ref="R39"  Part="1" 
F 0 "R39" V 9050 7850 50  0000 C CNN
F 1 "390" V 9050 8175 50  0000 C CNN
F 2 "Resistor_SMD:R_0603_1608Metric_Pad1.05x0.95mm_HandSolder" H 9100 8000 50  0001 C CNN
F 3 "~" H 9100 8000 50  0001 C CNN
	1    9100 8000
	0    1    -1   0   
$EndComp
$Comp
L Device:LED_Small D?
U 1 1 5CD3661F
P 8775 7900
AR Path="/5CB3762C/5CD3661F" Ref="D?"  Part="1" 
AR Path="/5CB544F7/5CD3661F" Ref="D?"  Part="1" 
AR Path="/5CB37600/5CD3661F" Ref="D10"  Part="1" 
F 0 "D10" H 8650 7950 50  0000 C CNN
F 1 "LED_uC" H 8975 7850 50  0001 C CNN
F 2 "LED_SMD:LED_0603_1608Metric_Pad1.05x0.95mm_HandSolder" V 8775 7900 50  0001 C CNN
F 3 "~" V 8775 7900 50  0001 C CNN
	1    8775 7900
	1    0    0    1   
$EndComp
Wire Wire Line
	9725 7900 9200 7900
Wire Wire Line
	9000 7900 8875 7900
$Comp
L Device:LED_Small D?
U 1 1 5CD36627
P 8775 7600
AR Path="/5CB3762C/5CD36627" Ref="D?"  Part="1" 
AR Path="/5CB544F7/5CD36627" Ref="D?"  Part="1" 
AR Path="/5CB37600/5CD36627" Ref="D11"  Part="1" 
F 0 "D11" H 8650 7650 50  0000 C CNN
F 1 "LED_uC" H 8975 7550 50  0001 C CNN
F 2 "LED_SMD:LED_0603_1608Metric_Pad1.05x0.95mm_HandSolder" V 8775 7600 50  0001 C CNN
F 3 "~" V 8775 7600 50  0001 C CNN
	1    8775 7600
	1    0    0    1   
$EndComp
Wire Wire Line
	9725 7600 9200 7600
Wire Wire Line
	9000 7600 8875 7600
$Comp
L power:GND #PWR?
U 1 1 5CD3663F
P 8325 8050
AR Path="/5CB544F7/5CD3663F" Ref="#PWR?"  Part="1" 
AR Path="/5CB37600/5CD3663F" Ref="#PWR0108"  Part="1" 
F 0 "#PWR0108" H 8325 7800 50  0001 C CNN
F 1 "GND" V 8330 7922 50  0000 R CNN
F 2 "" H 8325 8050 50  0001 C CNN
F 3 "" H 8325 8050 50  0001 C CNN
	1    8325 8050
	0    1    1    0   
$EndComp
$Comp
L Device:R_Small R?
U 1 1 5CD36648
P 9100 7900
AR Path="/5CB3762C/5CD36648" Ref="R?"  Part="1" 
AR Path="/5CB544F7/5CD36648" Ref="R?"  Part="1" 
AR Path="/5CB37600/5CD36648" Ref="R40"  Part="1" 
F 0 "R40" V 9050 7750 50  0000 C CNN
F 1 "390" V 9050 8075 50  0000 C CNN
F 2 "Resistor_SMD:R_0603_1608Metric_Pad1.05x0.95mm_HandSolder" H 9100 7900 50  0001 C CNN
F 3 "~" H 9100 7900 50  0001 C CNN
	1    9100 7900
	0    1    -1   0   
$EndComp
$Comp
L Device:R_Small R?
U 1 1 5CD3664E
P 9100 7600
AR Path="/5CB3762C/5CD3664E" Ref="R?"  Part="1" 
AR Path="/5CB544F7/5CD3664E" Ref="R?"  Part="1" 
AR Path="/5CB37600/5CD3664E" Ref="R41"  Part="1" 
F 0 "R41" V 9050 7450 50  0000 C CNN
F 1 "390" V 9050 7775 50  0000 C CNN
F 2 "Resistor_SMD:R_0603_1608Metric_Pad1.05x0.95mm_HandSolder" H 9100 7600 50  0001 C CNN
F 3 "~" H 9100 7600 50  0001 C CNN
	1    9100 7600
	0    1    -1   0   
$EndComp
$Comp
L Device:LED_Small D?
U 1 1 5CF2CE6B
P 8775 8100
AR Path="/5CB3762C/5CF2CE6B" Ref="D?"  Part="1" 
AR Path="/5CB544F7/5CF2CE6B" Ref="D?"  Part="1" 
AR Path="/5CB37600/5CF2CE6B" Ref="D8"  Part="1" 
F 0 "D8" H 8625 8150 50  0000 C CNN
F 1 "LED_uC" H 8975 8050 50  0001 C CNN
F 2 "LED_SMD:LED_0603_1608Metric_Pad1.05x0.95mm_HandSolder" V 8775 8100 50  0001 C CNN
F 3 "~" V 8775 8100 50  0001 C CNN
	1    8775 8100
	1    0    0    1   
$EndComp
Wire Wire Line
	9725 8100 9200 8100
Wire Wire Line
	9000 8100 8875 8100
$Comp
L Device:R_Small R?
U 1 1 5CF2CE73
P 9100 8100
AR Path="/5CB3762C/5CF2CE73" Ref="R?"  Part="1" 
AR Path="/5CB544F7/5CF2CE73" Ref="R?"  Part="1" 
AR Path="/5CB37600/5CF2CE73" Ref="R38"  Part="1" 
F 0 "R38" V 9050 7950 50  0000 C CNN
F 1 "390" V 9050 8250 50  0000 C CNN
F 2 "Resistor_SMD:R_0603_1608Metric_Pad1.05x0.95mm_HandSolder" H 9100 8100 50  0001 C CNN
F 3 "~" H 9100 8100 50  0001 C CNN
	1    9100 8100
	0    1    -1   0   
$EndComp
$Comp
L power:GND #PWR?
U 1 1 5CF2CE7B
P 8325 7900
AR Path="/5CB544F7/5CF2CE7B" Ref="#PWR?"  Part="1" 
AR Path="/5CB37600/5CF2CE7B" Ref="#PWR0107"  Part="1" 
F 0 "#PWR0107" H 8325 7650 50  0001 C CNN
F 1 "GND" V 8330 7772 50  0000 R CNN
F 2 "" H 8325 7900 50  0001 C CNN
F 3 "" H 8325 7900 50  0001 C CNN
	1    8325 7900
	0    1    1    0   
$EndComp
Text Label 13475 7000 0    50   ~ 0
FMC_NE3
Text HLabel 13925 7000 2    50   Input ~ 0
FMC_NE3
NoConn ~ 9725 8200
Wire Wire Line
	18625 5375 18775 5375
Wire Wire Line
	18225 5775 18100 5775
Wire Wire Line
	18100 5775 18100 5975
Connection ~ 18100 5975
Wire Wire Line
	18100 5975 18225 5975
Wire Wire Line
	18625 5775 18750 5775
Wire Wire Line
	18750 5775 18750 5975
Connection ~ 18750 5975
Wire Wire Line
	18750 5975 19125 5975
Wire Wire Line
	18225 5175 18125 5175
Wire Wire Line
	18125 5175 18125 5375
Connection ~ 18125 5375
Wire Wire Line
	18125 5375 17800 5375
Wire Wire Line
	18625 5175 18775 5175
Wire Wire Line
	18775 5175 18775 5375
Connection ~ 18775 5375
Wire Wire Line
	18775 5375 19375 5375
Wire Wire Line
	18625 4850 18775 4850
Wire Wire Line
	18625 4300 18775 4300
Wire Wire Line
	19375 5375 19375 6225
Connection ~ 19375 5375
Wire Wire Line
	19375 5375 20125 5375
Wire Wire Line
	19625 6225 19625 4850
Connection ~ 19625 4850
Wire Wire Line
	19625 4850 20125 4850
Wire Wire Line
	19875 6225 19875 4300
Connection ~ 19875 4300
Wire Wire Line
	19875 4300 20125 4300
Wire Wire Line
	17800 4300 17800 4850
Connection ~ 17800 4850
Wire Wire Line
	17800 4850 17800 5375
Wire Wire Line
	17800 5375 17800 5975
Connection ~ 17800 5375
Wire Wire Line
	16075 4975 16075 4875
Wire Wire Line
	16075 4875 15875 4875
Connection ~ 15875 4875
Wire Wire Line
	15875 4875 15875 4975
Wire Wire Line
	16075 5375 16075 5450
Wire Wire Line
	16075 5450 15875 5450
Connection ~ 15875 5450
Wire Wire Line
	15875 5450 15875 5375
Wire Wire Line
	18225 4650 18125 4650
Wire Wire Line
	18125 4650 18125 4850
Connection ~ 18125 4850
Wire Wire Line
	18125 4850 17800 4850
Wire Wire Line
	18625 4650 18775 4650
Wire Wire Line
	18775 4650 18775 4850
Connection ~ 18775 4850
Wire Wire Line
	18775 4850 19625 4850
Wire Wire Line
	18225 4100 18125 4100
Wire Wire Line
	18125 4100 18125 4300
Connection ~ 18125 4300
Wire Wire Line
	18125 4300 17800 4300
Wire Wire Line
	18625 4100 18775 4100
Wire Wire Line
	18775 4100 18775 4300
Connection ~ 18775 4300
Wire Wire Line
	18775 4300 19875 4300
Wire Wire Line
	8625 5000 9725 5000
$Comp
L Oscillator:ASE-xxxMHz X1
U 1 1 5CE3DFB1
P 4150 8250
F 0 "X1" H 4300 8500 50  0000 L CNN
F 1 "ASE-xxxMHz" H 4250 8000 50  0000 L CNN
F 2 "Oscillator:Oscillator_SMD_SeikoEpson_SG210-4Pin_2.5x2.0mm_HandSoldering" H 4850 7900 50  0001 C CNN
F 3 "http://www.abracon.com/Oscillators/ASV.pdf" H 4050 8250 50  0001 C CNN
	1    4150 8250
	1    0    0    -1  
$EndComp
Text Notes 12475 11375 0    50   ~ 0
122-1745-ND
$Comp
L push_button:SW_Push_Dual SW7
U 1 1 5CE1C8D4
P 16075 5175
F 0 "SW7" V 16075 5325 50  0000 L CNN
F 1 "SW_Push_Dual" H 15850 4875 50  0000 L CNN
F 2 "Button_Switch_THT:SW_PUSH_6mm" H 16075 5375 50  0001 C CNN
F 3 "" H 16075 5375 50  0001 C CNN
	1    16075 5175
	0    1    1    0   
$EndComp
$Comp
L push_button:SW_Push_Dual SW8
U 1 1 5CE1E8B5
P 18425 4100
F 0 "SW8" H 18400 4250 50  0000 C CNN
F 1 "SW_Push_Dual" H 19075 3975 50  0000 C CNN
F 2 "Button_Switch_THT:SW_PUSH_6mm" H 18425 4300 50  0001 C CNN
F 3 "" H 18425 4300 50  0001 C CNN
	1    18425 4100
	1    0    0    -1  
$EndComp
$Comp
L push_button:SW_Push_Dual SW9
U 1 1 5CE201E1
P 18425 4650
F 0 "SW9" H 18400 4800 50  0000 C CNN
F 1 "SW_Push_Dual" H 19075 4525 50  0000 C CNN
F 2 "Button_Switch_THT:SW_PUSH_6mm" H 18425 4850 50  0001 C CNN
F 3 "" H 18425 4850 50  0001 C CNN
	1    18425 4650
	1    0    0    -1  
$EndComp
$Comp
L push_button:SW_Push_Dual SW10
U 1 1 5CE690A0
P 18425 5175
F 0 "SW10" H 18425 5325 50  0000 C CNN
F 1 "SW_Push_Dual" H 19075 5050 50  0000 C CNN
F 2 "Button_Switch_THT:SW_PUSH_6mm" H 18425 5375 50  0001 C CNN
F 3 "" H 18425 5375 50  0001 C CNN
	1    18425 5175
	1    0    0    -1  
$EndComp
$Comp
L push_button:SW_Push_Dual SW11
U 1 1 5CE69D1F
P 18425 5775
F 0 "SW11" H 18425 5925 50  0000 C CNN
F 1 "SW_Push_Dual" H 19075 5650 50  0000 C CNN
F 2 "Button_Switch_THT:SW_PUSH_6mm" H 18425 5975 50  0001 C CNN
F 3 "" H 18425 5975 50  0001 C CNN
	1    18425 5775
	1    0    0    -1  
$EndComp
$Comp
L lx9:XC6SLX9-TQ144 U7
U 1 1 5CD8FDD6
P 11625 8000
F 0 "U7" H 12975 11200 60  0000 C CNN
F 1 "XC6SLX9-TQ144" H 12725 4800 60  0000 C CNN
F 2 "Package_QFP:LQFP-144_20x20mm_P0.5mm" H 11625 8000 50  0001 C CNN
F 3 "" H 11625 8000 50  0001 C CNN
	1    11625 8000
	1    0    0    -1  
$EndComp
Wire Wire Line
	8450 8100 8450 8050
Wire Wire Line
	8675 8100 8450 8100
Wire Wire Line
	8450 8000 8675 8000
Wire Wire Line
	8325 8050 8450 8050
Connection ~ 8450 8050
Wire Wire Line
	8450 8050 8450 8000
Wire Wire Line
	13425 7000 13925 7000
Wire Wire Line
	8450 6600 8450 6700
Connection ~ 8450 6700
Wire Wire Line
	8450 6700 8450 6800
$Comp
L power:GND #PWR?
U 1 1 5FC20F71
P 8325 7600
AR Path="/5CB544F7/5FC20F71" Ref="#PWR?"  Part="1" 
AR Path="/5CB37600/5FC20F71" Ref="#PWR0138"  Part="1" 
F 0 "#PWR0138" H 8325 7350 50  0001 C CNN
F 1 "GND" V 8330 7472 50  0000 R CNN
F 2 "" H 8325 7600 50  0001 C CNN
F 3 "" H 8325 7600 50  0001 C CNN
	1    8325 7600
	0    1    1    0   
$EndComp
Wire Wire Line
	8325 7600 8675 7600
Wire Wire Line
	8325 7900 8675 7900
$Comp
L power:GND #PWR?
U 1 1 5FF8488C
P 8400 6400
AR Path="/5CB544F7/5FF8488C" Ref="#PWR?"  Part="1" 
AR Path="/5CB37600/5FF8488C" Ref="#PWR0139"  Part="1" 
F 0 "#PWR0139" H 8400 6150 50  0001 C CNN
F 1 "GND" V 8405 6272 50  0000 R CNN
F 2 "" H 8400 6400 50  0001 C CNN
F 3 "" H 8400 6400 50  0001 C CNN
	1    8400 6400
	0    1    1    0   
$EndComp
Wire Wire Line
	8400 6400 8675 6400
Wire Wire Line
	8375 6700 8450 6700
Text Label 13525 7400 0    50   ~ 0
MODE1
Wire Wire Line
	13425 7400 13775 7400
Text Label 13525 8100 0    50   ~ 0
MODE0
Wire Wire Line
	13425 8100 13775 8100
$Comp
L power:+3.3V #PWR?
U 1 1 5D3AE631
P 15525 7350
AR Path="/5CB544F7/5D3AE631" Ref="#PWR?"  Part="1" 
AR Path="/5CB37600/5D3AE631" Ref="#PWR0142"  Part="1" 
F 0 "#PWR0142" H 15525 7200 50  0001 C CNN
F 1 "+3.3V" H 15525 7525 50  0000 C CNN
F 2 "" H 15525 7350 50  0001 C CNN
F 3 "" H 15525 7350 50  0001 C CNN
	1    15525 7350
	1    0    0    -1  
$EndComp
Wire Wire Line
	15225 7475 15525 7475
Wire Wire Line
	15525 7350 15525 7475
Connection ~ 15525 7475
Wire Wire Line
	15525 7475 15800 7475
Text Label 15900 7750 0    50   ~ 0
MODE1
Wire Wire Line
	15800 7750 16150 7750
Text Label 15325 7750 0    50   ~ 0
MODE0
Wire Wire Line
	15225 7750 15575 7750
Wire Wire Line
	15225 7475 15225 7750
Wire Wire Line
	15800 7475 15800 7750
NoConn ~ 18375 9025
NoConn ~ 18375 9125
$EndSCHEMATC
