EESchema Schematic File Version 4
LIBS:pcb_edu-cache
EELAYER 26 0
EELAYER END
$Descr A2 23386 16535
encoding utf-8
Sheet 3 4
Title "EDU_PCB-Microcontroller"
Date ""
Rev ""
Comp "Universidad Nacional de Colombia"
Comment1 "Dorfell Parra"
Comment2 ""
Comment3 ""
Comment4 ""
$EndDescr
$Comp
L MCU_ST_STM32F7:STM32F765ZITx U5
U 1 1 5CB54A02
P 12250 7925
F 0 "U5" H 13150 11425 50  0000 C CNN
F 1 "STM32F765ZITx" H 13100 4425 50  0000 C CNN
F 2 "Package_QFP:LQFP-144_20x20mm_P0.5mm" H 11250 4525 50  0001 R CNN
F 3 "http://www.st.com/st-web-ui/static/active/en/resource/technical/document/datasheet/DM00273119.pdf" H 12250 7925 50  0001 C CNN
	1    12250 7925
	1    0    0    -1  
$EndComp
Wire Wire Line
	11850 11525 11850 11800
Wire Wire Line
	11850 11800 11950 11800
Wire Wire Line
	12650 11800 12650 11525
Wire Wire Line
	11950 11525 11950 11800
Connection ~ 11950 11800
Wire Wire Line
	12050 11525 12050 11800
Wire Wire Line
	11950 11800 12050 11800
Connection ~ 12050 11800
Wire Wire Line
	12050 11800 12150 11800
Wire Wire Line
	12150 11525 12150 11800
Connection ~ 12150 11800
Wire Wire Line
	12250 11525 12250 11800
Wire Wire Line
	12150 11800 12250 11800
Connection ~ 12250 11800
Wire Wire Line
	12250 11800 12350 11800
Wire Wire Line
	12350 11525 12350 11800
Connection ~ 12350 11800
Wire Wire Line
	12350 11800 12450 11800
Wire Wire Line
	12450 11525 12450 11800
Connection ~ 12450 11800
Wire Wire Line
	12550 11525 12550 11800
Wire Wire Line
	12450 11800 12550 11800
Connection ~ 12550 11800
Wire Wire Line
	12550 11800 12650 11800
$Comp
L power:GND #PWR060
U 1 1 5CB5526C
P 12250 11975
F 0 "#PWR060" H 12250 11725 50  0001 C CNN
F 1 "GND" H 12255 11802 50  0000 C CNN
F 2 "" H 12250 11975 50  0001 C CNN
F 3 "" H 12250 11975 50  0001 C CNN
	1    12250 11975
	1    0    0    -1  
$EndComp
Wire Wire Line
	12250 11800 12250 11975
$Comp
L Device:L_Small L4
U 1 1 5CB55491
P 12750 11750
F 0 "L4" H 12797 11796 50  0000 L CNN
F 1 "bead, 600R, 350 mA" H 12797 11705 50  0000 L CNN
F 2 "Inductor_SMD:L_0603_1608Metric_Pad1.05x0.95mm_HandSolder" H 12750 11750 50  0001 C CNN
F 3 "~" H 12750 11750 50  0001 C CNN
	1    12750 11750
	1    0    0    -1  
$EndComp
$Comp
L power:GND #PWR061
U 1 1 5CB55636
P 12750 11975
F 0 "#PWR061" H 12750 11725 50  0001 C CNN
F 1 "GND" H 12755 11802 50  0000 C CNN
F 2 "" H 12750 11975 50  0001 C CNN
F 3 "" H 12750 11975 50  0001 C CNN
	1    12750 11975
	1    0    0    -1  
$EndComp
Wire Wire Line
	12750 11850 12750 11975
Wire Wire Line
	12650 4100 12650 4325
Wire Wire Line
	11750 4325 11750 4100
Wire Wire Line
	11850 4325 11850 4100
Connection ~ 11850 4100
Wire Wire Line
	11850 4100 11950 4100
Wire Wire Line
	11950 4325 11950 4100
Connection ~ 11950 4100
Wire Wire Line
	11950 4100 12050 4100
Wire Wire Line
	12050 4325 12050 4100
Connection ~ 12050 4100
Wire Wire Line
	12050 4100 12150 4100
Wire Wire Line
	12150 4325 12150 4100
Connection ~ 12150 4100
Wire Wire Line
	12250 4325 12250 4100
Wire Wire Line
	12150 4100 12200 4100
Connection ~ 12250 4100
Wire Wire Line
	12250 4100 12350 4100
Wire Wire Line
	12350 4325 12350 4100
Connection ~ 12350 4100
Wire Wire Line
	12350 4100 12450 4100
Wire Wire Line
	12450 4325 12450 4100
Connection ~ 12450 4100
Wire Wire Line
	12450 4100 12550 4100
Wire Wire Line
	12550 4325 12550 4100
Connection ~ 12550 4100
Wire Wire Line
	12550 4100 12650 4100
Wire Wire Line
	12200 4100 12200 3925
Connection ~ 12200 4100
Wire Wire Line
	12200 4100 12250 4100
Wire Wire Line
	12850 4325 12850 4100
Wire Wire Line
	12950 4325 12950 4100
Wire Wire Line
	12850 4100 12900 4100
$Comp
L power:GND #PWR051
U 1 1 5CB5BEF7
P 5475 11275
F 0 "#PWR051" H 5475 11025 50  0001 C CNN
F 1 "GND" H 5480 11102 50  0000 C CNN
F 2 "" H 5475 11275 50  0001 C CNN
F 3 "" H 5475 11275 50  0001 C CNN
	1    5475 11275
	1    0    0    -1  
$EndComp
$Comp
L Device:L_Small L3
U 1 1 5CB5BF65
P 5475 10600
F 0 "L3" H 5522 10646 50  0000 L CNN
F 1 "bead, 600R, 350 mA" H 5522 10555 50  0000 L CNN
F 2 "Inductor_SMD:L_0603_1608Metric_Pad1.05x0.95mm_HandSolder" H 5475 10600 50  0001 C CNN
F 3 "~" H 5475 10600 50  0001 C CNN
	1    5475 10600
	1    0    0    -1  
$EndComp
$Comp
L Device:C_Small C34
U 1 1 5CB5C16A
P 5475 10975
F 0 "C34" H 5567 11021 50  0000 L CNN
F 1 "100nF" H 5567 10930 50  0000 L CNN
F 2 "Capacitor_SMD:C_0603_1608Metric_Pad1.05x0.95mm_HandSolder" H 5475 10975 50  0001 C CNN
F 3 "~" H 5475 10975 50  0001 C CNN
	1    5475 10975
	1    0    0    -1  
$EndComp
Wire Wire Line
	5475 10275 5475 10500
Wire Wire Line
	5475 10700 5475 10800
Wire Wire Line
	5475 11275 5475 11075
Wire Wire Line
	5250 10800 5475 10800
Connection ~ 5475 10800
Wire Wire Line
	5475 10800 5475 10875
Text Label 5250 10800 2    50   ~ 0
AVDD
Text Label 10875 5550 2    50   ~ 0
AVDD
Wire Notes Line
	975  14325 975  1650
Wire Notes Line
	22425 1625 22425 14325
Wire Notes Line
	7400 1650 7400 14325
Wire Notes Line
	975  14325 22425 14325
Wire Notes Line
	17725 1650 17725 14325
Wire Notes Line
	975  1650 22425 1650
Text Notes 4525 2350 2    118  ~ 24
Coupling and Decoupling Elements
Text Notes 9025 2275 2    118  ~ 24
Microcontroller
Text Notes 21825 2275 2    118  ~ 24
PMODs pour GPIOs et la  Communication
Wire Wire Line
	12750 4325 12750 3975
Text Label 12750 3975 3    50   ~ 0
AVDD
Wire Wire Line
	12900 4100 12900 3925
Connection ~ 12900 4100
Wire Wire Line
	12900 4100 12950 4100
$Comp
L Device:C_Small C38
U 1 1 5CB6E273
P 10500 5300
F 0 "C38" V 10450 5200 50  0000 C CNN
F 1 "2.2uF X7R" V 10600 5300 50  0000 C CNN
F 2 "Capacitor_SMD:C_0603_1608Metric_Pad1.05x0.95mm_HandSolder" H 10500 5300 50  0001 C CNN
F 3 "~" H 10500 5300 50  0001 C CNN
	1    10500 5300
	0    1    1    0   
$EndComp
Wire Wire Line
	11050 5325 11000 5325
$Comp
L power:GND #PWR056
U 1 1 5CB6F14F
P 10150 5300
F 0 "#PWR056" H 10150 5050 50  0001 C CNN
F 1 "GND" V 10155 5172 50  0000 R CNN
F 2 "" H 10150 5300 50  0001 C CNN
F 3 "" H 10150 5300 50  0001 C CNN
	1    10150 5300
	0    1    1    0   
$EndComp
Wire Wire Line
	10400 5300 10150 5300
$Comp
L Device:C_Small C37
U 1 1 5CB7009C
P 10500 5050
F 0 "C37" V 10450 4950 50  0000 C CNN
F 1 "2.2uF X7R" V 10600 5050 50  0000 C CNN
F 2 "Capacitor_SMD:C_0603_1608Metric_Pad1.05x0.95mm_HandSolder" H 10500 5050 50  0001 C CNN
F 3 "~" H 10500 5050 50  0001 C CNN
	1    10500 5050
	0    1    1    0   
$EndComp
$Comp
L power:GND #PWR055
U 1 1 5CB700A2
P 10150 5050
F 0 "#PWR055" H 10150 4800 50  0001 C CNN
F 1 "GND" V 10155 4922 50  0000 R CNN
F 2 "" H 10150 5050 50  0001 C CNN
F 3 "" H 10150 5050 50  0001 C CNN
	1    10150 5050
	0    1    1    0   
$EndComp
Wire Wire Line
	10400 5050 10150 5050
Wire Wire Line
	11000 5325 11000 5550
Wire Wire Line
	11000 5550 10700 5550
Wire Wire Line
	10600 5050 11000 5050
Wire Wire Line
	11000 5050 11000 5125
Wire Wire Line
	11000 5125 11050 5125
Wire Wire Line
	11000 5225 11000 5300
$Comp
L power:+3.3V #PWR059
U 1 1 5CC149EE
P 12200 3925
F 0 "#PWR059" H 12200 3775 50  0001 C CNN
F 1 "+3.3V" H 12215 4098 50  0000 C CNN
F 2 "" H 12200 3925 50  0001 C CNN
F 3 "" H 12200 3925 50  0001 C CNN
	1    12200 3925
	1    0    0    -1  
$EndComp
$Comp
L power:+3.3V #PWR062
U 1 1 5CC14A22
P 12900 3925
F 0 "#PWR062" H 12900 3775 50  0001 C CNN
F 1 "+3.3V" H 12915 4098 50  0000 C CNN
F 2 "" H 12900 3925 50  0001 C CNN
F 3 "" H 12900 3925 50  0001 C CNN
	1    12900 3925
	1    0    0    -1  
$EndComp
$Comp
L power:+3.3V #PWR050
U 1 1 5CCC4C27
P 5475 10275
F 0 "#PWR050" H 5475 10125 50  0001 C CNN
F 1 "+3.3V" H 5490 10448 50  0000 C CNN
F 2 "" H 5475 10275 50  0001 C CNN
F 3 "" H 5475 10275 50  0001 C CNN
	1    5475 10275
	1    0    0    -1  
$EndComp
$Comp
L Device:C_Small C20
U 1 1 5CCC52D2
P 2350 5225
F 0 "C20" H 2250 5300 50  0000 L CNN
F 1 "100nF" V 2450 5125 50  0000 L CNN
F 2 "Capacitor_SMD:C_0603_1608Metric_Pad1.05x0.95mm_HandSolder" H 2350 5225 50  0001 C CNN
F 3 "~" H 2350 5225 50  0001 C CNN
	1    2350 5225
	1    0    0    -1  
$EndComp
$Comp
L Device:C_Small C21
U 1 1 5CCC52D9
P 2600 5225
F 0 "C21" H 2500 5300 50  0000 L CNN
F 1 "100nF" V 2700 5125 50  0000 L CNN
F 2 "Capacitor_SMD:C_0603_1608Metric_Pad1.05x0.95mm_HandSolder" H 2600 5225 50  0001 C CNN
F 3 "~" H 2600 5225 50  0001 C CNN
	1    2600 5225
	1    0    0    -1  
$EndComp
$Comp
L Device:C_Small C22
U 1 1 5CCC52E0
P 2850 5225
F 0 "C22" H 2750 5300 50  0000 L CNN
F 1 "100nF" V 2950 5125 50  0000 L CNN
F 2 "Capacitor_SMD:C_0603_1608Metric_Pad1.05x0.95mm_HandSolder" H 2850 5225 50  0001 C CNN
F 3 "~" H 2850 5225 50  0001 C CNN
	1    2850 5225
	1    0    0    -1  
$EndComp
$Comp
L Device:C_Small C23
U 1 1 5CCC52E7
P 3100 5225
F 0 "C23" H 3000 5300 50  0000 L CNN
F 1 "100nF" V 3200 5125 50  0000 L CNN
F 2 "Capacitor_SMD:C_0603_1608Metric_Pad1.05x0.95mm_HandSolder" H 3100 5225 50  0001 C CNN
F 3 "~" H 3100 5225 50  0001 C CNN
	1    3100 5225
	1    0    0    -1  
$EndComp
$Comp
L Device:C_Small C24
U 1 1 5CCC52EE
P 3350 5225
F 0 "C24" H 3250 5300 50  0000 L CNN
F 1 "100nF" V 3450 5125 50  0000 L CNN
F 2 "Capacitor_SMD:C_0603_1608Metric_Pad1.05x0.95mm_HandSolder" H 3350 5225 50  0001 C CNN
F 3 "~" H 3350 5225 50  0001 C CNN
	1    3350 5225
	1    0    0    -1  
$EndComp
$Comp
L Device:C_Small C26
U 1 1 5CCC52F5
P 3600 5225
F 0 "C26" H 3500 5300 50  0000 L CNN
F 1 "100nF" V 3700 5125 50  0000 L CNN
F 2 "Capacitor_SMD:C_0603_1608Metric_Pad1.05x0.95mm_HandSolder" H 3600 5225 50  0001 C CNN
F 3 "~" H 3600 5225 50  0001 C CNN
	1    3600 5225
	1    0    0    -1  
$EndComp
$Comp
L Device:C_Small C27
U 1 1 5CCC52FC
P 3850 5225
F 0 "C27" H 3750 5300 50  0000 L CNN
F 1 "100nF" V 3950 5125 50  0000 L CNN
F 2 "Capacitor_SMD:C_0603_1608Metric_Pad1.05x0.95mm_HandSolder" H 3850 5225 50  0001 C CNN
F 3 "~" H 3850 5225 50  0001 C CNN
	1    3850 5225
	1    0    0    -1  
$EndComp
$Comp
L Device:C_Small C28
U 1 1 5CCC5303
P 4100 5225
F 0 "C28" H 4000 5300 50  0000 L CNN
F 1 "100nF" V 4200 5125 50  0000 L CNN
F 2 "Capacitor_SMD:C_0603_1608Metric_Pad1.05x0.95mm_HandSolder" H 4100 5225 50  0001 C CNN
F 3 "~" H 4100 5225 50  0001 C CNN
	1    4100 5225
	1    0    0    -1  
$EndComp
$Comp
L Device:C_Small C29
U 1 1 5CCC530A
P 4375 5225
F 0 "C29" H 4275 5300 50  0000 L CNN
F 1 "100nF" V 4475 5125 50  0000 L CNN
F 2 "Capacitor_SMD:C_0603_1608Metric_Pad1.05x0.95mm_HandSolder" H 4375 5225 50  0001 C CNN
F 3 "~" H 4375 5225 50  0001 C CNN
	1    4375 5225
	1    0    0    -1  
$EndComp
Wire Wire Line
	2350 5325 2350 5575
Wire Wire Line
	2350 5575 2600 5575
Wire Wire Line
	4375 5575 4375 5325
Wire Wire Line
	2600 5325 2600 5575
Connection ~ 2600 5575
Wire Wire Line
	2600 5575 2850 5575
Wire Wire Line
	2850 5325 2850 5575
Connection ~ 2850 5575
Wire Wire Line
	2850 5575 3100 5575
Wire Wire Line
	3100 5325 3100 5575
Connection ~ 3100 5575
Wire Wire Line
	3100 5575 3350 5575
Wire Wire Line
	3350 5325 3350 5575
Connection ~ 3350 5575
Wire Wire Line
	3350 5575 3600 5575
Wire Wire Line
	3600 5325 3600 5575
Connection ~ 3600 5575
Wire Wire Line
	3600 5575 3850 5575
Wire Wire Line
	3850 5325 3850 5575
Connection ~ 3850 5575
Wire Wire Line
	3850 5575 4100 5575
Wire Wire Line
	4100 5325 4100 5575
Connection ~ 4100 5575
Wire Wire Line
	2350 5125 2350 4875
Wire Wire Line
	2350 4875 2600 4875
Wire Wire Line
	4375 4875 4375 5125
Wire Wire Line
	2600 5125 2600 4875
Connection ~ 2600 4875
Wire Wire Line
	2600 4875 2850 4875
Wire Wire Line
	2850 5125 2850 4875
Connection ~ 2850 4875
Wire Wire Line
	2850 4875 3100 4875
Wire Wire Line
	3100 5125 3100 4875
Connection ~ 3100 4875
Wire Wire Line
	3100 4875 3350 4875
Wire Wire Line
	3350 5125 3350 4875
Connection ~ 3350 4875
Wire Wire Line
	3600 5125 3600 4875
Wire Wire Line
	3350 4875 3600 4875
Connection ~ 3600 4875
Wire Wire Line
	3600 4875 3850 4875
Wire Wire Line
	3850 5125 3850 4875
Connection ~ 3850 4875
Wire Wire Line
	3850 4875 4100 4875
Wire Wire Line
	4100 5125 4100 4875
Connection ~ 4100 4875
$Comp
L power:GND #PWR047
U 1 1 5CCC5341
P 3850 5700
F 0 "#PWR047" H 3850 5450 50  0001 C CNN
F 1 "GND" H 3855 5527 50  0000 C CNN
F 2 "" H 3850 5700 50  0001 C CNN
F 3 "" H 3850 5700 50  0001 C CNN
	1    3850 5700
	1    0    0    -1  
$EndComp
Wire Wire Line
	3850 5700 3850 5575
Wire Wire Line
	11650 4325 11650 4100
Wire Wire Line
	11650 4100 11750 4100
Connection ~ 11750 4100
Wire Wire Line
	11750 4100 11850 4100
Wire Wire Line
	4100 4875 4375 4875
Wire Wire Line
	4100 5575 4375 5575
$Comp
L Device:C_Small C30
U 1 1 5CCD7DED
P 4625 5225
F 0 "C30" H 4525 5300 50  0000 L CNN
F 1 "100nF" V 4725 5125 50  0000 L CNN
F 2 "Capacitor_SMD:C_0603_1608Metric_Pad1.05x0.95mm_HandSolder" H 4625 5225 50  0001 C CNN
F 3 "~" H 4625 5225 50  0001 C CNN
	1    4625 5225
	1    0    0    -1  
$EndComp
$Comp
L Device:C_Small C31
U 1 1 5CCD7DF3
P 4875 5225
F 0 "C31" H 4775 5300 50  0000 L CNN
F 1 "100nF" V 4975 5125 50  0000 L CNN
F 2 "Capacitor_SMD:C_0603_1608Metric_Pad1.05x0.95mm_HandSolder" H 4875 5225 50  0001 C CNN
F 3 "~" H 4875 5225 50  0001 C CNN
	1    4875 5225
	1    0    0    -1  
$EndComp
$Comp
L Device:C_Small C32
U 1 1 5CCD7DF9
P 5125 5225
F 0 "C32" H 5025 5300 50  0000 L CNN
F 1 "100nF" V 5225 5125 50  0000 L CNN
F 2 "Capacitor_SMD:C_0603_1608Metric_Pad1.05x0.95mm_HandSolder" H 5125 5225 50  0001 C CNN
F 3 "~" H 5125 5225 50  0001 C CNN
	1    5125 5225
	1    0    0    -1  
$EndComp
$Comp
L Device:C_Small C33
U 1 1 5CCD7DFF
P 5400 5225
F 0 "C33" H 5300 5300 50  0000 L CNN
F 1 "100nF" V 5500 5125 50  0000 L CNN
F 2 "Capacitor_SMD:C_0603_1608Metric_Pad1.05x0.95mm_HandSolder" H 5400 5225 50  0001 C CNN
F 3 "~" H 5400 5225 50  0001 C CNN
	1    5400 5225
	1    0    0    -1  
$EndComp
Wire Wire Line
	5400 5575 5400 5325
Wire Wire Line
	4375 5575 4625 5575
Wire Wire Line
	4625 5325 4625 5575
Connection ~ 4625 5575
Wire Wire Line
	4625 5575 4875 5575
Wire Wire Line
	4875 5325 4875 5575
Connection ~ 4875 5575
Wire Wire Line
	4875 5575 5125 5575
Wire Wire Line
	5125 5325 5125 5575
Connection ~ 5125 5575
Wire Wire Line
	5400 4875 5400 5125
Wire Wire Line
	4625 5125 4625 4875
Wire Wire Line
	4375 4875 4625 4875
Connection ~ 4625 4875
Wire Wire Line
	4625 4875 4875 4875
Wire Wire Line
	4875 5125 4875 4875
Connection ~ 4875 4875
Wire Wire Line
	4875 4875 5125 4875
Wire Wire Line
	5125 5125 5125 4875
Connection ~ 5125 4875
Wire Wire Line
	5125 4875 5400 4875
Wire Wire Line
	5125 5575 5400 5575
Connection ~ 4375 4875
Connection ~ 4375 5575
$Comp
L power:+3.3V #PWR046
U 1 1 5CCE56CE
P 3850 4650
F 0 "#PWR046" H 3850 4500 50  0001 C CNN
F 1 "+3.3V" H 3865 4823 50  0000 C CNN
F 2 "" H 3850 4650 50  0001 C CNN
F 3 "" H 3850 4650 50  0001 C CNN
	1    3850 4650
	1    0    0    -1  
$EndComp
Wire Wire Line
	3850 4650 3850 4875
Text Label 13550 5925 0    50   ~ 0
TMS
Text Label 13550 6025 0    50   ~ 0
TCK
Text Label 13550 6125 0    50   ~ 0
TDI_FT-TDI_uC
Text Label 13550 6625 0    50   ~ 0
TDO_uC-TDI_FPGA
Text Label 10950 8025 2    50   ~ 0
FMC_A0
Text Label 10950 8125 2    50   ~ 0
FMC_A1
Text Label 10950 8225 2    50   ~ 0
FMC_A2
Text Label 10950 8325 2    50   ~ 0
FMC_A3
Text Label 10950 8425 2    50   ~ 0
FMC_A4
Text Label 10950 8525 2    50   ~ 0
FMC_A5
Text Label 10950 9225 2    50   ~ 0
FMC_A6
Text Label 10950 9325 2    50   ~ 0
FMC_A7
Text Label 13550 10125 0    50   ~ 0
FMC_NOE
Text Label 13550 10225 0    50   ~ 0
FMC_NWE
Text Label 13550 11125 0    50   ~ 0
FMC_D0
Text Label 13550 11225 0    50   ~ 0
FMC_D1
Text Label 13550 10025 0    50   ~ 0
FMC_CLK
Text Label 13550 10525 0    50   ~ 0
FMC_D13
Text Label 13550 10725 0    50   ~ 0
FMC_D15
Text Label 13550 10625 0    50   ~ 0
FMC_D14
Text Label 13550 9825 0    50   ~ 0
FMC_D3
Text Label 10950 10425 2    50   ~ 0
FMC_D4
Text Label 10950 10525 2    50   ~ 0
FMC_D5
Text Label 10950 10625 2    50   ~ 0
FMC_D6
Text Label 10950 10725 2    50   ~ 0
FMC_D7
Text Label 10950 10825 2    50   ~ 0
FMC_D8
Text Label 10950 10925 2    50   ~ 0
FMC_D9
Text Label 11000 11025 2    50   ~ 0
FMC_D10
Text Label 11000 11125 2    50   ~ 0
FMC_D11
Text Label 11000 11225 2    50   ~ 0
FMC_D12
Wire Wire Line
	10700 4625 11050 4625
Text Label 10700 4625 0    50   ~ 0
NRST
Wire Wire Line
	10700 4925 11050 4925
Text Label 10700 4925 0    50   ~ 0
BOOT0
$Comp
L Device:C_Small C36
U 1 1 5CCB0F50
P 10050 6125
F 0 "C36" V 10000 6025 50  0000 C CNN
F 1 "36pF" V 10000 6250 50  0000 C CNN
F 2 "Capacitor_SMD:C_0603_1608Metric_Pad1.05x0.95mm_HandSolder" H 10050 6125 50  0001 C CNN
F 3 "~" H 10050 6125 50  0001 C CNN
	1    10050 6125
	0    1    1    0   
$EndComp
$Comp
L power:GND #PWR054
U 1 1 5CCB0F56
P 9850 6125
F 0 "#PWR054" H 9850 5875 50  0001 C CNN
F 1 "GND" V 9855 5997 50  0000 R CNN
F 2 "" H 9850 6125 50  0001 C CNN
F 3 "" H 9850 6125 50  0001 C CNN
	1    9850 6125
	0    1    1    0   
$EndComp
$Comp
L Device:C_Small C35
U 1 1 5CCB0F5D
P 10050 5775
F 0 "C35" V 10000 5675 50  0000 C CNN
F 1 "36pF" V 10000 5900 50  0000 C CNN
F 2 "Capacitor_SMD:C_0603_1608Metric_Pad1.05x0.95mm_HandSolder" H 10050 5775 50  0001 C CNN
F 3 "~" H 10050 5775 50  0001 C CNN
	1    10050 5775
	0    1    1    0   
$EndComp
$Comp
L power:GND #PWR053
U 1 1 5CCB0F63
P 9850 5775
F 0 "#PWR053" H 9850 5525 50  0001 C CNN
F 1 "GND" V 9855 5647 50  0000 R CNN
F 2 "" H 9850 5775 50  0001 C CNN
F 3 "" H 9850 5775 50  0001 C CNN
	1    9850 5775
	0    1    1    0   
$EndComp
Wire Wire Line
	11050 6025 10900 6025
$Comp
L Device:Crystal_Small Y3
U 1 1 5CCF3701
P 14200 9475
F 0 "Y3" V 14200 9550 50  0000 L CNN
F 1 "32kHz" H 14075 9375 50  0000 L CNN
F 2 "Crystal:Crystal_SMD_G8-2Pin_3.2x1.5mm_HandSoldering" H 14200 9475 50  0001 C CNN
F 3 "~" H 14200 9475 50  0001 C CNN
	1    14200 9475
	0    -1   1    0   
$EndComp
$Comp
L Device:C_Small C40
U 1 1 5CCF3707
P 14625 9650
F 0 "C40" V 14575 9550 50  0000 C CNN
F 1 "25pF" V 14725 9650 50  0000 C CNN
F 2 "Capacitor_SMD:C_0603_1608Metric_Pad1.05x0.95mm_HandSolder" H 14625 9650 50  0001 C CNN
F 3 "~" H 14625 9650 50  0001 C CNN
	1    14625 9650
	0    -1   1    0   
$EndComp
$Comp
L power:GND #PWR064
U 1 1 5CCF370D
P 14975 9650
F 0 "#PWR064" H 14975 9400 50  0001 C CNN
F 1 "GND" V 14980 9522 50  0000 R CNN
F 2 "" H 14975 9650 50  0001 C CNN
F 3 "" H 14975 9650 50  0001 C CNN
	1    14975 9650
	0    -1   1    0   
$EndComp
$Comp
L Device:C_Small C39
U 1 1 5CCF3714
P 14625 9300
F 0 "C39" V 14575 9200 50  0000 C CNN
F 1 "25pF" V 14725 9300 50  0000 C CNN
F 2 "Capacitor_SMD:C_0603_1608Metric_Pad1.05x0.95mm_HandSolder" H 14625 9300 50  0001 C CNN
F 3 "~" H 14625 9300 50  0001 C CNN
	1    14625 9300
	0    -1   1    0   
$EndComp
$Comp
L power:GND #PWR063
U 1 1 5CCF371A
P 14975 9300
F 0 "#PWR063" H 14975 9050 50  0001 C CNN
F 1 "GND" V 14980 9172 50  0000 R CNN
F 2 "" H 14975 9300 50  0001 C CNN
F 3 "" H 14975 9300 50  0001 C CNN
	1    14975 9300
	0    -1   1    0   
$EndComp
Wire Wire Line
	14725 9300 14975 9300
Wire Wire Line
	14975 9650 14725 9650
Wire Wire Line
	13450 9425 13900 9425
Wire Wire Line
	13900 9425 13900 9300
Wire Wire Line
	13900 9300 14200 9300
Wire Wire Line
	13450 9525 13900 9525
Wire Wire Line
	13900 9525 13900 9650
Wire Wire Line
	13900 9650 14200 9650
Wire Wire Line
	14200 9375 14200 9300
Connection ~ 14200 9300
Wire Wire Line
	14200 9300 14525 9300
Wire Wire Line
	14200 9575 14200 9650
Connection ~ 14200 9650
Wire Wire Line
	14200 9650 14525 9650
Wire Wire Line
	10700 4725 11050 4725
$Comp
L power:+3.3V #PWR058
U 1 1 5CE7C3C4
P 10700 4725
F 0 "#PWR058" H 10700 4575 50  0001 C CNN
F 1 "+3.3V" H 10715 4898 50  0000 C CNN
F 2 "" H 10700 4725 50  0001 C CNN
F 3 "" H 10700 4725 50  0001 C CNN
	1    10700 4725
	0    -1   -1   0   
$EndComp
Text Label 13475 7025 0    50   ~ 0
USART1_RX
Text Label 13475 6925 0    50   ~ 0
USART1_TX
Wire Wire Line
	13450 9125 13800 9125
Text Label 13475 9125 0    50   ~ 0
USART3_RX
Wire Wire Line
	13450 9225 13800 9225
Text Label 13475 9225 0    50   ~ 0
USART3_CK
Wire Wire Line
	13450 10825 13800 10825
Text Label 13450 10825 0    50   ~ 0
USART3_CTS
Wire Wire Line
	13450 9025 13800 9025
Text Label 13475 9025 0    50   ~ 0
USART3_TX
Wire Wire Line
	13450 4725 13800 4725
Text Label 13475 4725 0    50   ~ 0
ADC1_IN1
Wire Wire Line
	13450 4825 13800 4825
Text Label 13475 4825 0    50   ~ 0
ADC1_IN2
Wire Wire Line
	13450 4925 13800 4925
Text Label 13475 4925 0    50   ~ 0
ADC1_IN3
Wire Wire Line
	13450 5025 13800 5025
Text Label 13475 5025 0    50   ~ 0
DAC_OUT1
Wire Wire Line
	13450 5125 13800 5125
Text Label 13475 5125 0    50   ~ 0
DAC_OUT2
Wire Wire Line
	13450 5225 13800 5225
Wire Wire Line
	13450 5425 13800 5425
Text Label 13475 5425 0    50   ~ 0
TIM1_CH1
Wire Wire Line
	13450 5525 13800 5525
Text Label 13475 5525 0    50   ~ 0
TIM1_CH2
Wire Wire Line
	13450 5625 13800 5625
Text Label 13475 5625 0    50   ~ 0
TIM1_CH3
Wire Wire Line
	13450 5725 13800 5725
Text Label 13475 5725 0    50   ~ 0
TIM1_CH4
Wire Wire Line
	13450 5825 13800 5825
Text Label 13475 5825 0    50   ~ 0
TIM1_ETR
$Comp
L Device:R_Small R?
U 1 1 5D023B73
P 10425 7325
AR Path="/5CB3762C/5D023B73" Ref="R?"  Part="1" 
AR Path="/5CB544F7/5D023B73" Ref="R25"  Part="1" 
F 0 "R25" V 10475 7200 50  0000 C CNN
F 1 "680" V 10475 7475 50  0000 C CNN
F 2 "Resistor_SMD:R_0603_1608Metric_Pad1.05x0.95mm_HandSolder" H 10425 7325 50  0001 C CNN
F 3 "~" H 10425 7325 50  0001 C CNN
	1    10425 7325
	0    1    -1   0   
$EndComp
$Comp
L Device:LED_Small D?
U 1 1 5D023B79
P 10100 7325
AR Path="/5CB3762C/5D023B79" Ref="D?"  Part="1" 
AR Path="/5CB544F7/5D023B79" Ref="D4"  Part="1" 
F 0 "D4" H 9975 7275 50  0000 C CNN
F 1 "LED_uC" H 10300 7275 50  0001 C CNN
F 2 "LED_SMD:LED_0603_1608Metric_Pad1.05x0.95mm_HandSolder" V 10100 7325 50  0001 C CNN
F 3 "~" V 10100 7325 50  0001 C CNN
	1    10100 7325
	1    0    0    1   
$EndComp
Wire Wire Line
	11050 7325 10525 7325
Wire Wire Line
	10325 7325 10200 7325
Wire Wire Line
	10900 5775 10900 6025
$Comp
L Device:R_Small R?
U 1 1 5D083DE9
P 10425 7625
AR Path="/5CB3762C/5D083DE9" Ref="R?"  Part="1" 
AR Path="/5CB544F7/5D083DE9" Ref="R26"  Part="1" 
F 0 "R26" V 10475 7500 50  0000 C CNN
F 1 "680" V 10475 7775 50  0000 C CNN
F 2 "Resistor_SMD:R_0603_1608Metric_Pad1.05x0.95mm_HandSolder" H 10425 7625 50  0001 C CNN
F 3 "~" H 10425 7625 50  0001 C CNN
	1    10425 7625
	0    1    -1   0   
$EndComp
$Comp
L Device:LED_Small D?
U 1 1 5D083DEF
P 10100 7625
AR Path="/5CB3762C/5D083DEF" Ref="D?"  Part="1" 
AR Path="/5CB544F7/5D083DEF" Ref="D5"  Part="1" 
F 0 "D5" H 9975 7575 50  0000 C CNN
F 1 "LED_uC" H 10300 7575 50  0001 C CNN
F 2 "LED_SMD:LED_0603_1608Metric_Pad1.05x0.95mm_HandSolder" V 10100 7625 50  0001 C CNN
F 3 "~" V 10100 7625 50  0001 C CNN
	1    10100 7625
	1    0    0    1   
$EndComp
Wire Wire Line
	11050 7625 10525 7625
Wire Wire Line
	10325 7625 10200 7625
$Comp
L Device:R_Small R?
U 1 1 5D09D8A3
P 14075 10325
AR Path="/5CB3762C/5D09D8A3" Ref="R?"  Part="1" 
AR Path="/5CB544F7/5D09D8A3" Ref="R27"  Part="1" 
F 0 "R27" V 14025 10475 50  0000 C CNN
F 1 "680" V 14025 10175 50  0000 C CNN
F 2 "Resistor_SMD:R_0603_1608Metric_Pad1.05x0.95mm_HandSolder" H 14075 10325 50  0001 C CNN
F 3 "~" H 14075 10325 50  0001 C CNN
	1    14075 10325
	0    -1   -1   0   
$EndComp
$Comp
L Device:LED_Small D?
U 1 1 5D09D8A9
P 14400 10325
AR Path="/5CB3762C/5D09D8A9" Ref="D?"  Part="1" 
AR Path="/5CB544F7/5D09D8A9" Ref="D6"  Part="1" 
F 0 "D6" H 14300 10375 50  0000 C CNN
F 1 "LED_uC" H 14600 10275 50  0001 C CNN
F 2 "LED_SMD:LED_0603_1608Metric_Pad1.05x0.95mm_HandSolder" V 14400 10325 50  0001 C CNN
F 3 "~" V 14400 10325 50  0001 C CNN
	1    14400 10325
	-1   0    0    1   
$EndComp
Wire Wire Line
	13450 10325 13975 10325
Wire Wire Line
	14175 10325 14300 10325
$Comp
L Device:R_Small R?
U 1 1 5D09D8B2
P 10425 7825
AR Path="/5CB3762C/5D09D8B2" Ref="R?"  Part="1" 
AR Path="/5CB544F7/5D09D8B2" Ref="R28"  Part="1" 
F 0 "R28" V 10475 7700 50  0000 C CNN
F 1 "680" V 10475 7975 50  0000 C CNN
F 2 "Resistor_SMD:R_0603_1608Metric_Pad1.05x0.95mm_HandSolder" H 10425 7825 50  0001 C CNN
F 3 "~" H 10425 7825 50  0001 C CNN
	1    10425 7825
	0    1    -1   0   
$EndComp
$Comp
L Device:LED_Small D?
U 1 1 5D09D8B8
P 10100 7825
AR Path="/5CB3762C/5D09D8B8" Ref="D?"  Part="1" 
AR Path="/5CB544F7/5D09D8B8" Ref="D7"  Part="1" 
F 0 "D7" H 9975 7775 50  0000 C CNN
F 1 "LED_uC" H 10300 7775 50  0001 C CNN
F 2 "LED_SMD:LED_0603_1608Metric_Pad1.05x0.95mm_HandSolder" V 10100 7825 50  0001 C CNN
F 3 "~" V 10100 7825 50  0001 C CNN
	1    10100 7825
	1    0    0    1   
$EndComp
Wire Wire Line
	11050 7825 10525 7825
Wire Wire Line
	10325 7825 10200 7825
Wire Wire Line
	11050 9925 10700 9925
Text Label 11025 9925 2    50   ~ 0
SPI4_SCK
Wire Wire Line
	11050 10125 10700 10125
Text Label 11025 10125 2    50   ~ 0
SPI4_NSS
Wire Wire Line
	11050 10225 10700 10225
Text Label 11050 10225 2    50   ~ 0
SPI4_MISO
Wire Wire Line
	11050 10325 10700 10325
Text Label 11050 10325 2    50   ~ 0
SPI4_MOSI
Text Label 10650 8625 0    50   ~ 0
SPI5_NSS
Text Label 10650 8725 0    50   ~ 0
SPI5_SCK
Text Label 10650 8825 0    50   ~ 0
SPI5_MISO
Text Label 10650 8925 0    50   ~ 0
SPI5_MOSI
Wire Wire Line
	13450 10925 13800 10925
Text Label 13450 10925 0    50   ~ 0
USART3_RTS
Wire Wire Line
	13450 7225 13800 7225
Text Label 13475 7225 0    50   ~ 0
I2C1_SDA
Wire Wire Line
	13450 7125 13800 7125
Text Label 13475 7125 0    50   ~ 0
I2C1_SCL
Wire Wire Line
	13450 6825 13800 6825
Text Label 13475 6825 0    50   ~ 0
I2C1_SMBA
Wire Wire Line
	13450 7425 13800 7425
Text Label 13475 7425 0    50   ~ 0
I2C2_SDA
Wire Wire Line
	13450 7325 13800 7325
Text Label 13475 7325 0    50   ~ 0
I2C2_SCL
Wire Wire Line
	13450 5325 13800 5325
Text Label 13475 5325 0    50   ~ 0
ADC1_IN7
Wire Wire Line
	9775 7825 10000 7825
Wire Wire Line
	9775 7625 10000 7625
$Comp
L power:GND #PWR052
U 1 1 5D2D3A36
P 9650 7325
F 0 "#PWR052" H 9650 7075 50  0001 C CNN
F 1 "GND" V 9655 7197 50  0000 R CNN
F 2 "" H 9650 7325 50  0001 C CNN
F 3 "" H 9650 7325 50  0001 C CNN
	1    9650 7325
	0    1    1    0   
$EndComp
$Comp
L Device:R_Small R?
U 1 1 5D3C2F00
P 2500 8050
AR Path="/5CB3762C/5D3C2F00" Ref="R?"  Part="1" 
AR Path="/5CB544F7/5D3C2F00" Ref="R19"  Part="1" 
F 0 "R19" H 2600 7975 50  0000 C CNN
F 1 "10k" H 2600 8075 50  0000 C CNN
F 2 "Resistor_SMD:R_0603_1608Metric_Pad1.05x0.95mm_HandSolder" H 2500 8050 50  0001 C CNN
F 3 "~" H 2500 8050 50  0001 C CNN
	1    2500 8050
	1    0    0    1   
$EndComp
Wire Wire Line
	2500 7625 2500 7950
Wire Wire Line
	2500 8150 2500 8425
Wire Wire Line
	2500 7625 2200 7625
Text Label 2200 7625 0    50   ~ 0
BOOT0
$Comp
L power:GND #PWR043
U 1 1 5D3EDEDC
P 2500 8425
F 0 "#PWR043" H 2500 8175 50  0001 C CNN
F 1 "GND" H 2505 8252 50  0000 C CNN
F 2 "" H 2500 8425 50  0001 C CNN
F 3 "" H 2500 8425 50  0001 C CNN
	1    2500 8425
	1    0    0    -1  
$EndComp
$Comp
L Device:R_Small R?
U 1 1 5D4042CD
P 3650 8200
AR Path="/5CB3762C/5D4042CD" Ref="R?"  Part="1" 
AR Path="/5CB544F7/5D4042CD" Ref="R21"  Part="1" 
F 0 "R21" H 3750 8150 50  0000 C CNN
F 1 "4.7k" H 3775 8250 50  0000 C CNN
F 2 "Resistor_SMD:R_0603_1608Metric_Pad1.05x0.95mm_HandSolder" H 3650 8200 50  0001 C CNN
F 3 "~" H 3650 8200 50  0001 C CNN
	1    3650 8200
	1    0    0    1   
$EndComp
$Comp
L power:+3.3V #PWR045
U 1 1 5D40449B
P 3825 7850
F 0 "#PWR045" H 3825 7700 50  0001 C CNN
F 1 "+3.3V" H 3840 8023 50  0000 C CNN
F 2 "" H 3825 7850 50  0001 C CNN
F 3 "" H 3825 7850 50  0001 C CNN
	1    3825 7850
	1    0    0    -1  
$EndComp
$Comp
L Device:R_Small R?
U 1 1 5D404761
P 3975 8200
AR Path="/5CB3762C/5D404761" Ref="R?"  Part="1" 
AR Path="/5CB544F7/5D404761" Ref="R22"  Part="1" 
F 0 "R22" H 4075 8150 50  0000 C CNN
F 1 "4.7k" H 4100 8250 50  0000 C CNN
F 2 "Resistor_SMD:R_0603_1608Metric_Pad1.05x0.95mm_HandSolder" H 3975 8200 50  0001 C CNN
F 3 "~" H 3975 8200 50  0001 C CNN
	1    3975 8200
	1    0    0    1   
$EndComp
Wire Wire Line
	3650 8100 3650 7925
Wire Wire Line
	3650 7925 3825 7925
Wire Wire Line
	3975 7925 3975 8100
Wire Wire Line
	3825 7850 3825 7925
Connection ~ 3825 7925
Wire Wire Line
	3825 7925 3975 7925
Wire Wire Line
	3650 8300 3650 8400
Wire Wire Line
	3650 8400 3175 8400
Text Label 3175 8400 0    50   ~ 0
I2C1_SCL
Wire Wire Line
	3975 8300 3975 8550
Wire Wire Line
	3975 8550 3175 8550
Text Label 3175 8550 0    50   ~ 0
I2C1_SDA
$Comp
L Device:R_Small R?
U 1 1 5D45F22B
P 5075 8200
AR Path="/5CB3762C/5D45F22B" Ref="R?"  Part="1" 
AR Path="/5CB544F7/5D45F22B" Ref="R23"  Part="1" 
F 0 "R23" H 5175 8150 50  0000 C CNN
F 1 "4.7k" H 5200 8250 50  0000 C CNN
F 2 "Resistor_SMD:R_0603_1608Metric_Pad1.05x0.95mm_HandSolder" H 5075 8200 50  0001 C CNN
F 3 "~" H 5075 8200 50  0001 C CNN
	1    5075 8200
	1    0    0    1   
$EndComp
$Comp
L power:+3.3V #PWR049
U 1 1 5D45F231
P 5250 7850
F 0 "#PWR049" H 5250 7700 50  0001 C CNN
F 1 "+3.3V" H 5265 8023 50  0000 C CNN
F 2 "" H 5250 7850 50  0001 C CNN
F 3 "" H 5250 7850 50  0001 C CNN
	1    5250 7850
	1    0    0    -1  
$EndComp
$Comp
L Device:R_Small R?
U 1 1 5D45F237
P 5400 8200
AR Path="/5CB3762C/5D45F237" Ref="R?"  Part="1" 
AR Path="/5CB544F7/5D45F237" Ref="R24"  Part="1" 
F 0 "R24" H 5500 8150 50  0000 C CNN
F 1 "4.7k" H 5525 8250 50  0000 C CNN
F 2 "Resistor_SMD:R_0603_1608Metric_Pad1.05x0.95mm_HandSolder" H 5400 8200 50  0001 C CNN
F 3 "~" H 5400 8200 50  0001 C CNN
	1    5400 8200
	1    0    0    1   
$EndComp
Wire Wire Line
	5075 8100 5075 7925
Wire Wire Line
	5075 7925 5250 7925
Wire Wire Line
	5400 7925 5400 8100
Wire Wire Line
	5250 7850 5250 7925
Connection ~ 5250 7925
Wire Wire Line
	5250 7925 5400 7925
Wire Wire Line
	5075 8300 5075 8400
Wire Wire Line
	5075 8400 4600 8400
Text Label 4600 8400 0    50   ~ 0
I2C2_SCL
Wire Wire Line
	5400 8300 5400 8550
Wire Wire Line
	5400 8550 4600 8550
Text Label 4600 8550 0    50   ~ 0
I2C2_SDA
Text Label 11000 6925 2    50   ~ 0
FMC_NE3
Text Label 11000 9725 2    50   ~ 0
FMC_BLO
Text Label 11000 9825 2    50   ~ 0
FMC_BL1
Wire Wire Line
	13450 4625 13800 4625
Text Label 13475 4625 0    50   ~ 0
ADC1_IN0
$Comp
L power:+3.3V #PWR057
U 1 1 5CE0284E
P 10200 6925
F 0 "#PWR057" H 10200 6775 50  0001 C CNN
F 1 "+3.3V" V 10200 7175 50  0000 C CNN
F 2 "" H 10200 6925 50  0001 C CNN
F 3 "" H 10200 6925 50  0001 C CNN
	1    10200 6925
	0    -1   -1   0   
$EndComp
$Comp
L Device:R_Small R?
U 1 1 5CE029BE
P 10450 6925
AR Path="/5CB3762C/5CE029BE" Ref="R?"  Part="1" 
AR Path="/5CB544F7/5CE029BE" Ref="R29"  Part="1" 
F 0 "R29" V 10500 6800 50  0000 C CNN
F 1 "10k" V 10500 7050 50  0000 C CNN
F 2 "Resistor_SMD:R_0603_1608Metric_Pad1.05x0.95mm_HandSolder" H 10450 6925 50  0001 C CNN
F 3 "~" H 10450 6925 50  0001 C CNN
	1    10450 6925
	0    1    -1   0   
$EndComp
Wire Wire Line
	10200 6925 10350 6925
Wire Wire Line
	10550 6925 10650 6925
Text Label 13475 5225 0    50   ~ 0
ADC1_IN6
Wire Wire Line
	11050 7425 10700 7425
Text Label 10875 7425 2    50   ~ 0
SW_A
Wire Wire Line
	11050 7525 10700 7525
Text Label 10875 7525 2    50   ~ 0
SW_B
Wire Wire Line
	11050 7225 10700 7225
Text Label 10875 7225 2    50   ~ 0
SW_C
Wire Wire Line
	13450 10425 13800 10425
Text Label 13625 10425 0    50   ~ 0
SW_D
Wire Wire Line
	13450 7525 13800 7525
Text Label 13600 7525 0    50   ~ 0
GPIO0
Text Label 13600 7825 0    50   ~ 0
GPIO3
Wire Wire Line
	13450 7825 13800 7825
Text Label 13600 7625 0    50   ~ 0
GPIO1
Wire Wire Line
	13450 7625 13800 7625
Text Label 13600 7725 0    50   ~ 0
GPIO2
Wire Wire Line
	13450 7725 13800 7725
NoConn ~ 11050 9525
NoConn ~ 11050 9425
NoConn ~ 11050 9025
NoConn ~ 11050 9125
NoConn ~ 11050 6325
NoConn ~ 11050 6425
NoConn ~ 13450 6325
NoConn ~ 13450 6425
NoConn ~ 13450 6525
Wire Wire Line
	11050 6525 10700 6525
Text Label 10900 6525 2    50   ~ 0
GPIO4
Text Label 10900 6825 2    50   ~ 0
GPIO7
Wire Wire Line
	11050 6825 10700 6825
Text Label 10900 6625 2    50   ~ 0
GPIO5
Wire Wire Line
	11050 6625 10700 6625
Text Label 10900 6725 2    50   ~ 0
GPIO6
Wire Wire Line
	11050 6725 10700 6725
NoConn ~ 11050 7025
NoConn ~ 11050 7125
NoConn ~ 13450 11025
Text Label 19675 8650 0    50   ~ 0
USART1_RX
Text Label 19675 8550 0    50   ~ 0
USART1_TX
Wire Wire Line
	18700 12075 18350 12075
Text Label 18675 12075 2    50   ~ 0
USART3_RX
Wire Wire Line
	18700 11975 18350 11975
Text Label 18675 11975 2    50   ~ 0
USART3_CK
Wire Wire Line
	19550 13300 19200 13300
Text Label 19225 13300 0    50   ~ 0
USART3_CTS
Wire Wire Line
	18700 12175 18350 12175
Text Label 18675 12175 2    50   ~ 0
USART3_TX
Wire Wire Line
	20925 9800 20575 9800
Text Label 20900 9800 2    50   ~ 0
ADC1_IN1
Wire Wire Line
	20925 9700 20575 9700
Text Label 20900 9700 2    50   ~ 0
ADC1_IN2
Wire Wire Line
	21425 9700 21775 9700
Text Label 21450 9700 0    50   ~ 0
ADC1_IN3
Wire Wire Line
	20925 9600 20575 9600
Text Label 20900 9600 2    50   ~ 0
DAC_OUT1
Wire Wire Line
	21425 9600 21775 9600
Text Label 21450 9600 0    50   ~ 0
DAC_OUT2
Wire Wire Line
	20925 9500 20575 9500
Wire Wire Line
	19200 11975 19550 11975
Text Label 19225 11975 0    50   ~ 0
TIM1_CH1
Wire Wire Line
	19200 12075 19550 12075
Text Label 19225 12075 0    50   ~ 0
TIM1_CH2
Wire Wire Line
	19200 12175 19550 12175
Text Label 19225 12175 0    50   ~ 0
TIM1_CH3
Wire Wire Line
	19200 12275 19550 12275
Text Label 19225 12275 0    50   ~ 0
TIM1_CH4
Wire Wire Line
	18350 12275 18700 12275
Text Label 18350 12275 0    50   ~ 0
TIM1_ETR
Wire Wire Line
	19550 13200 19200 13200
Text Label 19225 13200 0    50   ~ 0
USART3_RTS
Wire Wire Line
	18750 9500 18400 9500
Text Label 18725 9500 2    50   ~ 0
I2C1_SDA
Wire Wire Line
	18750 9600 18400 9600
Text Label 18725 9600 2    50   ~ 0
I2C1_SCL
Wire Wire Line
	19600 9800 19250 9800
Text Label 19275 9800 0    50   ~ 0
I2C1_SMBA
Wire Wire Line
	19200 13400 19550 13400
Text Label 19225 13400 0    50   ~ 0
I2C2_SDA
Wire Wire Line
	19200 13500 19550 13500
Text Label 19225 13500 0    50   ~ 0
I2C2_SCL
Wire Wire Line
	21425 9500 21775 9500
Text Label 21450 9500 0    50   ~ 0
ADC1_IN7
Wire Wire Line
	21425 9800 21775 9800
Text Label 21450 9800 0    50   ~ 0
ADC1_IN0
Text Label 20900 9500 2    50   ~ 0
ADC1_IN6
Wire Wire Line
	18700 13500 18350 13500
Text Label 18550 13500 2    50   ~ 0
GPIO0
Text Label 18550 13200 2    50   ~ 0
GPIO3
Wire Wire Line
	18700 13200 18350 13200
Text Label 18550 13400 2    50   ~ 0
GPIO1
Wire Wire Line
	18700 13400 18350 13400
Text Label 18550 13300 2    50   ~ 0
GPIO2
Wire Wire Line
	18700 13300 18350 13300
NoConn ~ 13450 9925
Wire Wire Line
	19600 9700 19250 9700
Text Label 19600 9700 2    50   ~ 0
BOOT0
Wire Wire Line
	18750 10950 18400 10950
Text Label 18700 10950 2    50   ~ 0
SPI4_SCK
Wire Wire Line
	18750 10650 18400 10650
Text Label 18700 10650 2    50   ~ 0
SPI4_NSS
Wire Wire Line
	18750 10850 18400 10850
Text Label 18725 10850 2    50   ~ 0
SPI4_MISO
Wire Wire Line
	18750 10750 18400 10750
Text Label 18725 10750 2    50   ~ 0
SPI4_MOSI
Wire Wire Line
	19250 10650 19600 10650
Text Label 19275 10650 0    50   ~ 0
SPI5_NSS
Wire Wire Line
	19250 10950 19600 10950
Text Label 19275 10950 0    50   ~ 0
SPI5_SCK
Wire Wire Line
	19250 10850 19600 10850
Text Label 19275 10850 0    50   ~ 0
SPI5_MISO
Wire Wire Line
	19250 10750 19600 10750
Text Label 19275 10750 0    50   ~ 0
SPI5_MOSI
Wire Wire Line
	21375 11975 21725 11975
Text Label 21525 11975 0    50   ~ 0
GPIO4
Text Label 21525 12275 0    50   ~ 0
GPIO7
Wire Wire Line
	21375 12275 21725 12275
Text Label 21525 12075 0    50   ~ 0
GPIO5
Wire Wire Line
	21375 12075 21725 12075
Text Label 21525 12175 0    50   ~ 0
GPIO6
Wire Wire Line
	21375 12175 21725 12175
$Comp
L power:+3.3V #PWR044
U 1 1 5DB091D3
P 2500 10325
F 0 "#PWR044" H 2500 10175 50  0001 C CNN
F 1 "+3.3V" H 2515 10498 50  0000 C CNN
F 2 "" H 2500 10325 50  0001 C CNN
F 3 "" H 2500 10325 50  0001 C CNN
	1    2500 10325
	1    0    0    -1  
$EndComp
$Comp
L Device:C_Small C25
U 1 1 5DB091D9
P 3475 11125
F 0 "C25" V 3350 11100 50  0000 L CNN
F 1 "100nF" V 3575 11025 50  0000 L CNN
F 2 "Capacitor_SMD:C_0603_1608Metric_Pad1.05x0.95mm_HandSolder" H 3475 11125 50  0001 C CNN
F 3 "~" H 3475 11125 50  0001 C CNN
	1    3475 11125
	0    1    1    0   
$EndComp
$Comp
L power:GND #PWR048
U 1 1 5DB091DF
P 3900 11225
F 0 "#PWR048" H 3900 10975 50  0001 C CNN
F 1 "GND" H 3905 11052 50  0000 C CNN
F 2 "" H 3900 11225 50  0001 C CNN
F 3 "" H 3900 11225 50  0001 C CNN
	1    3900 11225
	1    0    0    -1  
$EndComp
$Comp
L Device:R_Small R?
U 1 1 5DB091E5
P 2500 10750
AR Path="/5CB3762C/5DB091E5" Ref="R?"  Part="1" 
AR Path="/5CB544F7/5DB091E5" Ref="R20"  Part="1" 
F 0 "R20" H 2600 10675 50  0000 C CNN
F 1 "10k" H 2600 10775 50  0000 C CNN
F 2 "Resistor_SMD:R_0603_1608Metric_Pad1.05x0.95mm_HandSolder" H 2500 10750 50  0001 C CNN
F 3 "~" H 2500 10750 50  0001 C CNN
	1    2500 10750
	1    0    0    1   
$EndComp
Text Notes 3225 10175 0    50   ~ 0
EG5350TR-ND
Wire Wire Line
	3575 11125 3900 11125
Wire Wire Line
	3900 10450 3675 10450
Wire Wire Line
	3675 10650 3900 10650
Wire Wire Line
	3900 10450 3900 10650
Connection ~ 3900 10650
Wire Wire Line
	3900 10650 3900 11125
Wire Wire Line
	3900 11225 3900 11125
Connection ~ 3900 11125
Wire Wire Line
	3275 10450 3050 10450
Wire Wire Line
	3050 10450 3050 10650
Wire Wire Line
	3050 11125 3375 11125
Wire Wire Line
	3275 10650 3050 10650
Connection ~ 3050 10650
Wire Wire Line
	3050 10650 3050 11125
Wire Wire Line
	2500 10325 2500 10650
Wire Wire Line
	2500 10850 2500 11125
Wire Wire Line
	2500 11125 3050 11125
Connection ~ 3050 11125
Wire Wire Line
	2225 11125 2500 11125
Connection ~ 2500 11125
Text Label 2225 11125 0    50   ~ 0
NRST
Text Label 20225 8650 0    50   ~ 0
TXD_FT
Text Label 20225 8550 0    50   ~ 0
RXD_FT
Wire Wire Line
	19650 8550 20475 8550
Wire Wire Line
	19650 8650 20475 8650
$Comp
L Connector_Generic:Conn_02x06_Counter_Clockwise J9
U 1 1 5CCD963E
P 18950 9700
F 0 "J9" H 19000 10025 50  0000 C CNN
F 1 "Conn_02x06" H 18950 9275 50  0000 C CNN
F 2 "pmods:Pmod_2x06_P2.54mm_fixed" H 18950 9700 50  0001 C CNN
F 3 "~" H 18950 9700 50  0001 C CNN
	1    18950 9700
	1    0    0    -1  
$EndComp
Text HLabel 14450 6125 2    50   Input ~ 0
TDI_FT
Text HLabel 14450 6625 2    50   Output ~ 0
TDI_FPGA
Text HLabel 14450 6025 2    50   Input ~ 0
TCK
Text HLabel 14450 5925 2    50   Input ~ 0
TMS
Text HLabel 14450 7025 2    50   Input ~ 0
TXD_FT
Text HLabel 14450 6925 2    50   Output ~ 0
RXD_FT
Wire Wire Line
	13450 6925 14450 6925
Wire Wire Line
	13450 7025 14450 7025
Wire Wire Line
	13450 6625 14450 6625
Wire Wire Line
	13450 5925 14450 5925
Wire Wire Line
	13450 6025 14450 6025
Wire Wire Line
	13450 6125 14450 6125
Text HLabel 10600 8025 0    50   Output ~ 0
FMC_A0
Text HLabel 10600 8125 0    50   Output ~ 0
FMC_A1
Text HLabel 10600 8225 0    50   Output ~ 0
FMC_A2
Text HLabel 10600 8325 0    50   Output ~ 0
FMC_A3
Text HLabel 10600 8425 0    50   Output ~ 0
FMC_A4
Text HLabel 10600 8525 0    50   Output ~ 0
FMC_A5
Text HLabel 10600 9225 0    50   Output ~ 0
FMC_A6
Text HLabel 10600 9325 0    50   Output ~ 0
FMC_A7
Text HLabel 10600 10425 0    50   BiDi ~ 0
FMC_D4
Text HLabel 10600 10525 0    50   BiDi ~ 0
FMC_D5
Text HLabel 10600 10625 0    50   BiDi ~ 0
FMC_D6
Text HLabel 10600 10725 0    50   BiDi ~ 0
FMC_D7
Text HLabel 10600 10825 0    50   BiDi ~ 0
FMC_D8
Text HLabel 10600 10925 0    50   BiDi ~ 0
FMC_D9
Text HLabel 10600 11025 0    50   BiDi ~ 0
FMC_D10
Text HLabel 10600 11125 0    50   BiDi ~ 0
FMC_D11
Text HLabel 10600 11225 0    50   BiDi ~ 0
FMC_D12
Text HLabel 13925 11125 2    50   BiDi ~ 0
FMC_D0
Text HLabel 13925 11225 2    50   BiDi ~ 0
FMC_D1
Text HLabel 13925 10625 2    50   BiDi ~ 0
FMC_D14
Text HLabel 13925 10725 2    50   BiDi ~ 0
FMC_D15
Text HLabel 13925 10525 2    50   BiDi ~ 0
FMC_D13
Text HLabel 10600 9725 0    50   Output ~ 0
FMC_BL0
Text HLabel 10600 9825 0    50   Output ~ 0
FMC_BL1
Text HLabel 13925 10025 2    50   Output ~ 0
FMC_CLK
Text HLabel 13925 10125 2    50   Output ~ 0
FMC_NOE
Text HLabel 13925 10225 2    50   Output ~ 0
FMC_NWE
Text HLabel 13925 9825 2    50   BiDi ~ 0
FMC_D3
Text HLabel 13925 9725 2    50   BiDi ~ 0
FMC_D2
Wire Wire Line
	10600 8025 11050 8025
Wire Wire Line
	10600 8125 11050 8125
Wire Wire Line
	10600 8225 11050 8225
Wire Wire Line
	10600 8325 11050 8325
Wire Wire Line
	10600 8425 11050 8425
Wire Wire Line
	10600 8525 11050 8525
Wire Wire Line
	10600 9225 11050 9225
Wire Wire Line
	10600 9325 11050 9325
Wire Wire Line
	10600 9725 11050 9725
Wire Wire Line
	10600 9825 11050 9825
Wire Wire Line
	10600 10425 11050 10425
Wire Wire Line
	10600 10525 11050 10525
Wire Wire Line
	10600 10625 11050 10625
Wire Wire Line
	10600 10725 11050 10725
Wire Wire Line
	10600 10825 11050 10825
Wire Wire Line
	10600 10925 11050 10925
Wire Wire Line
	10600 11025 11050 11025
Wire Wire Line
	10600 11125 11050 11125
Wire Wire Line
	10600 11225 11050 11225
Wire Wire Line
	13450 9725 13925 9725
Wire Wire Line
	13450 9825 13925 9825
Wire Wire Line
	13450 10025 13925 10025
Wire Wire Line
	13450 10125 13925 10125
Wire Wire Line
	13450 10225 13925 10225
Wire Wire Line
	13450 10525 13925 10525
Wire Wire Line
	13450 10625 13925 10625
Wire Wire Line
	13450 10725 13925 10725
Wire Wire Line
	13450 11125 13925 11125
Wire Wire Line
	13450 11225 13925 11225
Wire Wire Line
	18750 9800 18400 9800
Text Label 18750 9800 2    50   ~ 0
USART1_TX
Wire Wire Line
	18750 9700 18400 9700
Text Label 18750 9700 2    50   ~ 0
USART1_RX
$Comp
L Connector_Generic:Conn_02x06_Counter_Clockwise J12
U 1 1 5D22AA4C
P 21125 9700
F 0 "J12" H 21150 10025 50  0000 C CNN
F 1 "Conn_02x06" H 21125 9275 50  0000 C CNN
F 2 "pmods:Pmod_2x06_P2.54mm_fixed" H 21125 9700 50  0001 C CNN
F 3 "~" H 21125 9700 50  0001 C CNN
	1    21125 9700
	1    0    0    -1  
$EndComp
$Comp
L Connector_Generic:Conn_02x06_Counter_Clockwise J10
U 1 1 5D22AB08
P 18950 10850
F 0 "J10" H 19000 11150 50  0000 C CNN
F 1 "Conn_02x06" H 18950 10425 50  0000 C CNN
F 2 "pmods:Pmod_2x06_P2.54mm_fixed" H 18950 10850 50  0001 C CNN
F 3 "~" H 18950 10850 50  0001 C CNN
	1    18950 10850
	1    0    0    -1  
$EndComp
$Comp
L power:GND #PWR069
U 1 1 5D22B6CC
P 18400 9900
F 0 "#PWR069" H 18400 9650 50  0001 C CNN
F 1 "GND" V 18405 9772 50  0000 R CNN
F 2 "" H 18400 9900 50  0001 C CNN
F 3 "" H 18400 9900 50  0001 C CNN
	1    18400 9900
	0    1    -1   0   
$EndComp
Wire Wire Line
	18400 9900 18750 9900
Wire Wire Line
	18400 10000 18750 10000
$Comp
L power:+3.3V #PWR070
U 1 1 5D22B6D4
P 18400 10000
F 0 "#PWR070" H 18400 9850 50  0001 C CNN
F 1 "+3.3V" V 18400 10225 50  0000 C CNN
F 2 "" H 18400 10000 50  0001 C CNN
F 3 "" H 18400 10000 50  0001 C CNN
	1    18400 10000
	0    -1   -1   0   
$EndComp
$Comp
L power:+3.3V #PWR079
U 1 1 5D251FB6
P 19600 10000
F 0 "#PWR079" H 19600 9850 50  0001 C CNN
F 1 "+3.3V" V 19600 10225 50  0000 C CNN
F 2 "" H 19600 10000 50  0001 C CNN
F 3 "" H 19600 10000 50  0001 C CNN
	1    19600 10000
	0    1    1    0   
$EndComp
$Comp
L power:GND #PWR078
U 1 1 5D251FBC
P 19600 9900
F 0 "#PWR078" H 19600 9650 50  0001 C CNN
F 1 "GND" V 19605 9772 50  0000 R CNN
F 2 "" H 19600 9900 50  0001 C CNN
F 3 "" H 19600 9900 50  0001 C CNN
	1    19600 9900
	0    -1   1    0   
$EndComp
Wire Wire Line
	19250 9900 19600 9900
Wire Wire Line
	19250 10000 19600 10000
$Comp
L power:GND #PWR085
U 1 1 5D3F38E2
P 20575 9900
F 0 "#PWR085" H 20575 9650 50  0001 C CNN
F 1 "GND" V 20580 9772 50  0000 R CNN
F 2 "" H 20575 9900 50  0001 C CNN
F 3 "" H 20575 9900 50  0001 C CNN
	1    20575 9900
	0    1    -1   0   
$EndComp
Wire Wire Line
	20575 9900 20925 9900
Wire Wire Line
	20575 10000 20925 10000
$Comp
L power:+3.3V #PWR086
U 1 1 5D3F38EA
P 20575 10000
F 0 "#PWR086" H 20575 9850 50  0001 C CNN
F 1 "+3.3V" V 20575 10225 50  0000 C CNN
F 2 "" H 20575 10000 50  0001 C CNN
F 3 "" H 20575 10000 50  0001 C CNN
	1    20575 10000
	0    -1   -1   0   
$EndComp
$Comp
L power:+3.3V #PWR090
U 1 1 5D419F53
P 21775 10000
F 0 "#PWR090" H 21775 9850 50  0001 C CNN
F 1 "+3.3V" V 21775 10225 50  0000 C CNN
F 2 "" H 21775 10000 50  0001 C CNN
F 3 "" H 21775 10000 50  0001 C CNN
	1    21775 10000
	0    1    1    0   
$EndComp
$Comp
L power:GND #PWR089
U 1 1 5D419F59
P 21775 9900
F 0 "#PWR089" H 21775 9650 50  0001 C CNN
F 1 "GND" V 21780 9772 50  0000 R CNN
F 2 "" H 21775 9900 50  0001 C CNN
F 3 "" H 21775 9900 50  0001 C CNN
	1    21775 9900
	0    -1   1    0   
$EndComp
Wire Wire Line
	21425 9900 21775 9900
Wire Wire Line
	21425 10000 21775 10000
$Comp
L power:GND #PWR071
U 1 1 5D576E72
P 18400 11050
F 0 "#PWR071" H 18400 10800 50  0001 C CNN
F 1 "GND" V 18405 10922 50  0000 R CNN
F 2 "" H 18400 11050 50  0001 C CNN
F 3 "" H 18400 11050 50  0001 C CNN
	1    18400 11050
	0    1    -1   0   
$EndComp
Wire Wire Line
	18400 11050 18750 11050
Wire Wire Line
	18400 11150 18750 11150
$Comp
L power:+3.3V #PWR072
U 1 1 5D576E7A
P 18400 11150
F 0 "#PWR072" H 18400 11000 50  0001 C CNN
F 1 "+3.3V" V 18400 11375 50  0000 C CNN
F 2 "" H 18400 11150 50  0001 C CNN
F 3 "" H 18400 11150 50  0001 C CNN
	1    18400 11150
	0    -1   -1   0   
$EndComp
$Comp
L power:+3.3V #PWR080
U 1 1 5D59E180
P 19600 11150
F 0 "#PWR080" H 19600 11000 50  0001 C CNN
F 1 "+3.3V" V 19600 11375 50  0000 C CNN
F 2 "" H 19600 11150 50  0001 C CNN
F 3 "" H 19600 11150 50  0001 C CNN
	1    19600 11150
	0    1    1    0   
$EndComp
$Comp
L power:GND #PWR081
U 1 1 5D59E186
P 19625 11050
F 0 "#PWR081" H 19625 10800 50  0001 C CNN
F 1 "GND" V 19630 10922 50  0000 R CNN
F 2 "" H 19625 11050 50  0001 C CNN
F 3 "" H 19625 11050 50  0001 C CNN
	1    19625 11050
	0    -1   1    0   
$EndComp
Wire Wire Line
	19250 11150 19600 11150
$Comp
L Connector_Generic:Conn_02x06_Counter_Clockwise J7
U 1 1 5D8B7D26
P 18900 12175
F 0 "J7" H 18950 12500 50  0000 C CNN
F 1 "Conn_02x06" H 18900 11750 50  0000 C CNN
F 2 "pmods:Pmod_2x06_P2.54mm_fixed" H 18900 12175 50  0001 C CNN
F 3 "~" H 18900 12175 50  0001 C CNN
	1    18900 12175
	1    0    0    -1  
$EndComp
$Comp
L Connector_Generic:Conn_02x06_Counter_Clockwise J11
U 1 1 5D8B7D30
P 21075 12175
F 0 "J11" H 21100 12500 50  0000 C CNN
F 1 "Conn_02x06" H 21075 11750 50  0000 C CNN
F 2 "pmods:Pmod_2x06_P2.54mm_fixed" H 21075 12175 50  0001 C CNN
F 3 "~" H 21075 12175 50  0001 C CNN
	1    21075 12175
	1    0    0    -1  
$EndComp
$Comp
L Connector_Generic:Conn_02x06_Counter_Clockwise J8
U 1 1 5D8B7D36
P 18900 13400
F 0 "J8" H 18950 13700 50  0000 C CNN
F 1 "Conn_02x06" H 18900 12975 50  0000 C CNN
F 2 "pmods:Pmod_2x06_P2.54mm_fixed" H 18900 13400 50  0001 C CNN
F 3 "~" H 18900 13400 50  0001 C CNN
	1    18900 13400
	1    0    0    -1  
$EndComp
$Comp
L power:GND #PWR065
U 1 1 5D8B7D3C
P 18350 12375
F 0 "#PWR065" H 18350 12125 50  0001 C CNN
F 1 "GND" V 18355 12247 50  0000 R CNN
F 2 "" H 18350 12375 50  0001 C CNN
F 3 "" H 18350 12375 50  0001 C CNN
	1    18350 12375
	0    1    -1   0   
$EndComp
Wire Wire Line
	18350 12375 18700 12375
Wire Wire Line
	18350 12475 18700 12475
$Comp
L power:+3.3V #PWR066
U 1 1 5D8B7D44
P 18350 12475
F 0 "#PWR066" H 18350 12325 50  0001 C CNN
F 1 "+3.3V" V 18350 12700 50  0000 C CNN
F 2 "" H 18350 12475 50  0001 C CNN
F 3 "" H 18350 12475 50  0001 C CNN
	1    18350 12475
	0    -1   -1   0   
$EndComp
$Comp
L power:+3.3V #PWR075
U 1 1 5D8B7D4A
P 19550 12475
F 0 "#PWR075" H 19550 12325 50  0001 C CNN
F 1 "+3.3V" V 19550 12700 50  0000 C CNN
F 2 "" H 19550 12475 50  0001 C CNN
F 3 "" H 19550 12475 50  0001 C CNN
	1    19550 12475
	0    1    1    0   
$EndComp
$Comp
L power:GND #PWR074
U 1 1 5D8B7D50
P 19550 12375
F 0 "#PWR074" H 19550 12125 50  0001 C CNN
F 1 "GND" V 19555 12247 50  0000 R CNN
F 2 "" H 19550 12375 50  0001 C CNN
F 3 "" H 19550 12375 50  0001 C CNN
	1    19550 12375
	0    -1   1    0   
$EndComp
Wire Wire Line
	19200 12375 19550 12375
Wire Wire Line
	19200 12475 19550 12475
$Comp
L power:GND #PWR083
U 1 1 5D8B7D58
P 20525 12375
F 0 "#PWR083" H 20525 12125 50  0001 C CNN
F 1 "GND" V 20530 12247 50  0000 R CNN
F 2 "" H 20525 12375 50  0001 C CNN
F 3 "" H 20525 12375 50  0001 C CNN
	1    20525 12375
	0    1    -1   0   
$EndComp
Wire Wire Line
	20525 12375 20875 12375
Wire Wire Line
	20525 12475 20875 12475
$Comp
L power:+3.3V #PWR084
U 1 1 5D8B7D60
P 20525 12475
F 0 "#PWR084" H 20525 12325 50  0001 C CNN
F 1 "+3.3V" V 20525 12700 50  0000 C CNN
F 2 "" H 20525 12475 50  0001 C CNN
F 3 "" H 20525 12475 50  0001 C CNN
	1    20525 12475
	0    -1   -1   0   
$EndComp
$Comp
L power:+3.3V #PWR088
U 1 1 5D8B7D66
P 21725 12475
F 0 "#PWR088" H 21725 12325 50  0001 C CNN
F 1 "+3.3V" V 21725 12700 50  0000 C CNN
F 2 "" H 21725 12475 50  0001 C CNN
F 3 "" H 21725 12475 50  0001 C CNN
	1    21725 12475
	0    1    1    0   
$EndComp
$Comp
L power:GND #PWR087
U 1 1 5D8B7D6C
P 21725 12375
F 0 "#PWR087" H 21725 12125 50  0001 C CNN
F 1 "GND" V 21730 12247 50  0000 R CNN
F 2 "" H 21725 12375 50  0001 C CNN
F 3 "" H 21725 12375 50  0001 C CNN
	1    21725 12375
	0    -1   1    0   
$EndComp
Wire Wire Line
	21375 12375 21725 12375
Wire Wire Line
	21375 12475 21725 12475
$Comp
L power:GND #PWR067
U 1 1 5D8B7D74
P 18350 13600
F 0 "#PWR067" H 18350 13350 50  0001 C CNN
F 1 "GND" V 18355 13472 50  0000 R CNN
F 2 "" H 18350 13600 50  0001 C CNN
F 3 "" H 18350 13600 50  0001 C CNN
	1    18350 13600
	0    1    -1   0   
$EndComp
Wire Wire Line
	18350 13600 18700 13600
Wire Wire Line
	18350 13700 18700 13700
$Comp
L power:+3.3V #PWR068
U 1 1 5D8B7D7C
P 18350 13700
F 0 "#PWR068" H 18350 13550 50  0001 C CNN
F 1 "+3.3V" V 18350 13925 50  0000 C CNN
F 2 "" H 18350 13700 50  0001 C CNN
F 3 "" H 18350 13700 50  0001 C CNN
	1    18350 13700
	0    -1   -1   0   
$EndComp
$Comp
L power:+3.3V #PWR077
U 1 1 5D8B7D82
P 19550 13700
F 0 "#PWR077" H 19550 13550 50  0001 C CNN
F 1 "+3.3V" V 19550 13925 50  0000 C CNN
F 2 "" H 19550 13700 50  0001 C CNN
F 3 "" H 19550 13700 50  0001 C CNN
	1    19550 13700
	0    1    1    0   
$EndComp
$Comp
L power:GND #PWR076
U 1 1 5D8B7D88
P 19550 13600
F 0 "#PWR076" H 19550 13350 50  0001 C CNN
F 1 "GND" V 19555 13472 50  0000 R CNN
F 2 "" H 19550 13600 50  0001 C CNN
F 3 "" H 19550 13600 50  0001 C CNN
	1    19550 13600
	0    -1   1    0   
$EndComp
Wire Wire Line
	19200 13600 19550 13600
Wire Wire Line
	19200 13700 19550 13700
$Comp
L Device:R_Small R?
U 1 1 5F2E83F6
P 20975 4025
AR Path="/5CB3762C/5F2E83F6" Ref="R?"  Part="1" 
AR Path="/5CB544F7/5F2E83F6" Ref="R34"  Part="1" 
AR Path="/5CB37600/5F2E83F6" Ref="R?"  Part="1" 
F 0 "R34" V 21025 3825 50  0000 C CNN
F 1 "330" V 21025 4175 50  0000 C CNN
F 2 "Resistor_SMD:R_0603_1608Metric_Pad1.05x0.95mm_HandSolder" H 20975 4025 50  0001 C CNN
F 3 "~" H 20975 4025 50  0001 C CNN
	1    20975 4025
	0    1    -1   0   
$EndComp
$Comp
L power:+3.3V #PWR073
U 1 1 5F2E83FD
P 18550 3875
AR Path="/5CB544F7/5F2E83FD" Ref="#PWR073"  Part="1" 
AR Path="/5CB37600/5F2E83FD" Ref="#PWR?"  Part="1" 
F 0 "#PWR073" H 18550 3725 50  0001 C CNN
F 1 "+3.3V" H 18550 4050 50  0000 C CNN
F 2 "" H 18550 3875 50  0001 C CNN
F 3 "" H 18550 3875 50  0001 C CNN
	1    18550 3875
	1    0    0    -1  
$EndComp
$Comp
L power:GND #PWR082
U 1 1 5F2E8403
P 20250 7500
AR Path="/5CB544F7/5F2E8403" Ref="#PWR082"  Part="1" 
AR Path="/5CB37600/5F2E8403" Ref="#PWR?"  Part="1" 
F 0 "#PWR082" H 20250 7250 50  0001 C CNN
F 1 "GND" H 20325 7350 50  0000 R CNN
F 2 "" H 20250 7500 50  0001 C CNN
F 3 "" H 20250 7500 50  0001 C CNN
	1    20250 7500
	1    0    0    -1  
$EndComp
$Comp
L Device:R_Small R?
U 1 1 5F2E8409
P 19875 7100
AR Path="/5CB3762C/5F2E8409" Ref="R?"  Part="1" 
AR Path="/5CB544F7/5F2E8409" Ref="R30"  Part="1" 
AR Path="/5CB37600/5F2E8409" Ref="R?"  Part="1" 
F 0 "R30" H 19975 7050 50  0000 C CNN
F 1 "220k" H 19975 7225 50  0000 C CNN
F 2 "Resistor_SMD:R_0603_1608Metric_Pad1.05x0.95mm_HandSolder" H 19875 7100 50  0001 C CNN
F 3 "~" H 19875 7100 50  0001 C CNN
	1    19875 7100
	1    0    0    1   
$EndComp
Text Label 21600 4025 2    50   ~ 0
SW_A
Text Label 21600 4925 2    50   ~ 0
SW_B
Text Label 21600 5825 2    50   ~ 0
SW_C
Text Label 21600 6750 2    50   ~ 0
SW_D
$Comp
L Device:R_Small R?
U 1 1 5F2E8414
P 20975 4925
AR Path="/5CB3762C/5F2E8414" Ref="R?"  Part="1" 
AR Path="/5CB544F7/5F2E8414" Ref="R35"  Part="1" 
AR Path="/5CB37600/5F2E8414" Ref="R?"  Part="1" 
F 0 "R35" V 21050 4725 50  0000 C CNN
F 1 "330" V 21050 5100 50  0000 C CNN
F 2 "Resistor_SMD:R_0603_1608Metric_Pad1.05x0.95mm_HandSolder" H 20975 4925 50  0001 C CNN
F 3 "~" H 20975 4925 50  0001 C CNN
	1    20975 4925
	0    1    -1   0   
$EndComp
$Comp
L Device:R_Small R?
U 1 1 5F2E841B
P 20125 7100
AR Path="/5CB3762C/5F2E841B" Ref="R?"  Part="1" 
AR Path="/5CB544F7/5F2E841B" Ref="R31"  Part="1" 
AR Path="/5CB37600/5F2E841B" Ref="R?"  Part="1" 
F 0 "R31" H 20225 7050 50  0000 C CNN
F 1 "220k" H 20225 7225 50  0000 C CNN
F 2 "Resistor_SMD:R_0603_1608Metric_Pad1.05x0.95mm_HandSolder" H 20125 7100 50  0001 C CNN
F 3 "~" H 20125 7100 50  0001 C CNN
	1    20125 7100
	1    0    0    1   
$EndComp
$Comp
L Device:R_Small R?
U 1 1 5F2E8422
P 20375 7100
AR Path="/5CB3762C/5F2E8422" Ref="R?"  Part="1" 
AR Path="/5CB544F7/5F2E8422" Ref="R32"  Part="1" 
AR Path="/5CB37600/5F2E8422" Ref="R?"  Part="1" 
F 0 "R32" H 20475 7050 50  0000 C CNN
F 1 "220k" H 20475 7225 50  0000 C CNN
F 2 "Resistor_SMD:R_0603_1608Metric_Pad1.05x0.95mm_HandSolder" H 20375 7100 50  0001 C CNN
F 3 "~" H 20375 7100 50  0001 C CNN
	1    20375 7100
	1    0    0    1   
$EndComp
$Comp
L Device:R_Small R?
U 1 1 5F2E8429
P 20625 7100
AR Path="/5CB3762C/5F2E8429" Ref="R?"  Part="1" 
AR Path="/5CB544F7/5F2E8429" Ref="R33"  Part="1" 
AR Path="/5CB37600/5F2E8429" Ref="R?"  Part="1" 
F 0 "R33" H 20725 7050 50  0000 C CNN
F 1 "220k" H 20725 7225 50  0000 C CNN
F 2 "Resistor_SMD:R_0603_1608Metric_Pad1.05x0.95mm_HandSolder" H 20625 7100 50  0001 C CNN
F 3 "~" H 20625 7100 50  0001 C CNN
	1    20625 7100
	1    0    0    1   
$EndComp
Wire Wire Line
	19875 7200 19875 7425
Wire Wire Line
	19875 7425 20125 7425
Wire Wire Line
	20625 7425 20625 7200
Wire Wire Line
	20125 7200 20125 7425
Connection ~ 20125 7425
Wire Wire Line
	20125 7425 20250 7425
Wire Wire Line
	20375 7200 20375 7425
Connection ~ 20375 7425
Wire Wire Line
	20375 7425 20625 7425
Wire Wire Line
	20250 7500 20250 7425
Connection ~ 20250 7425
Wire Wire Line
	20250 7425 20375 7425
$Comp
L Device:R_Small R?
U 1 1 5F2E8451
P 20975 6750
AR Path="/5CB3762C/5F2E8451" Ref="R?"  Part="1" 
AR Path="/5CB544F7/5F2E8451" Ref="R37"  Part="1" 
AR Path="/5CB37600/5F2E8451" Ref="R?"  Part="1" 
F 0 "R37" V 21025 6550 50  0000 C CNN
F 1 "330" V 21025 6925 50  0000 C CNN
F 2 "Resistor_SMD:R_0603_1608Metric_Pad1.05x0.95mm_HandSolder" H 20975 6750 50  0001 C CNN
F 3 "~" H 20975 6750 50  0001 C CNN
	1    20975 6750
	0    1    -1   0   
$EndComp
$Comp
L Device:R_Small R?
U 1 1 5F2E8458
P 20975 5825
AR Path="/5CB3762C/5F2E8458" Ref="R?"  Part="1" 
AR Path="/5CB544F7/5F2E8458" Ref="R36"  Part="1" 
AR Path="/5CB37600/5F2E8458" Ref="R?"  Part="1" 
F 0 "R36" V 21050 5625 50  0000 C CNN
F 1 "330" V 21050 5975 50  0000 C CNN
F 2 "Resistor_SMD:R_0603_1608Metric_Pad1.05x0.95mm_HandSolder" H 20975 5825 50  0001 C CNN
F 3 "~" H 20975 5825 50  0001 C CNN
	1    20975 5825
	0    1    -1   0   
$EndComp
Wire Wire Line
	21075 6750 21700 6750
Wire Wire Line
	21075 4025 21725 4025
Wire Wire Line
	21075 5825 21700 5825
Wire Wire Line
	19875 7000 19875 6750
Connection ~ 19875 6750
Wire Wire Line
	19875 6750 20875 6750
Wire Wire Line
	18975 4025 18550 4025
Wire Wire Line
	18550 3875 18550 4025
Connection ~ 18550 4025
Wire Wire Line
	21075 4925 21700 4925
Text Label 13550 6725 0    50   ~ 0
NJTRST
Text HLabel 14450 6725 2    50   Input ~ 0
NJTRST
Wire Wire Line
	13450 6725 14450 6725
Text HLabel 10250 7025 0    50   Output ~ 0
FMC_NE3
Wire Wire Line
	10250 7025 10650 7025
Wire Wire Line
	10650 7025 10650 6925
Connection ~ 10650 6925
Wire Wire Line
	10650 6925 11050 6925
Text Label 13550 9725 0    50   ~ 0
FMC_D2
$Comp
L Device:C_Small C42
U 1 1 5CD9AD97
P 19175 7000
F 0 "C42" V 19075 6875 50  0000 L CNN
F 1 "100nF" V 19275 6900 50  0000 L CNN
F 2 "Capacitor_SMD:C_0603_1608Metric_Pad1.05x0.95mm_HandSolder" H 19175 7000 50  0001 C CNN
F 3 "~" H 19175 7000 50  0001 C CNN
	1    19175 7000
	0    1    1    0   
$EndComp
Wire Wire Line
	18550 6750 18925 6750
Wire Wire Line
	18925 6750 18925 7000
Wire Wire Line
	18925 7000 19075 7000
Wire Wire Line
	19275 7000 19425 7000
Wire Wire Line
	19425 7000 19425 6750
Wire Wire Line
	19425 6750 19875 6750
$Comp
L Device:C_Small C41
U 1 1 5CEBFD12
P 19175 6075
F 0 "C41" V 19075 5950 50  0000 L CNN
F 1 "100nF" V 19275 5975 50  0000 L CNN
F 2 "Capacitor_SMD:C_0603_1608Metric_Pad1.05x0.95mm_HandSolder" H 19175 6075 50  0001 C CNN
F 3 "~" H 19175 6075 50  0001 C CNN
	1    19175 6075
	0    1    1    0   
$EndComp
Wire Wire Line
	18925 5825 18925 6075
Wire Wire Line
	18925 6075 19075 6075
Wire Wire Line
	19275 6075 19425 6075
Wire Wire Line
	19425 6075 19425 5825
Wire Wire Line
	18925 5825 18550 5825
$Comp
L Device:C_Small C43
U 1 1 5CF42ED6
P 19200 5175
F 0 "C43" V 19100 5050 50  0000 L CNN
F 1 "100nF" V 19300 5075 50  0000 L CNN
F 2 "Capacitor_SMD:C_0603_1608Metric_Pad1.05x0.95mm_HandSolder" H 19200 5175 50  0001 C CNN
F 3 "~" H 19200 5175 50  0001 C CNN
	1    19200 5175
	0    1    1    0   
$EndComp
Wire Wire Line
	18950 4925 18950 5175
Wire Wire Line
	18950 5175 19100 5175
Wire Wire Line
	19300 5175 19450 5175
Wire Wire Line
	19450 5175 19450 4925
Wire Wire Line
	18950 4925 18550 4925
$Comp
L Device:C_Small C44
U 1 1 5CF9C8E5
P 19225 4275
F 0 "C44" V 19125 4150 50  0000 L CNN
F 1 "100nF" V 19325 4175 50  0000 L CNN
F 2 "Capacitor_SMD:C_0603_1608Metric_Pad1.05x0.95mm_HandSolder" H 19225 4275 50  0001 C CNN
F 3 "~" H 19225 4275 50  0001 C CNN
	1    19225 4275
	0    1    1    0   
$EndComp
Wire Wire Line
	18975 4025 18975 4275
Wire Wire Line
	18975 4275 19125 4275
Wire Wire Line
	19325 4275 19475 4275
Wire Wire Line
	19475 4275 19475 4025
Wire Wire Line
	10600 5300 11000 5300
Wire Wire Line
	10650 8625 11050 8625
Wire Wire Line
	10650 8725 11050 8725
Wire Wire Line
	10650 8825 11050 8825
Wire Wire Line
	10650 8925 11050 8925
Wire Wire Line
	19025 3825 18975 3825
Wire Wire Line
	18975 3825 18975 4025
Connection ~ 18975 4025
Wire Wire Line
	19025 4025 18975 4025
Wire Wire Line
	19425 3825 19475 3825
Wire Wire Line
	19475 3825 19475 4025
Connection ~ 19475 4025
Wire Wire Line
	19425 4025 19475 4025
Wire Wire Line
	18950 4925 19000 4925
Connection ~ 18950 4925
Wire Wire Line
	19400 4925 19450 4925
Connection ~ 19450 4925
Wire Wire Line
	19450 4925 20375 4925
Wire Wire Line
	19000 4725 18950 4725
Wire Wire Line
	18950 4725 18950 4925
Wire Wire Line
	19450 4725 19450 4925
Wire Wire Line
	19400 4725 19450 4725
Wire Wire Line
	19375 5825 19425 5825
Connection ~ 19425 5825
Wire Wire Line
	18975 5825 18925 5825
Connection ~ 18925 5825
Wire Wire Line
	18975 5625 18925 5625
Wire Wire Line
	18925 5625 18925 5825
Wire Wire Line
	19375 5625 19425 5625
Wire Wire Line
	19425 5625 19425 5825
Wire Wire Line
	18975 6550 18925 6550
Wire Wire Line
	18925 6550 18925 6750
Connection ~ 18925 6750
Wire Wire Line
	18975 6750 18925 6750
Wire Wire Line
	19375 6550 19425 6550
Wire Wire Line
	19425 6550 19425 6750
Connection ~ 19425 6750
Wire Wire Line
	19375 6750 19425 6750
Wire Wire Line
	19425 5825 20125 5825
Wire Wire Line
	18550 4025 18550 4925
Connection ~ 18550 4925
Wire Wire Line
	18550 4925 18550 5825
Connection ~ 18550 5825
Wire Wire Line
	18550 5825 18550 6750
Wire Wire Line
	20125 7000 20125 5825
Connection ~ 20125 5825
Wire Wire Line
	20125 5825 20875 5825
Wire Wire Line
	20375 7000 20375 4925
Connection ~ 20375 4925
Wire Wire Line
	20375 4925 20875 4925
Wire Wire Line
	20625 7000 20625 4025
Wire Wire Line
	19475 4025 20625 4025
Connection ~ 20625 4025
Wire Wire Line
	20625 4025 20875 4025
Text Label 13625 8625 0    50   ~ 0
PC6
Wire Wire Line
	13450 8625 13800 8625
Text Label 13625 8725 0    50   ~ 0
PC7
Wire Wire Line
	13450 8725 13800 8725
Wire Wire Line
	19250 11050 19625 11050
Text Label 13625 8825 0    50   ~ 0
PC8
Wire Wire Line
	13450 8825 13800 8825
Text Label 13625 8925 0    50   ~ 0
PC9
Wire Wire Line
	13450 8925 13800 8925
NoConn ~ 13450 8325
NoConn ~ 13450 8225
NoConn ~ 13450 8125
NoConn ~ 13450 8025
Text Label 20700 12275 2    50   ~ 0
PC6
Text Label 20700 12175 2    50   ~ 0
PC7
Text Label 20700 12075 2    50   ~ 0
PC8
Wire Wire Line
	20875 12075 20525 12075
Text Label 20700 11975 2    50   ~ 0
PC9
Wire Wire Line
	20875 11975 20525 11975
Wire Wire Line
	11000 5225 11050 5225
Wire Wire Line
	12750 11525 12750 11650
Text Notes 10300 5725 0    50   ~ 0
535-9826-1-ND
Text Notes 14400 9525 0    50   ~ 0
XC1617DKR-ND\n
Text Notes 12850 11925 0    50   ~ 0
587-1897-1-ND
Text Notes 5525 10775 0    50   ~ 0
587-1897-1-ND
$Comp
L push_button:SW_Push_Dual SW2
U 1 1 5CDCBB09
P 3475 10450
F 0 "SW2" H 3475 10625 50  0000 C CNN
F 1 "SW_Push_Dual" H 3475 10175 50  0000 C CNN
F 2 "Button_Switch_THT:SW_PUSH_6mm" H 3475 10650 50  0001 C CNN
F 3 "" H 3475 10650 50  0001 C CNN
	1    3475 10450
	1    0    0    -1  
$EndComp
$Comp
L push_button:SW_Push_Dual SW6
U 1 1 5CDCE51F
P 19225 3825
F 0 "SW6" H 19225 4025 50  0000 C CNN
F 1 "SW_Push_Dual" H 19775 3675 50  0000 C CNN
F 2 "Button_Switch_THT:SW_PUSH_6mm" H 19225 4025 50  0001 C CNN
F 3 "" H 19225 4025 50  0001 C CNN
	1    19225 3825
	1    0    0    -1  
$EndComp
$Comp
L push_button:SW_Push_Dual SW5
U 1 1 5CDCF7C7
P 19200 4725
F 0 "SW5" H 19200 4925 50  0000 C CNN
F 1 "SW_Push_Dual" H 19750 4600 50  0000 C CNN
F 2 "Button_Switch_THT:SW_PUSH_6mm" H 19200 4925 50  0001 C CNN
F 3 "" H 19200 4925 50  0001 C CNN
	1    19200 4725
	1    0    0    -1  
$EndComp
$Comp
L push_button:SW_Push_Dual SW3
U 1 1 5CDCF885
P 19175 5625
F 0 "SW3" H 19175 5825 50  0000 C CNN
F 1 "SW_Push_Dual" H 19700 5500 50  0000 C CNN
F 2 "Button_Switch_THT:SW_PUSH_6mm" H 19175 5825 50  0001 C CNN
F 3 "" H 19175 5825 50  0001 C CNN
	1    19175 5625
	1    0    0    -1  
$EndComp
$Comp
L push_button:SW_Push_Dual SW4
U 1 1 5CDCF951
P 19175 6550
F 0 "SW4" H 19175 6750 50  0000 C CNN
F 1 "SW_Push_Dual" H 19700 6425 50  0000 C CNN
F 2 "Button_Switch_THT:SW_PUSH_6mm" H 19175 6750 50  0001 C CNN
F 3 "" H 19175 6750 50  0001 C CNN
	1    19175 6550
	1    0    0    -1  
$EndComp
$Comp
L Device:Crystal_GND24_Small Y?
U 1 1 5CDBBC59
P 10525 5950
AR Path="/5CB3762C/5CDBBC59" Ref="Y?"  Part="1" 
AR Path="/5CB544F7/5CDBBC59" Ref="Y2"  Part="1" 
F 0 "Y2" V 10400 6000 50  0000 L CNN
F 1 "12MHz" V 10650 5975 50  0000 L CNN
F 2 "Crystal:Crystal_SMD_EuroQuartz_MT-4Pin_3.2x2.5mm_HandSoldering" H 10525 5950 50  0001 C CNN
F 3 "~" H 10525 5950 50  0001 C CNN
	1    10525 5950
	0    1    1    0   
$EndComp
$Comp
L power:GND #PWR?
U 1 1 5CDBBC60
P 10325 5950
AR Path="/5CB3762C/5CDBBC60" Ref="#PWR?"  Part="1" 
AR Path="/5CB544F7/5CDBBC60" Ref="#PWR0136"  Part="1" 
F 0 "#PWR0136" H 10325 5700 50  0001 C CNN
F 1 "GND" V 10250 5900 50  0000 C CNN
F 2 "" H 10325 5950 50  0001 C CNN
F 3 "" H 10325 5950 50  0001 C CNN
	1    10325 5950
	0    1    1    0   
$EndComp
$Comp
L power:GND #PWR?
U 1 1 5CDBBC66
P 10750 5950
AR Path="/5CB3762C/5CDBBC66" Ref="#PWR?"  Part="1" 
AR Path="/5CB544F7/5CDBBC66" Ref="#PWR0137"  Part="1" 
F 0 "#PWR0137" H 10750 5700 50  0001 C CNN
F 1 "GND" V 10825 5900 50  0000 C CNN
F 2 "" H 10750 5950 50  0001 C CNN
F 3 "" H 10750 5950 50  0001 C CNN
	1    10750 5950
	0    -1   -1   0   
$EndComp
Wire Wire Line
	10750 5950 10650 5950
Wire Wire Line
	10400 5950 10325 5950
Wire Wire Line
	10525 5850 10525 5775
Wire Wire Line
	10525 5775 10900 5775
Wire Wire Line
	10150 5775 10525 5775
Connection ~ 10525 5775
Wire Wire Line
	10525 6050 10525 6125
Wire Wire Line
	10525 6125 11050 6125
Wire Wire Line
	10150 6125 10525 6125
Connection ~ 10525 6125
Wire Wire Line
	9850 5775 9950 5775
Wire Wire Line
	9850 6125 9950 6125
Wire Wire Line
	20875 12175 20525 12175
Wire Wire Line
	20875 12275 20525 12275
NoConn ~ 13450 8425
NoConn ~ 13450 8525
NoConn ~ 19250 9500
NoConn ~ 19250 9600
NoConn ~ 13450 9325
NoConn ~ 11050 10025
Wire Wire Line
	9775 7625 9775 7725
$Comp
L power:GND #PWR0140
U 1 1 5D1E64C5
P 14850 10325
F 0 "#PWR0140" H 14850 10075 50  0001 C CNN
F 1 "GND" V 14855 10197 50  0000 R CNN
F 2 "" H 14850 10325 50  0001 C CNN
F 3 "" H 14850 10325 50  0001 C CNN
	1    14850 10325
	0    -1   1    0   
$EndComp
NoConn ~ 11050 7725
Wire Wire Line
	14500 10325 14850 10325
$Comp
L power:GND #PWR0141
U 1 1 5D4380EA
P 9650 7725
F 0 "#PWR0141" H 9650 7475 50  0001 C CNN
F 1 "GND" V 9655 7597 50  0000 R CNN
F 2 "" H 9650 7725 50  0001 C CNN
F 3 "" H 9650 7725 50  0001 C CNN
	1    9650 7725
	0    1    1    0   
$EndComp
Wire Wire Line
	9650 7725 9775 7725
Connection ~ 9775 7725
Wire Wire Line
	9775 7725 9775 7825
Wire Wire Line
	9650 7325 10000 7325
$EndSCHEMATC
