EESchema Schematic File Version 4
LIBS:pcb_edu-cache
EELAYER 26 0
EELAYER END
$Descr A4 11693 8268
encoding utf-8
Sheet 1 4
Title ""
Date ""
Rev ""
Comp "Universidad Nacional de Colombia"
Comment1 "Dorfell Parra"
Comment2 ""
Comment3 ""
Comment4 ""
$EndDescr
$Sheet
S 2725 2625 1425 1150
U 5CB3762C
F0 "Conf_and_power" 50
F1 "config.sch" 50
F2 "TXD_FT" O R 4150 3475 50 
F3 "RXD_FT" I R 4150 3575 50 
F4 "TCK" O R 4150 2725 50 
F5 "TMS" O R 4150 2875 50 
F6 "NJTRST" O R 4150 2950 50 
F7 "TDO_FT" I L 2725 2800 50 
F8 "TDI_FT" O R 4150 2800 50 
$EndSheet
Text Notes 4575 1200 0    118  ~ 24
Main Components 
$Sheet
S 4850 2625 1400 2800
U 5CB544F7
F0 "Microcontroller" 50
F1 "microcontroller_STM.sch" 50
F2 "TDI_FPGA" O R 6250 2800 50 
F3 "TCK" I L 4850 2725 50 
F4 "TMS" I L 4850 2875 50 
F5 "TXD_FT" I L 4850 3475 50 
F6 "RXD_FT" O L 4850 3575 50 
F7 "FMC_A0" O R 6250 3000 50 
F8 "FMC_A1" O R 6250 3075 50 
F9 "FMC_A2" O R 6250 3150 50 
F10 "FMC_A3" O R 6250 3225 50 
F11 "FMC_A4" O R 6250 3300 50 
F12 "FMC_A5" O R 6250 3375 50 
F13 "FMC_A6" O R 6250 3450 50 
F14 "FMC_A7" O R 6250 3525 50 
F15 "FMC_BL0" O R 6250 5250 50 
F16 "FMC_BL1" O R 6250 5325 50 
F17 "FMC_CLK" O R 6250 4950 50 
F18 "FMC_NOE" O R 6250 5175 50 
F19 "FMC_NWE" O R 6250 5100 50 
F20 "FMC_D4" B R 6250 3975 50 
F21 "FMC_D5" B R 6250 4050 50 
F22 "FMC_D6" B R 6250 4125 50 
F23 "FMC_D7" B R 6250 4200 50 
F24 "FMC_D8" B R 6250 4275 50 
F25 "FMC_D9" B R 6250 4350 50 
F26 "FMC_D10" B R 6250 4425 50 
F27 "FMC_D11" B R 6250 4500 50 
F28 "FMC_D12" B R 6250 4575 50 
F29 "FMC_D0" B R 6250 3675 50 
F30 "FMC_D1" B R 6250 3750 50 
F31 "FMC_D14" B R 6250 4725 50 
F32 "FMC_D15" B R 6250 4800 50 
F33 "FMC_D13" B R 6250 4650 50 
F34 "FMC_D3" B R 6250 3900 50 
F35 "FMC_D2" B R 6250 3825 50 
F36 "NJTRST" I L 4850 2950 50 
F37 "FMC_NE3" O R 6250 5025 50 
F38 "TDI_FT" I L 4850 2800 50 
$EndSheet
Wire Wire Line
	4150 3475 4850 3475
Wire Wire Line
	4150 3575 4850 3575
Wire Wire Line
	4150 2725 4550 2725
Wire Wire Line
	4150 2800 4850 2800
Wire Wire Line
	4150 2950 4850 2950
Wire Wire Line
	4650 2375 4650 2875
Wire Wire Line
	4150 2875 4650 2875
Connection ~ 4650 2875
Wire Wire Line
	4650 2875 4850 2875
Wire Wire Line
	7025 2725 6850 2725
Wire Wire Line
	6850 2725 6850 2275
Wire Wire Line
	6850 2275 4550 2275
Wire Wire Line
	4550 2275 4550 2725
Connection ~ 4550 2725
Wire Wire Line
	4550 2725 4850 2725
Wire Wire Line
	6750 2375 6750 2875
Wire Wire Line
	6750 2875 7025 2875
Wire Wire Line
	4650 2375 6750 2375
Wire Wire Line
	6250 2800 7025 2800
Wire Wire Line
	8775 2800 8775 2175
Wire Wire Line
	2300 2175 8775 2175
Wire Wire Line
	2725 2800 2300 2800
Wire Wire Line
	2300 2175 2300 2800
Wire Notes Line
	10625 825  10625 6400
Wire Notes Line
	10625 6400 1100 6400
Wire Notes Line
	1100 6400 1100 825 
Wire Notes Line
	1100 825  10625 825 
$Sheet
S 7025 2625 1375 2825
U 5CB37600
F0 "FPGA" 50
F1 "FPGA.sch" 50
F2 "TDI_FPGA" I L 7025 2800 50 
F3 "TCK" I L 7025 2725 50 
F4 "TMS" I L 7025 2875 50 
F5 "FMC_A0" I L 7025 3000 50 
F6 "FMC_A1" I L 7025 3075 50 
F7 "FMC_A2" I L 7025 3150 50 
F8 "FMC_A3" I L 7025 3225 50 
F9 "FMC_A4" I L 7025 3300 50 
F10 "FMC_A5" I L 7025 3375 50 
F11 "FMC_A6" I L 7025 3450 50 
F12 "FMC_A7" I L 7025 3525 50 
F13 "FMC_D4" B L 7025 3975 50 
F14 "FMC_D5" B L 7025 4050 50 
F15 "FMC_D6" B L 7025 4125 50 
F16 "FMC_D7" B L 7025 4200 50 
F17 "FMC_D8" B L 7025 4275 50 
F18 "FMC_D9" B L 7025 4350 50 
F19 "FMC_D10" B L 7025 4425 50 
F20 "FMC_D11" B L 7025 4500 50 
F21 "FMC_D12" B L 7025 4575 50 
F22 "FMC_BL0" I L 7025 5250 50 
F23 "FMC_BL1" I L 7025 5325 50 
F24 "FMC_D0" B L 7025 3675 50 
F25 "FMC_D1" B L 7025 3750 50 
F26 "FMC_D14" B L 7025 4725 50 
F27 "FMC_D15" B L 7025 4800 50 
F28 "FMC_D13" B L 7025 4650 50 
F29 "FMC_CLK" I L 7025 4950 50 
F30 "FMC_NOE" I L 7025 5175 50 
F31 "FMC_NWE" I L 7025 5100 50 
F32 "FMC_D3" B L 7025 3900 50 
F33 "FMC_D2" B L 7025 3825 50 
F34 "FMC_NE3" I L 7025 5025 50 
F35 "TDO_FT" O R 8400 2800 50 
$EndSheet
Wire Wire Line
	6250 3000 7025 3000
Wire Wire Line
	7025 3075 6250 3075
Wire Wire Line
	6250 3150 7025 3150
Wire Wire Line
	7025 3225 6250 3225
Wire Wire Line
	6250 3300 7025 3300
Wire Wire Line
	7025 3375 6250 3375
Wire Wire Line
	6250 3450 7025 3450
Wire Wire Line
	7025 3525 6250 3525
Wire Wire Line
	6250 3675 7025 3675
Wire Wire Line
	7025 3750 6250 3750
Wire Wire Line
	6250 3825 7025 3825
Wire Wire Line
	6250 3900 7025 3900
Wire Wire Line
	7025 3975 6250 3975
Wire Wire Line
	6250 4050 7025 4050
Wire Wire Line
	6250 4125 7025 4125
Wire Wire Line
	6250 4200 7025 4200
Wire Wire Line
	7025 4275 6250 4275
Wire Wire Line
	6250 4350 7025 4350
Wire Wire Line
	7025 4425 6250 4425
Wire Wire Line
	6250 4500 7025 4500
Wire Wire Line
	7025 4575 6250 4575
Wire Wire Line
	6250 4650 7025 4650
Wire Wire Line
	7025 4725 6250 4725
Wire Wire Line
	6250 4800 7025 4800
Wire Wire Line
	7025 4950 6250 4950
Wire Wire Line
	6250 5025 7025 5025
Wire Wire Line
	7025 5100 6250 5100
Wire Wire Line
	6250 5175 7025 5175
Wire Wire Line
	6250 5250 7025 5250
Wire Wire Line
	7025 5325 6250 5325
Wire Wire Line
	8400 2800 8775 2800
$EndSCHEMATC
